<svg width="492" height="265" viewBox="0 0 492 265" fill="none" xmlns="http://www.w3.org/2000/svg">
<path d="M12.8319 255.723L11.714 256.874L11.7197 256.879L12.8319 255.723ZM12.9209 208.372L14.039 209.523L14.0445 209.517L12.9209 208.372ZM48.1669 201.074L47.601 202.575L47.6157 202.581L47.6305 202.586L48.1669 201.074ZM57.0674 206.325L58.1865 205.176L57.0674 206.325ZM62.4967 213.09L63.8785 212.275L63.8785 212.275L62.4967 213.09ZM65.3449 220.299L65.8275 221.829L67.2192 221.39L66.9134 219.963L65.3449 220.299ZM52.0832 224.482L50.5226 224.854L50.9219 226.531L52.5657 226.012L52.0832 224.482ZM50.6591 220.833L49.2381 221.577L49.2456 221.592L49.2535 221.606L50.6591 220.833ZM47.8999 217.095L46.7129 218.174L46.7255 218.188L46.7383 218.201L47.8999 217.095ZM43.0046 213.98L42.4089 215.469L42.4274 215.477L42.4461 215.484L43.0046 213.98ZM23.4235 217.807L24.5084 218.989L24.5136 218.984L24.5188 218.979L23.4235 217.807ZM23.3345 245.666L24.4394 244.503L23.3345 245.666ZM47.4549 247.09L46.3745 245.904V245.904L47.4549 247.09ZM52.7062 238.901L53.1455 237.358L51.588 236.915L51.1593 238.477L52.7062 238.901ZM66.146 242.728L67.7044 243.108L68.0703 241.608L66.5853 241.186L66.146 242.728ZM63.2088 249.938L61.8181 249.138L61.8105 249.151L61.8032 249.165L63.2088 249.938ZM57.7795 256.969L56.6452 255.835L56.6378 255.842L56.6305 255.85L57.7795 256.969ZM48.701 262.666L49.2721 264.165L49.2846 264.16L48.701 262.666ZM36.1513 263.197C27.2818 263.197 19.9157 260.313 13.9442 254.567L11.7197 256.879C18.3276 263.238 26.5076 266.406 36.1513 266.406V263.197ZM13.9498 254.573C8.00457 248.796 5.00155 241.335 5.00155 232.048H1.79326C1.79326 242.104 5.07992 250.427 11.714 256.874L13.9498 254.573ZM5.00155 232.048C5.00155 222.827 8.02904 215.364 14.039 209.523L11.8029 207.222C5.1148 213.723 1.79326 222.043 1.79326 232.048H5.00155ZM14.0445 209.517C20.089 203.586 27.3677 200.631 35.9732 200.631V197.423C26.5404 197.423 18.451 200.698 11.7974 207.227L14.0445 209.517ZM35.9732 200.631C40.321 200.631 44.1896 201.289 47.601 202.575L48.7329 199.573C44.9052 198.13 40.6447 197.423 35.9732 197.423V200.631ZM47.6305 202.586C51.1423 203.832 53.8942 205.475 55.9484 207.475L58.1865 205.176C55.7311 202.785 52.5493 200.927 48.7034 199.562L47.6305 202.586ZM55.9484 207.475C58.1181 209.587 59.8337 211.732 61.115 213.905L63.8785 212.275C62.4303 209.819 60.5264 207.454 58.1865 205.176L55.9484 207.475ZM61.115 213.905C62.3969 216.078 63.2804 218.321 63.7764 220.635L66.9134 219.963C66.3414 217.293 65.3261 214.729 63.8785 212.275L61.115 213.905ZM64.8623 218.769L51.6006 222.953L52.5657 226.012L65.8275 221.829L64.8623 218.769ZM53.6437 224.111C53.3118 222.717 52.7828 221.366 52.0647 220.06L49.2535 221.606C49.8407 222.674 50.2612 223.756 50.5226 224.854L53.6437 224.111ZM52.0801 220.089C51.3448 218.685 50.3291 217.32 49.0615 215.989L46.7383 218.201C47.8442 219.362 48.668 220.489 49.2381 221.577L52.0801 220.089ZM49.0869 216.016C47.6891 214.478 45.8203 213.314 43.5632 212.476L42.4461 215.484C44.3426 216.188 45.7372 217.101 46.7129 218.174L49.0869 216.016ZM43.6004 212.49C41.3052 211.572 38.7545 211.13 35.9732 211.13V214.338C38.4136 214.338 40.5505 214.726 42.4089 215.469L43.6004 212.49ZM35.9732 211.13C30.8005 211.13 26.2307 212.988 22.3283 216.635L24.5188 218.979C27.8555 215.861 31.6521 214.338 35.9732 214.338V211.13ZM22.3387 216.625C18.3074 220.326 16.3901 225.55 16.3901 232.048H19.5984C19.5984 226.203 21.3006 221.934 24.5084 218.989L22.3387 216.625ZM16.3901 232.048C16.3901 238.107 18.299 243.094 22.2297 246.829L24.4394 244.503C21.2496 241.472 19.5984 237.381 19.5984 232.048H16.3901ZM22.2297 246.829C26.093 250.499 30.7626 252.343 36.1513 252.343V249.135C31.5713 249.135 27.6965 247.597 24.4394 244.503L22.2297 246.829ZM36.1513 252.343C41.2758 252.343 45.4799 251.059 48.5353 248.275L46.3745 245.904C44.0896 247.986 40.758 249.135 36.1513 249.135V252.343ZM48.5353 248.275C51.3952 245.67 53.3305 242.687 54.2531 239.326L51.1593 238.477C50.4205 241.168 48.8549 243.644 46.3745 245.904L48.5353 248.275ZM52.2668 240.444L65.7066 244.271L66.5853 241.186L53.1455 237.358L52.2668 240.444ZM64.5875 242.348C64.0332 244.621 63.1144 246.884 61.8181 249.138L64.5994 250.737C66.0326 248.245 67.072 245.701 67.7044 243.108L64.5875 242.348ZM61.8032 249.165C60.584 251.381 58.8737 253.606 56.6452 255.835L58.9138 258.103C61.3135 255.704 63.2227 253.241 64.6144 250.711L61.8032 249.165ZM56.6305 255.85C54.5713 257.963 51.7558 259.75 48.1173 261.171L49.2846 264.16C53.2412 262.614 56.478 260.604 58.9284 258.089L56.6305 255.85ZM48.1299 261.166C44.6003 262.511 40.6145 263.197 36.1513 263.197V266.406C40.9445 266.406 45.3252 265.668 49.272 264.165L48.1299 261.166ZM100.843 249.493L99.7266 248.341L99.7177 248.35L99.709 248.358L100.843 249.493ZM100.843 233.205L99.709 234.339L99.7267 234.357L99.745 234.374L100.843 233.205ZM86.7805 233.205L87.8972 234.356V234.356L86.7805 233.205ZM86.7805 249.493L85.6462 250.627L85.6549 250.636L85.6638 250.644L86.7805 249.493ZM110.545 224.482L109.418 225.624L109.426 225.632L110.545 224.482ZM110.545 258.215L111.672 259.357L111.672 259.357L110.545 258.215ZM77.079 258.126L78.2057 256.984L77.079 258.126ZM77.079 224.571L78.1981 225.721L78.2057 225.713L77.079 224.571ZM93.8119 253.945C97.0079 253.945 99.7653 252.839 101.978 250.627L99.709 248.358C98.1238 249.944 96.1936 250.737 93.8119 250.737V253.945ZM101.96 250.644C104.317 248.359 105.385 245.16 105.385 241.304H102.176C102.176 244.569 101.286 246.829 99.7266 248.341L101.96 250.644ZM105.385 241.304C105.385 237.452 104.318 234.268 101.942 232.036L99.745 234.374C101.285 235.821 102.176 238.036 102.176 241.304H105.385ZM101.978 232.071C99.7653 229.858 97.0079 228.753 93.8119 228.753V231.961C96.1936 231.961 98.1238 232.754 99.709 234.339L101.978 232.071ZM93.8119 228.753C90.6659 228.753 87.9214 229.864 85.6638 232.053L87.8972 234.356C89.5558 232.748 91.499 231.961 93.8119 231.961V228.753ZM85.6638 232.053C83.312 234.334 82.2392 237.499 82.2392 241.304H85.4475C85.4475 238.108 86.3328 235.874 87.8972 234.356L85.6638 232.053ZM82.2392 241.304C82.2392 245.112 83.3128 248.294 85.6462 250.627L87.9148 248.358C86.332 246.776 85.4475 244.498 85.4475 241.304H82.2392ZM85.6638 250.644C87.9214 252.834 90.6659 253.945 93.8119 253.945V250.737C91.499 250.737 89.5558 249.949 87.8972 248.341L85.6638 250.644ZM93.8119 219.5C100.129 219.5 105.291 221.552 109.418 225.624L111.672 223.34C106.898 218.63 100.905 216.292 93.8119 216.292V219.5ZM109.426 225.632C113.597 229.694 115.705 234.873 115.705 241.304H118.913C118.913 234.088 116.511 228.053 111.664 223.333L109.426 225.632ZM115.705 241.304C115.705 247.735 113.597 252.949 109.418 257.073L111.672 259.357C116.512 254.581 118.913 248.521 118.913 241.304H115.705ZM109.418 257.073C105.291 261.145 100.129 263.197 93.8119 263.197V266.406C100.905 266.406 106.898 264.067 111.672 259.357L109.418 257.073ZM93.8119 263.197C87.565 263.197 82.3992 261.123 78.2057 256.984L75.9522 259.268C80.7779 264.03 86.7674 266.406 93.8119 266.406V263.197ZM78.2057 256.984C74.0238 252.858 71.9187 247.672 71.9187 241.304H68.7104C68.7104 248.466 71.115 254.494 75.9522 259.268L78.2057 256.984ZM71.9187 241.304C71.9187 234.937 74.0234 229.785 78.198 225.721L75.9599 223.422C71.1153 228.139 68.7104 234.143 68.7104 241.304H71.9187ZM78.2057 225.713C82.3992 221.575 87.565 219.5 93.8119 219.5V216.292C86.7674 216.292 80.7779 218.667 75.9522 223.43L78.2057 225.713ZM139.547 263.467V265.071H141.151V263.467H139.547ZM126.018 263.467H124.414V265.071H126.018V263.467ZM126.018 219.231V217.627H124.414V219.231H126.018ZM139.102 219.231H140.706V217.627H139.102V219.231ZM139.102 224.304H137.497V230.305L140.492 225.105L139.102 224.304ZM144.264 219.765L144.936 221.222L144.944 221.218L144.952 221.214L144.264 219.765ZM163.489 223.058L162.249 224.076L162.254 224.082L162.258 224.087L163.489 223.058ZM167.583 263.467V265.071H169.187V263.467H167.583ZM154.054 263.467H152.45V265.071H154.054V263.467ZM152.185 232.493L150.953 233.52L150.976 233.548L151.001 233.574L152.185 232.493ZM141.505 232.582L140.324 231.496L140.322 231.498L141.505 232.582ZM137.942 238.1V263.467H141.151V238.1H137.942ZM139.547 261.862H126.018V265.071H139.547V261.862ZM127.622 263.467V219.231H124.414V263.467H127.622ZM126.018 220.835H139.102V217.627H126.018V220.835ZM137.497 219.231V224.304H140.706V219.231H137.497ZM140.492 225.105C141.433 223.47 142.883 222.169 144.936 221.222L143.592 218.309C141.016 219.497 139.025 221.222 137.711 223.504L140.492 225.105ZM144.952 221.214C147.128 220.181 149.297 219.678 151.473 219.678V216.47C148.784 216.47 146.147 217.095 143.576 218.316L144.952 221.214ZM151.473 219.678C156.394 219.678 159.893 221.208 162.249 224.076L164.729 222.04C161.625 218.262 157.114 216.47 151.473 216.47V219.678ZM162.258 224.087C164.698 227.004 165.979 230.828 165.979 235.697H169.187C169.187 230.242 167.739 225.639 164.719 222.029L162.258 224.087ZM165.979 235.697V263.467H169.187V235.697H165.979ZM167.583 261.862H154.054V265.071H167.583V261.862ZM155.659 263.467V238.011H152.45V263.467H155.659ZM155.659 238.011C155.659 235.402 154.949 233.141 153.37 231.411L151.001 233.574C151.913 234.574 152.45 235.992 152.45 238.011H155.659ZM153.418 231.466C151.845 229.578 149.55 228.753 146.845 228.753V231.961C148.887 231.961 150.153 232.559 150.953 233.52L153.418 231.466ZM146.845 228.753C144.246 228.753 142.022 229.651 140.324 231.496L142.685 233.668C143.717 232.546 145.054 231.961 146.845 231.961V228.753ZM140.322 231.498C138.701 233.267 137.942 235.515 137.942 238.1H141.151C141.151 236.175 141.698 234.745 142.687 233.666L140.322 231.498ZM195.15 206.325H196.755V204.721H195.15V206.325ZM195.15 219.231H193.546V220.835H195.15V219.231ZM203.784 219.231H205.388V217.627H203.784V219.231ZM203.784 231.069V232.673H205.388V231.069H203.784ZM195.15 231.069V229.465H193.546V231.069H195.15ZM203.606 251.807H205.21V249.797L203.25 250.243L203.606 251.807ZM203.606 263.022L204.323 264.456L205.21 264.013V263.022H203.606ZM185.716 260.44L184.595 261.588L184.601 261.594L184.608 261.6L185.716 260.44ZM181.8 231.069H183.404V229.465H181.8V231.069ZM173.967 231.069H172.363V232.673H173.967V231.069ZM173.967 219.231V217.627H172.363V219.231H173.967ZM181.266 217.273L180.055 216.22L180.052 216.224L181.266 217.273ZM183.046 206.325V204.721H181.442V206.325H183.046ZM193.546 206.325V219.231H196.755V206.325H193.546ZM195.15 220.835H203.784V217.627H195.15V220.835ZM202.18 219.231V231.069H205.388V219.231H202.18ZM203.784 229.465H195.15V232.673H203.784V229.465ZM193.546 231.069V247.624H196.755V231.069H193.546ZM193.546 247.624C193.546 249.437 194.03 251.086 195.272 252.26C196.497 253.419 198.188 253.856 200.046 253.856V250.648C198.639 250.648 197.883 250.314 197.476 249.929C197.086 249.561 196.755 248.895 196.755 247.624H193.546ZM200.046 253.856C201.259 253.856 202.567 253.688 203.961 253.371L203.25 250.243C202.034 250.519 200.968 250.648 200.046 250.648V253.856ZM202.002 251.807V263.022H205.21V251.807H202.002ZM202.888 261.587C201.547 262.257 199.49 262.663 196.574 262.663V265.872C199.711 265.872 202.341 265.447 204.323 264.456L202.888 261.587ZM196.574 262.663C192.315 262.663 189.129 261.483 186.824 259.281L184.608 261.6C187.643 264.501 191.696 265.872 196.574 265.872V262.663ZM186.837 259.293C184.596 257.103 183.404 254.08 183.404 250.027H180.195C180.195 254.756 181.614 258.674 184.595 261.588L186.837 259.293ZM183.404 250.027V231.069H180.195V250.027H183.404ZM181.8 229.465H173.967V232.673H181.8V229.465ZM175.571 231.069V219.231H172.363V231.069H175.571ZM173.967 220.835H176.192V217.627H173.967V220.835ZM176.192 220.835C178.761 220.835 180.96 220.081 182.48 218.321L180.052 216.224C179.316 217.076 178.134 217.627 176.192 217.627V220.835ZM182.476 218.326C183.961 216.618 184.65 214.471 184.65 212.022H181.442C181.442 213.845 180.943 215.199 180.055 216.22L182.476 218.326ZM184.65 212.022V206.325H181.442V212.022H184.65ZM183.046 207.929H195.15V204.721H183.046V207.929ZM214.698 242.283L215.789 243.46L215.796 243.453L215.804 243.446L214.698 242.283ZM224.133 237.922L224.377 239.508L224.133 237.922ZM234.546 236.32L234.326 234.731L234.314 234.733L234.302 234.735L234.546 236.32ZM235.97 229.912L234.937 231.139L234.972 231.168L235.008 231.195L235.97 229.912ZM225.824 230.446L226.931 231.606L226.933 231.605L225.824 230.446ZM223.688 234.985L223.366 236.557L225.166 236.925L225.288 235.092L223.688 234.985ZM211.939 232.582L210.34 232.453L210.226 233.869L211.617 234.153L211.939 232.582ZM217.368 222.524L218.448 223.71L218.449 223.709L217.368 222.524ZM246.117 222.702L244.972 223.826L244.977 223.831L244.983 223.837L246.117 222.702ZM251.457 263.467V265.071H253.414L253.03 263.152L251.457 263.467ZM239.264 263.467L237.707 263.856L238.011 265.071H239.264V263.467ZM238.818 258.482H240.423V252.806L237.452 257.643L238.818 258.482ZM215.143 260.796L214.021 261.943L214.034 261.955L214.047 261.967L215.143 260.796ZM237.75 244.152H239.355V242.272L237.498 242.568L237.75 244.152ZM229.384 245.488L229.131 243.903L229.129 243.904L229.384 245.488ZM225.646 253.587L224.473 254.682L224.492 254.702L224.511 254.721L225.646 253.587ZM212.653 251.273C212.653 247.919 213.727 245.371 215.789 243.46L213.608 241.107C210.804 243.705 209.445 247.151 209.445 251.273H212.653ZM215.804 243.446C217.962 241.392 220.789 240.059 224.377 239.508L223.889 236.337C219.762 236.971 216.299 238.546 213.593 241.121L215.804 243.446ZM224.377 239.508L234.79 237.906L234.302 234.735L223.889 236.337L224.377 239.508ZM234.767 237.909C236.018 237.735 237.185 237.325 238.051 236.507C238.961 235.648 239.355 234.513 239.355 233.294H236.146C236.146 233.795 236.006 234.026 235.848 234.175C235.646 234.366 235.211 234.608 234.326 234.731L234.767 237.909ZM239.355 233.294C239.355 231.375 238.483 229.791 236.933 228.628L235.008 231.195C235.831 231.813 236.146 232.483 236.146 233.294H239.355ZM237.004 228.685C235.496 227.415 233.509 226.883 231.253 226.883V230.092C233.032 230.092 234.19 230.51 234.937 231.139L237.004 228.685ZM231.253 226.883C228.67 226.883 226.435 227.642 224.715 229.286L226.933 231.605C227.942 230.639 229.326 230.092 231.253 230.092V226.883ZM224.716 229.285C223.124 230.805 222.233 232.693 222.087 234.878L225.288 235.092C225.38 233.717 225.913 232.579 226.931 231.606L224.716 229.285ZM224.009 233.413L212.26 231.01L211.617 234.153L223.366 236.557L224.009 233.413ZM213.538 232.711C213.795 229.522 215.357 226.525 218.448 223.71L216.288 221.338C212.734 224.575 210.676 228.284 210.34 232.453L213.538 232.711ZM218.449 223.709C221.457 220.966 225.687 219.5 231.342 219.5V216.292C225.13 216.292 220.044 217.912 216.287 221.339L218.449 223.709ZM231.342 219.5C237.827 219.5 242.25 221.053 244.972 223.826L247.262 221.579C243.694 217.944 238.267 216.292 231.342 216.292V219.5ZM244.983 223.837C247.854 226.708 249.319 230.379 249.319 234.985H252.527C252.527 229.622 250.788 225.104 247.251 221.568L244.983 223.837ZM249.319 234.985V256.613H252.527V234.985H249.319ZM249.319 256.613C249.319 259.458 249.5 261.858 249.884 263.781L253.03 263.152C252.703 261.515 252.527 259.346 252.527 256.613H249.319ZM251.457 261.862H239.264V265.071H251.457V261.862ZM240.82 263.077C240.57 262.078 240.423 260.569 240.423 258.482H237.214C237.214 260.668 237.364 262.481 237.707 263.856L240.82 263.077ZM237.452 257.643C235.249 261.228 231.674 263.108 226.358 263.108V266.317C232.553 266.317 237.285 264.043 240.185 259.322L237.452 257.643ZM226.358 263.108C221.98 263.108 218.667 261.898 216.239 259.625L214.047 261.967C217.197 264.917 221.36 266.317 226.358 266.317V263.108ZM216.265 259.65C213.831 257.269 212.653 254.502 212.653 251.273H209.445C209.445 255.401 210.996 258.984 214.021 261.943L216.265 259.65ZM229.651 256.526C232.305 256.526 234.626 255.733 236.499 254.076L234.373 251.673C233.161 252.746 231.625 253.318 229.651 253.318V256.526ZM236.499 254.076C238.533 252.277 239.355 249.473 239.355 246.111H236.146C236.146 249.038 235.425 250.743 234.373 251.673L236.499 254.076ZM239.355 246.111V244.152H236.146V246.111H239.355ZM237.498 242.568L229.131 243.903L229.637 247.072L238.003 245.737L237.498 242.568ZM229.129 243.904C227.28 244.201 225.674 244.836 224.522 245.967C223.331 247.137 222.796 248.668 222.796 250.383H226.004C226.004 249.368 226.299 248.719 226.77 248.256C227.279 247.756 228.165 247.308 229.638 247.071L229.129 243.904ZM222.796 250.383C222.796 252.025 223.358 253.487 224.473 254.682L226.818 252.492C226.272 251.907 226.004 251.233 226.004 250.383H222.796ZM224.511 254.721C225.808 256.018 227.624 256.526 229.651 256.526V253.318C228.118 253.318 227.263 252.936 226.78 252.453L224.511 254.721ZM275.13 233.294L273.995 232.16L273.987 232.168L273.978 232.177L275.13 233.294ZM275.219 249.404L274.084 250.538L274.093 250.547L274.102 250.555L275.219 249.404ZM288.57 250.472L289.577 251.72L289.583 251.715L288.57 250.472ZM291.774 245.755L292.243 244.221L290.687 243.744L290.233 245.307L291.774 245.755ZM303.7 249.404L305.255 249.798L305.631 248.317L304.17 247.87L303.7 249.404ZM296.491 260.262L295.482 259.016L295.472 259.024L296.491 260.262ZM265.695 258.215L264.576 259.364L264.584 259.372L264.591 259.379L265.695 258.215ZM265.517 224.571L266.644 225.713L266.644 225.713L265.517 224.571ZM296.313 222.346L295.306 223.595L296.313 222.346ZM303.433 233.294L303.896 234.83L305.356 234.39L304.991 232.91L303.433 233.294ZM291.329 236.943L289.784 237.377L290.227 238.951L291.792 238.479L291.329 236.943ZM282.428 228.753C279.119 228.753 276.271 229.884 273.995 232.16L276.264 234.428C277.905 232.787 279.922 231.961 282.428 231.961V228.753ZM273.978 232.177C271.718 234.508 270.677 237.649 270.677 241.393H273.886C273.886 238.254 274.744 235.996 276.281 234.411L273.978 232.177ZM270.677 241.393C270.677 245.101 271.761 248.215 274.084 250.538L276.353 248.269C274.76 246.676 273.886 244.45 273.886 241.393H270.677ZM274.102 250.555C276.43 252.814 279.297 253.945 282.606 253.945V250.737C280.1 250.737 278.043 249.909 276.336 248.253L274.102 250.555ZM282.606 253.945C285.32 253.945 287.689 253.245 289.577 251.72L287.562 249.224C286.364 250.191 284.758 250.737 282.606 250.737V253.945ZM289.583 251.715C291.417 250.221 292.682 248.379 293.314 246.202L290.233 245.307C289.797 246.809 288.927 248.112 287.556 249.228L289.583 251.715ZM291.304 247.288L303.231 250.938L304.17 247.87L292.243 244.221L291.304 247.288ZM302.145 249.01C301.172 252.851 298.981 256.183 295.482 259.016L297.5 261.509C301.477 258.29 304.093 254.382 305.255 249.798L302.145 249.01ZM295.472 259.024C292.128 261.774 287.879 263.197 282.606 263.197V266.406C288.489 266.406 293.497 264.803 297.51 261.501L295.472 259.024ZM282.606 263.197C276.352 263.197 271.116 261.147 266.799 257.052L264.591 259.379C269.531 264.065 275.569 266.406 282.606 266.406V263.197ZM266.815 257.066C262.576 252.938 260.446 247.754 260.446 241.393H257.238C257.238 248.561 259.677 254.592 264.576 259.364L266.815 257.066ZM260.446 241.393C260.446 234.955 262.529 229.774 266.644 225.713L264.391 223.429C259.605 228.151 257.238 234.184 257.238 241.393H260.446ZM266.644 225.713C270.84 221.572 275.978 219.5 282.161 219.5V216.292C275.172 216.292 269.213 218.67 264.39 223.43L266.644 225.713ZM282.161 219.5C287.633 219.5 291.97 220.905 295.306 223.595L297.32 221.098C293.298 217.854 288.201 216.292 282.161 216.292V219.5ZM295.306 223.595C298.729 226.355 300.897 229.708 301.876 233.678L304.991 232.91C303.834 228.217 301.255 224.271 297.32 221.098L295.306 223.595ZM302.97 231.758L290.866 235.407L291.792 238.479L303.896 234.83L302.97 231.758ZM292.873 236.509C292.253 234.306 291.069 232.455 289.334 230.997L287.271 233.454C288.503 234.489 289.336 235.783 289.784 237.377L292.873 236.509ZM289.334 230.997C287.494 229.452 285.139 228.753 282.428 228.753V231.961C284.583 231.961 286.144 232.508 287.271 233.454L289.334 230.997ZM328.136 206.325H329.741V204.721H328.136V206.325ZM328.136 219.231H326.532V220.835H328.136V219.231ZM336.77 219.231H338.374V217.627H336.77V219.231ZM336.77 231.069V232.673H338.374V231.069H336.77ZM328.136 231.069V229.465H326.532V231.069H328.136ZM336.592 251.807H338.196V249.797L336.236 250.243L336.592 251.807ZM336.592 263.022L337.309 264.456L338.196 264.013V263.022H336.592ZM318.702 260.44L317.581 261.588L317.587 261.594L317.594 261.6L318.702 260.44ZM314.786 231.069H316.39V229.465H314.786V231.069ZM306.953 231.069H305.349V232.673H306.953V231.069ZM306.953 219.231V217.627H305.349V219.231H306.953ZM314.252 217.273L313.041 216.22L313.038 216.224L314.252 217.273ZM316.032 206.325V204.721H314.428V206.325H316.032ZM326.532 206.325V219.231H329.741V206.325H326.532ZM328.136 220.835H336.77V217.627H328.136V220.835ZM335.166 219.231V231.069H338.374V219.231H335.166ZM336.77 229.465H328.136V232.673H336.77V229.465ZM326.532 231.069V247.624H329.741V231.069H326.532ZM326.532 247.624C326.532 249.437 327.016 251.086 328.258 252.26C329.483 253.419 331.174 253.856 333.032 253.856V250.648C331.625 250.648 330.869 250.314 330.462 249.929C330.072 249.561 329.741 248.895 329.741 247.624H326.532ZM333.032 253.856C334.245 253.856 335.553 253.688 336.947 253.371L336.236 250.243C335.02 250.519 333.955 250.648 333.032 250.648V253.856ZM334.988 251.807V263.022H338.196V251.807H334.988ZM335.875 261.587C334.533 262.257 332.476 262.663 329.561 262.663V265.872C332.697 265.872 335.328 265.447 337.309 264.456L335.875 261.587ZM329.561 262.663C325.301 262.663 322.115 261.483 319.81 259.281L317.594 261.6C320.629 264.501 324.682 265.872 329.561 265.872V262.663ZM319.823 259.293C317.582 257.103 316.39 254.08 316.39 250.027H313.182C313.182 254.756 314.6 258.674 317.581 261.588L319.823 259.293ZM316.39 250.027V231.069H313.182V250.027H316.39ZM314.786 229.465H306.953V232.673H314.786V229.465ZM308.557 231.069V219.231H305.349V231.069H308.557ZM306.953 220.835H309.178V217.627H306.953V220.835ZM309.178 220.835C311.747 220.835 313.946 220.081 315.466 218.321L313.038 216.224C312.302 217.076 311.12 217.627 309.178 217.627V220.835ZM315.462 218.326C316.947 216.618 317.636 214.471 317.636 212.022H314.428C314.428 213.845 313.929 215.199 313.041 216.22L315.462 218.326ZM317.636 212.022V206.325H314.428V212.022H317.636ZM316.032 207.929H328.136V204.721H316.032V207.929ZM381.355 263.467V265.071H382.959V263.467H381.355ZM367.826 263.467H366.222V265.071H367.826V263.467ZM367.826 219.231V217.627H366.222V219.231H367.826ZM380.732 219.231H382.336V217.627H380.732V219.231ZM380.732 224.304H379.128V230.428L382.13 225.091L380.732 224.304ZM385.983 219.676L385.294 218.228L385.287 218.231L385.28 218.234L385.983 219.676ZM406.544 224.838L405.116 225.57L406.338 227.953L407.863 225.751L406.544 224.838ZM431.91 222.168L430.833 223.357L430.839 223.363L430.846 223.368L431.91 222.168ZM436.627 263.467V265.071H438.231V263.467H436.627ZM423.544 263.467H421.939V265.071H423.544V263.467ZM421.763 232.493L420.531 233.52L420.542 233.533L420.553 233.545L421.763 232.493ZM411.083 232.582L412.287 233.642V233.642L411.083 232.582ZM409.125 263.467V265.071H410.729V263.467H409.125ZM395.774 263.467H394.17V265.071H395.774V263.467ZM393.905 232.493L392.673 233.52L392.696 233.548L392.72 233.574L393.905 232.493ZM383.313 232.582L384.518 233.642L384.518 233.642L383.313 232.582ZM381.355 261.862H367.826V265.071H381.355V261.862ZM369.431 263.467V219.231H366.222V263.467H369.431ZM367.826 220.835H380.732V217.627H367.826V220.835ZM379.128 219.231V224.304H382.336V219.231H379.128ZM382.13 225.091C383.004 223.538 384.475 222.197 386.687 221.118L385.28 218.234C382.626 219.529 380.597 221.273 379.334 223.518L382.13 225.091ZM386.673 221.124C388.973 220.029 391.231 219.5 393.46 219.5V216.292C390.704 216.292 387.978 216.95 385.294 218.228L386.673 221.124ZM393.46 219.5C399.367 219.5 403.083 221.606 405.116 225.57L407.971 224.106C405.257 218.814 400.251 216.292 393.46 216.292V219.5ZM407.863 225.751C410.748 221.583 414.809 219.5 420.25 219.5V216.292C413.824 216.292 408.747 218.837 405.225 223.925L407.863 225.751ZM420.25 219.5C424.52 219.5 428.011 220.801 430.833 223.357L432.987 220.979C429.519 217.839 425.237 216.292 420.25 216.292V219.5ZM430.846 223.368C433.541 225.758 435.023 229.464 435.023 234.807H438.231C438.231 228.876 436.569 224.156 432.974 220.968L430.846 223.368ZM435.023 234.807V263.467H438.231V234.807H435.023ZM436.627 261.862H423.544V265.071H436.627V261.862ZM425.148 263.467V237.833H421.939V263.467H425.148ZM425.148 237.833C425.148 235.337 424.466 233.156 422.974 231.44L420.553 233.545C421.434 234.559 421.939 235.938 421.939 237.833H425.148ZM422.996 231.466C421.431 229.587 419.174 228.753 416.512 228.753V231.961C418.479 231.961 419.723 232.55 420.531 233.52L422.996 231.466ZM416.512 228.753C413.824 228.753 411.542 229.632 409.879 231.522L412.287 233.642C413.235 232.564 414.572 231.961 416.512 231.961V228.753ZM409.879 231.522C408.302 233.314 407.521 235.477 407.521 237.922H410.729C410.729 236.214 411.253 234.816 412.287 233.642L409.879 231.522ZM407.521 237.922V263.467H410.729V237.922H407.521ZM409.125 261.862H395.774V265.071H409.125V261.862ZM397.378 263.467V237.833L394.17 237.833V263.467H397.378ZM397.378 237.833C397.378 235.317 396.655 233.126 395.09 231.411L392.72 233.574C393.647 234.59 394.17 235.958 394.17 237.833L397.378 237.833ZM395.137 231.466C393.572 229.587 391.315 228.753 388.654 228.753V231.961C390.62 231.961 391.864 232.55 392.673 233.52L395.137 231.466ZM388.654 228.753C386.01 228.753 383.764 229.642 382.109 231.522L384.518 233.642C385.474 232.555 386.788 231.961 388.654 231.961V228.753ZM382.109 231.522C380.524 233.323 379.751 235.519 379.751 238.011H382.959C382.959 236.231 383.492 234.807 384.518 233.642L382.109 231.522ZM379.751 238.011V263.467H382.959V238.011H379.751ZM458.288 236.053L456.691 235.903L456.527 237.657H458.288V236.053ZM476 236.053V237.657H477.701L477.602 235.959L476 236.053ZM473.597 230.802L472.44 231.913L472.451 231.924L472.463 231.936L473.597 230.802ZM460.869 230.891L459.735 229.756L460.869 230.891ZM476.979 247.535L477.417 245.991L475.969 245.581L475.467 247L476.979 247.535ZM488.283 250.739L489.829 251.165L490.252 249.63L488.72 249.195L488.283 250.739ZM481.251 260.885L482.2 262.179L482.207 262.174L482.214 262.169L481.251 260.885ZM451.524 258.393L450.413 259.55L450.421 259.558L451.524 258.393ZM451.346 224.393L450.219 223.251L450.212 223.259L451.346 224.393ZM483.121 223.948L481.97 225.066L481.978 225.074L481.986 225.083L483.121 223.948ZM488.817 244.775V246.38H489.973L490.339 245.283L488.817 244.775ZM458.021 244.775V243.171H456.337L456.419 244.854L458.021 244.775ZM461.136 250.917L460.099 252.14L460.109 252.149L460.121 252.158L461.136 250.917ZM458.288 237.657H476V234.449H458.288V237.657ZM477.602 235.959C477.459 233.533 476.481 231.417 474.731 229.667L472.463 231.936C473.68 233.153 474.304 234.538 474.399 236.147L477.602 235.959ZM474.754 229.691C472.92 227.78 470.26 226.972 467.1 226.972V230.181C469.754 230.181 471.426 230.856 472.44 231.913L474.754 229.691ZM467.1 226.972C464.153 226.972 461.637 227.855 459.735 229.756L462.004 232.025C463.188 230.841 464.825 230.181 467.1 230.181V226.972ZM459.735 229.756C457.968 231.523 456.909 233.579 456.691 235.903L459.885 236.203C460.023 234.729 460.685 233.344 462.004 232.025L459.735 229.756ZM476.542 249.078L487.845 252.282L488.72 249.195L477.417 245.991L476.542 249.078ZM486.736 250.313C485.708 254.047 483.58 257.134 480.289 259.602L482.214 262.169C486.044 259.296 488.603 255.619 489.829 251.165L486.736 250.313ZM480.303 259.592C477.071 261.962 472.973 263.197 467.901 263.197V266.406C473.509 266.406 478.311 265.031 482.2 262.179L480.303 259.592ZM467.901 263.197C461.888 263.197 456.828 261.209 452.627 257.229L450.421 259.558C455.238 264.122 461.096 266.406 467.901 266.406V263.197ZM452.635 257.236C448.552 253.316 446.453 248.036 446.453 241.215H443.244C443.244 248.754 445.595 254.926 450.413 259.55L452.635 257.236ZM446.453 241.215C446.453 234.7 448.488 229.52 452.48 225.528L450.212 223.259C445.541 227.93 443.244 233.964 443.244 241.215H446.453ZM452.472 225.535C456.573 221.49 461.364 219.5 466.922 219.5V216.292C460.493 216.292 454.901 218.633 450.219 223.251L452.472 225.535ZM466.922 219.5C473.475 219.5 478.421 221.409 481.97 225.066L484.272 222.831C479.988 218.418 474.135 216.292 466.922 216.292V219.5ZM481.986 225.083C485.586 228.682 487.48 233.778 487.48 240.592H490.688C490.688 233.166 488.606 227.165 484.255 222.814L481.986 225.083ZM487.48 240.592C487.48 241.703 487.458 242.578 487.416 243.227C487.396 243.552 487.371 243.804 487.345 243.994C487.317 244.197 487.294 244.272 487.295 244.268L490.339 245.283C490.501 244.796 490.574 244.123 490.618 243.431C490.666 242.686 490.688 241.736 490.688 240.592H487.48ZM488.817 243.171H458.021V246.38H488.817V243.171ZM456.419 244.854C456.561 247.756 457.823 250.209 460.099 252.14L462.174 249.694C460.534 248.302 459.719 246.66 459.623 244.697L456.419 244.854ZM460.121 252.158C462.382 254.009 465.06 254.924 468.079 254.924V251.716C465.757 251.716 463.807 251.029 462.152 249.675L460.121 252.158ZM468.079 254.924C470.584 254.924 472.795 254.395 474.605 253.219C476.429 252.033 477.711 250.277 478.492 248.07L475.467 247C474.883 248.649 473.999 249.786 472.856 250.529C471.699 251.281 470.142 251.716 468.079 251.716V254.924Z" fill="white"/>
<path d="M12.8318 188.29L11.7139 189.441L11.7195 189.446L12.8318 188.29ZM12.9208 140.94L14.0389 142.09L14.0444 142.084L12.9208 140.94ZM48.1668 133.641L47.6009 135.142L47.6156 135.148L47.6304 135.153L48.1668 133.641ZM57.0673 138.892L58.1864 137.743L57.0673 138.892ZM62.4966 145.657L63.8784 144.842L63.8784 144.842L62.4966 145.657ZM65.3448 152.866L65.8274 154.396L67.2191 153.957L66.9133 152.53L65.3448 152.866ZM52.083 157.049L50.5225 157.421L50.9218 159.098L52.5656 158.579L52.083 157.049ZM50.659 153.4L49.238 154.145L49.2455 154.159L49.2534 154.173L50.659 153.4ZM47.8998 149.662L46.7128 150.741L46.7253 150.755L46.7382 150.768L47.8998 149.662ZM43.0045 146.547L42.4088 148.036L42.4273 148.044L42.446 148.051L43.0045 146.547ZM23.4234 150.374L24.5082 151.556L24.5135 151.551L24.5186 151.546L23.4234 150.374ZM23.3344 178.233L24.4393 177.07L23.3344 178.233ZM47.4548 179.657L46.3744 178.471V178.471L47.4548 179.657ZM52.7061 171.468L53.1454 169.925L51.5879 169.482L51.1592 171.044L52.7061 171.468ZM66.1458 175.295L67.7043 175.676L68.0702 174.176L66.5852 173.753L66.1458 175.295ZM63.2087 182.505L61.818 181.705L61.8104 181.718L61.8031 181.732L63.2087 182.505ZM57.7794 189.536L56.6451 188.402L56.6377 188.409L56.6304 188.417L57.7794 189.536ZM48.7008 195.233L49.2719 196.732L49.2845 196.727L48.7008 195.233ZM36.1511 195.765C27.2817 195.765 19.9156 192.88 13.9441 187.134L11.7195 189.446C18.3275 195.805 26.5075 198.973 36.1511 198.973V195.765ZM13.9497 187.14C8.00445 181.363 5.00142 173.902 5.00142 164.615H1.79314C1.79314 174.671 5.0798 182.994 11.7139 189.441L13.9497 187.14ZM5.00142 164.615C5.00142 155.395 8.02891 147.931 14.0389 142.09L11.8028 139.789C5.11467 146.29 1.79314 154.61 1.79314 164.615H5.00142ZM14.0444 142.084C20.0888 136.153 27.3676 133.198 35.9731 133.198V129.99C26.5403 129.99 18.4509 133.265 11.7973 139.795L14.0444 142.084ZM35.9731 133.198C40.3209 133.198 44.1895 133.856 47.6009 135.142L48.7328 132.14C44.905 130.697 40.6445 129.99 35.9731 129.99V133.198ZM47.6304 135.153C51.1422 136.399 53.8941 138.042 55.9482 140.042L58.1864 137.743C55.7309 135.352 52.5491 133.494 48.7033 132.129L47.6304 135.153ZM55.9482 140.042C58.118 142.154 59.8336 144.299 61.1149 146.472L63.8784 144.842C62.4302 142.386 60.5262 140.021 58.1864 137.743L55.9482 140.042ZM61.1149 146.472C62.3968 148.645 63.2803 150.888 63.7762 153.202L66.9133 152.53C66.3412 149.86 65.3259 147.296 63.8784 144.842L61.1149 146.472ZM64.8622 151.336L51.6005 155.52L52.5656 158.579L65.8274 154.396L64.8622 151.336ZM53.6436 156.678C53.3116 155.284 52.7827 153.933 52.0645 152.627L49.2534 154.173C49.8406 155.241 50.2611 156.323 50.5225 157.421L53.6436 156.678ZM52.08 152.656C51.3446 151.252 50.329 149.887 49.0614 148.556L46.7382 150.768C47.8441 151.929 48.6679 153.056 49.238 154.145L52.08 152.656ZM49.0868 148.583C47.689 147.045 45.8201 145.881 43.5631 145.043L42.446 148.051C44.3425 148.755 45.7371 149.668 46.7128 150.741L49.0868 148.583ZM43.6003 145.057C41.3051 144.139 38.7544 143.697 35.9731 143.697V146.905C38.4135 146.905 40.5503 147.293 42.4088 148.036L43.6003 145.057ZM35.9731 143.697C30.8004 143.697 26.2306 145.555 22.3282 149.202L24.5186 151.546C27.8553 148.428 31.652 146.905 35.9731 146.905V143.697ZM22.3386 149.192C18.3073 152.893 16.39 158.118 16.39 164.615H19.5982C19.5982 158.77 21.3005 154.501 24.5082 151.556L22.3386 149.192ZM16.39 164.615C16.39 170.674 18.2989 175.662 22.2296 179.396L24.4393 177.07C21.2495 174.039 19.5982 169.948 19.5982 164.615H16.39ZM22.2296 179.396C26.0928 183.066 30.7625 184.91 36.1511 184.91V181.702C31.5712 181.702 27.6964 180.164 24.4393 177.07L22.2296 179.396ZM36.1511 184.91C41.2756 184.91 45.4798 183.626 48.5351 180.842L46.3744 178.471C44.0894 180.553 40.7579 181.702 36.1511 181.702V184.91ZM48.5351 180.842C51.395 178.237 53.3303 175.254 54.253 171.893L51.1592 171.044C50.4204 173.735 48.8548 176.211 46.3744 178.471L48.5351 180.842ZM52.2667 173.011L65.7065 176.838L66.5852 173.753L53.1454 169.925L52.2667 173.011ZM64.5874 174.915C64.033 177.188 63.1143 179.451 61.818 181.705L64.5993 183.304C66.0325 180.812 67.0719 178.268 67.7043 175.676L64.5874 174.915ZM61.8031 181.732C60.5839 183.948 58.8736 186.173 56.6451 188.402L58.9137 190.671C61.3134 188.271 63.2226 185.808 64.6142 183.278L61.8031 181.732ZM56.6304 188.417C54.5712 190.53 51.7557 192.317 48.1172 193.738L49.2845 196.727C53.2411 195.181 56.4779 193.171 58.9283 190.656L56.6304 188.417ZM48.1298 193.734C44.6002 195.078 40.6144 195.765 36.1511 195.765V198.973C40.9444 198.973 45.3251 198.235 49.2719 196.732L48.1298 193.734ZM100.843 182.06L99.7265 180.908L99.7176 180.917L99.7089 180.926L100.843 182.06ZM100.843 165.772L99.7089 166.906L99.7266 166.924L99.7449 166.941L100.843 165.772ZM86.7804 165.772L87.8971 166.924V166.924L86.7804 165.772ZM86.7804 182.06L85.6461 183.194L85.6548 183.203L85.6637 183.211L86.7804 182.06ZM110.545 157.049L109.418 158.191L109.426 158.199L110.545 157.049ZM110.545 190.782L111.671 191.924L111.672 191.924L110.545 190.782ZM77.0788 190.693L78.2056 189.552L77.0788 190.693ZM77.0788 157.138L78.1979 158.288L78.2056 158.28L77.0788 157.138ZM93.8118 186.512C97.0078 186.512 99.7652 185.406 101.977 183.194L99.7089 180.926C98.1236 182.511 96.1935 183.304 93.8118 183.304V186.512ZM101.96 183.211C104.317 180.926 105.384 177.727 105.384 173.871H102.176C102.176 177.136 101.286 179.396 99.7265 180.908L101.96 183.211ZM105.384 173.871C105.384 170.019 104.318 166.835 101.942 164.603L99.7449 166.941C101.285 168.388 102.176 170.603 102.176 173.871H105.384ZM101.977 164.638C99.7652 162.425 97.0078 161.32 93.8118 161.32V164.528C96.1935 164.528 98.1236 165.321 99.7089 166.906L101.977 164.638ZM93.8118 161.32C90.6657 161.32 87.9213 162.431 85.6637 164.62L87.8971 166.924C89.5557 165.315 91.4989 164.528 93.8118 164.528V161.32ZM85.6637 164.62C83.3119 166.901 82.2391 170.066 82.2391 173.871H85.4474C85.4474 170.675 86.3326 168.441 87.8971 166.924L85.6637 164.62ZM82.2391 173.871C82.2391 177.679 83.3127 180.861 85.6461 183.194L87.9147 180.926C86.3318 179.343 85.4474 177.065 85.4474 173.871H82.2391ZM85.6637 183.211C87.9213 185.401 90.6657 186.512 93.8118 186.512V183.304C91.4989 183.304 89.5557 182.517 87.8971 180.908L85.6637 183.211ZM93.8118 152.067C100.129 152.067 105.291 154.119 109.418 158.191L111.671 155.908C106.898 151.198 100.905 148.859 93.8118 148.859V152.067ZM109.426 158.199C113.597 162.261 115.705 167.44 115.705 173.871H118.913C118.913 166.655 116.511 160.62 111.664 155.9L109.426 158.199ZM115.705 173.871C115.705 180.303 113.597 185.516 109.418 189.641L111.672 191.924C116.512 187.148 118.913 181.088 118.913 173.871H115.705ZM109.418 189.64C105.291 193.712 100.129 195.765 93.8118 195.765V198.973C100.905 198.973 106.898 196.634 111.671 191.924L109.418 189.64ZM93.8118 195.765C87.5649 195.765 82.3991 193.69 78.2056 189.552L75.9521 191.835C80.7778 196.597 86.7672 198.973 93.8118 198.973V195.765ZM78.2056 189.552C74.0237 185.425 71.9186 180.239 71.9186 173.871H68.7103C68.7103 181.033 71.1148 187.062 75.9521 191.835L78.2056 189.552ZM71.9186 173.871C71.9186 167.504 74.0233 162.353 78.1979 158.288L75.9598 155.989C71.1152 160.706 68.7103 166.71 68.7103 173.871H71.9186ZM78.2056 158.28C82.3991 154.142 87.5649 152.067 93.8118 152.067V148.859C86.7672 148.859 80.7778 151.234 75.9521 155.997L78.2056 158.28ZM139.546 196.034V197.638H141.151V196.034H139.546ZM126.018 196.034H124.414V197.638H126.018V196.034ZM126.018 151.798V150.194H124.414V151.798H126.018ZM139.101 151.798H140.706V150.194H139.101V151.798ZM139.101 156.871H137.497V162.873L140.492 157.672L139.101 156.871ZM144.264 152.332L144.936 153.789L144.944 153.785L144.952 153.781L144.264 152.332ZM163.489 155.625L162.249 156.644L162.254 156.649L162.258 156.654L163.489 155.625ZM167.583 196.034V197.638H169.187V196.034H167.583ZM154.054 196.034H152.45V197.638H154.054V196.034ZM152.185 165.06L150.953 166.087L150.976 166.115L151.001 166.142L152.185 165.06ZM141.505 165.149L140.324 164.063L140.322 164.065L141.505 165.149ZM137.942 170.667V196.034H141.151V170.667H137.942ZM139.546 194.429H126.018V197.638H139.546V194.429ZM127.622 196.034V151.798H124.414V196.034H127.622ZM126.018 153.402H139.101V150.194H126.018V153.402ZM137.497 151.798V156.871H140.706V151.798H137.497ZM140.492 157.672C141.433 156.038 142.883 154.736 144.936 153.789L143.592 150.876C141.016 152.064 139.025 153.789 137.711 156.071L140.492 157.672ZM144.952 153.781C147.128 152.748 149.297 152.245 151.473 152.245V149.037C148.784 149.037 146.146 149.662 143.575 150.883L144.952 153.781ZM151.473 152.245C156.394 152.245 159.893 153.775 162.249 156.644L164.728 154.607C161.625 150.829 157.114 149.037 151.473 149.037V152.245ZM162.258 156.654C164.698 159.571 165.979 163.395 165.979 168.264H169.187C169.187 162.809 167.739 158.206 164.719 154.596L162.258 156.654ZM165.979 168.264V196.034H169.187V168.264H165.979ZM167.583 194.429H154.054V197.638H167.583V194.429ZM155.658 196.034V170.578H152.45V196.034H155.658ZM155.658 170.578C155.658 167.969 154.949 165.708 153.37 163.978L151.001 166.142C151.913 167.141 152.45 168.559 152.45 170.578H155.658ZM153.418 164.033C151.844 162.145 149.55 161.32 146.845 161.32V164.528C148.886 164.528 150.152 165.126 150.953 166.087L153.418 164.033ZM146.845 161.32C144.245 161.32 142.022 162.218 140.324 164.063L142.685 166.235C143.717 165.113 145.053 164.528 146.845 164.528V161.32ZM140.322 164.065C138.701 165.834 137.942 168.083 137.942 170.667H141.151C141.151 168.742 141.698 167.312 142.687 166.233L140.322 164.065ZM195.15 138.892H196.754V137.288H195.15V138.892ZM195.15 151.798H193.546V153.402H195.15V151.798ZM203.784 151.798H205.388V150.194H203.784V151.798ZM203.784 163.636V165.24H205.388V163.636H203.784ZM195.15 163.636V162.032H193.546V163.636H195.15ZM203.606 184.374H205.21V182.364L203.25 182.81L203.606 184.374ZM203.606 195.589L204.323 197.023L205.21 196.58V195.589H203.606ZM185.716 193.007L184.595 194.155L184.601 194.161L184.608 194.167L185.716 193.007ZM181.8 163.636H183.404V162.032H181.8V163.636ZM173.967 163.636H172.363V165.24H173.967V163.636ZM173.967 151.798V150.194H172.363V151.798H173.967ZM181.265 149.84L180.055 148.787L180.051 148.792L181.265 149.84ZM183.046 138.892V137.288H181.441V138.892H183.046ZM193.546 138.892V151.798H196.754V138.892H193.546ZM195.15 153.402H203.784V150.194H195.15V153.402ZM202.18 151.798V163.636H205.388V151.798H202.18ZM203.784 162.032H195.15V165.24H203.784V162.032ZM193.546 163.636V180.191H196.754V163.636H193.546ZM193.546 180.191C193.546 182.004 194.03 183.653 195.272 184.828C196.497 185.986 198.188 186.423 200.046 186.423V183.215C198.639 183.215 197.883 182.881 197.476 182.496C197.086 182.128 196.754 181.463 196.754 180.191H193.546ZM200.046 186.423C201.259 186.423 202.567 186.255 203.961 185.938L203.25 182.81C202.034 183.086 200.968 183.215 200.046 183.215V186.423ZM202.002 184.374V195.589H205.21V184.374H202.002ZM202.888 194.154C201.547 194.824 199.49 195.231 196.574 195.231V198.439C199.711 198.439 202.341 198.014 204.323 197.023L202.888 194.154ZM196.574 195.231C192.315 195.231 189.129 194.05 186.824 191.848L184.608 194.167C187.643 197.068 191.696 198.439 196.574 198.439V195.231ZM186.837 191.86C184.596 189.67 183.404 186.647 183.404 182.594H180.195C180.195 187.323 181.614 191.241 184.595 194.155L186.837 191.86ZM183.404 182.594V163.636H180.195V182.594H183.404ZM181.8 162.032H173.967V165.24H181.8V162.032ZM175.571 163.636V151.798H172.363V163.636H175.571ZM173.967 153.402H176.192V150.194H173.967V153.402ZM176.192 153.402C178.761 153.402 180.96 152.648 182.48 150.889L180.051 148.792C179.316 149.643 178.133 150.194 176.192 150.194V153.402ZM182.476 150.893C183.961 149.185 184.65 147.038 184.65 144.589H181.441C181.441 146.412 180.943 147.766 180.055 148.787L182.476 150.893ZM184.65 144.589V138.892H181.441V144.589H184.65ZM183.046 140.497H195.15V137.288H183.046V140.497ZM214.698 174.85L215.788 176.027L215.796 176.02L215.804 176.013L214.698 174.85ZM224.133 170.489L224.376 172.075L224.133 170.489ZM234.546 168.887L234.325 167.298L234.314 167.3L234.302 167.302L234.546 168.887ZM235.97 162.479L234.937 163.706L234.972 163.735L235.008 163.762L235.97 162.479ZM225.824 163.013L226.931 164.173L226.932 164.172L225.824 163.013ZM223.688 167.552L223.366 169.124L225.166 169.492L225.288 167.659L223.688 167.552ZM211.939 165.149L210.34 165.02L210.226 166.436L211.617 166.72L211.939 165.149ZM217.368 155.091L218.448 156.277L218.449 156.276L217.368 155.091ZM246.117 155.269L244.972 156.393L244.977 156.398L244.982 156.404L246.117 155.269ZM251.457 196.034V197.638H253.414L253.03 195.719L251.457 196.034ZM239.263 196.034L237.707 196.423L238.011 197.638H239.263V196.034ZM238.818 191.049H240.423V185.373L237.452 190.21L238.818 191.049ZM215.143 193.363L214.021 194.51L214.034 194.522L214.047 194.535L215.143 193.363ZM237.75 176.72H239.354V174.839L237.498 175.135L237.75 176.72ZM229.384 178.055L229.131 176.471L229.129 176.471L229.384 178.055ZM225.646 186.154L224.473 187.249L224.492 187.269L224.511 187.288L225.646 186.154ZM212.653 183.84C212.653 180.486 213.726 177.938 215.788 176.027L213.608 173.674C210.804 176.272 209.445 179.718 209.445 183.84H212.653ZM215.804 176.013C217.962 173.959 220.789 172.627 224.376 172.075L223.889 168.904C219.762 169.539 216.299 171.113 213.592 173.688L215.804 176.013ZM224.376 172.075L234.79 170.473L234.302 167.302L223.889 168.904L224.376 172.075ZM234.767 170.476C236.018 170.302 237.185 169.892 238.051 169.074C238.961 168.215 239.354 167.08 239.354 165.861H236.146C236.146 166.362 236.006 166.593 235.848 166.742C235.646 166.933 235.21 167.175 234.325 167.298L234.767 170.476ZM239.354 165.861C239.354 163.942 238.483 162.358 236.933 161.195L235.008 163.762C235.831 164.38 236.146 165.05 236.146 165.861H239.354ZM237.003 161.252C235.496 159.982 233.509 159.451 231.253 159.451V162.659C233.031 162.659 234.19 163.077 234.937 163.706L237.003 161.252ZM231.253 159.451C228.67 159.451 226.434 160.209 224.715 161.854L226.932 164.172C227.942 163.206 229.326 162.659 231.253 162.659V159.451ZM224.716 161.852C223.124 163.372 222.233 165.26 222.087 167.445L225.288 167.659C225.38 166.284 225.912 165.146 226.931 164.173L224.716 161.852ZM224.009 165.98L212.26 163.577L211.617 166.72L223.366 169.124L224.009 165.98ZM213.538 165.278C213.795 162.089 215.357 159.093 218.448 156.277L216.288 153.905C212.734 157.142 210.676 160.851 210.34 165.02L213.538 165.278ZM218.449 156.276C221.457 153.533 225.686 152.067 231.342 152.067V148.859C225.13 148.859 220.044 150.479 216.287 153.906L218.449 156.276ZM231.342 152.067C237.827 152.067 242.25 153.62 244.972 156.393L247.262 154.146C243.694 150.511 238.267 148.859 231.342 148.859V152.067ZM244.982 156.404C247.854 159.275 249.319 162.946 249.319 167.552H252.527C252.527 162.189 250.788 157.672 247.251 154.135L244.982 156.404ZM249.319 167.552V189.18H252.527V167.552H249.319ZM249.319 189.18C249.319 192.025 249.499 194.425 249.884 196.348L253.03 195.719C252.703 194.082 252.527 191.913 252.527 189.18H249.319ZM251.457 194.429H239.263V197.638H251.457V194.429ZM240.82 195.645C240.57 194.645 240.423 193.136 240.423 191.049H237.214C237.214 193.235 237.364 195.048 237.707 196.423L240.82 195.645ZM237.452 190.21C235.249 193.796 231.674 195.676 226.358 195.676V198.884C232.553 198.884 237.285 196.61 240.185 191.889L237.452 190.21ZM226.358 195.676C221.98 195.676 218.667 194.465 216.239 192.192L214.047 194.535C217.197 197.484 221.36 198.884 226.358 198.884V195.676ZM216.265 192.217C213.831 189.836 212.653 187.069 212.653 183.84H209.445C209.445 187.968 210.996 191.551 214.021 194.51L216.265 192.217ZM229.651 189.093C232.305 189.093 234.626 188.3 236.499 186.644L234.373 184.241C233.16 185.313 231.625 185.885 229.651 185.885V189.093ZM236.499 186.644C238.533 184.844 239.354 182.04 239.354 178.678H236.146C236.146 181.605 235.425 183.311 234.373 184.241L236.499 186.644ZM239.354 178.678V176.72H236.146V178.678H239.354ZM237.498 175.135L229.131 176.471L229.637 179.639L238.003 178.304L237.498 175.135ZM229.129 176.471C227.28 176.768 225.674 177.403 224.522 178.534C223.331 179.704 222.795 181.235 222.795 182.95H226.004C226.004 181.936 226.299 181.286 226.77 180.823C227.279 180.323 228.165 179.875 229.638 179.638L229.129 176.471ZM222.795 182.95C222.795 184.592 223.358 186.054 224.473 187.249L226.818 185.06C226.272 184.474 226.004 183.8 226.004 182.95H222.795ZM224.511 187.288C225.808 188.585 227.623 189.093 229.651 189.093V185.885C228.118 185.885 227.263 185.503 226.78 185.02L224.511 187.288ZM275.13 165.861L273.995 164.727L273.987 164.735L273.978 164.744L275.13 165.861ZM275.219 181.971L274.084 183.105L274.093 183.114L274.101 183.122L275.219 181.971ZM288.569 183.039L289.577 184.287L289.583 184.282L288.569 183.039ZM291.774 178.322L292.243 176.788L290.687 176.312L290.233 177.874L291.774 178.322ZM303.7 181.971L305.255 182.365L305.631 180.884L304.17 180.437L303.7 181.971ZM296.491 192.829L295.482 191.583L295.472 191.591L296.491 192.829ZM265.695 190.782L264.576 191.931L264.583 191.939L264.591 191.946L265.695 190.782ZM265.517 157.138L266.644 158.28L266.644 158.28L265.517 157.138ZM296.313 154.913L295.306 156.162L296.313 154.913ZM303.433 165.861L303.896 167.397L305.356 166.957L304.991 165.477L303.433 165.861ZM291.329 169.51L289.784 169.944L290.227 171.518L291.792 171.046L291.329 169.51ZM282.428 161.32C279.119 161.32 276.271 162.451 273.995 164.727L276.264 166.995C277.905 165.354 279.922 164.528 282.428 164.528V161.32ZM273.978 164.744C271.718 167.075 270.677 170.216 270.677 173.96H273.886C273.886 170.821 274.744 168.563 276.281 166.978L273.978 164.744ZM270.677 173.96C270.677 177.668 271.761 180.782 274.084 183.105L276.353 180.837C274.76 179.243 273.886 177.017 273.886 173.96H270.677ZM274.101 183.122C276.429 185.381 279.297 186.512 282.606 186.512V183.304C280.1 183.304 278.043 182.476 276.336 180.82L274.101 183.122ZM282.606 186.512C285.32 186.512 287.689 185.812 289.577 184.287L287.561 181.791C286.364 182.758 284.758 183.304 282.606 183.304V186.512ZM289.583 184.282C291.416 182.788 292.682 180.946 293.314 178.769L290.233 177.874C289.797 179.376 288.927 180.679 287.556 181.795L289.583 184.282ZM291.304 179.856L303.231 183.505L304.17 180.437L292.243 176.788L291.304 179.856ZM302.145 181.577C301.171 185.418 298.981 188.75 295.482 191.583L297.5 194.076C301.477 190.857 304.093 186.949 305.255 182.365L302.145 181.577ZM295.472 191.591C292.128 194.341 287.879 195.765 282.606 195.765V198.973C288.489 198.973 293.496 197.37 297.51 194.068L295.472 191.591ZM282.606 195.765C276.352 195.765 271.116 193.714 266.799 189.619L264.591 191.946C269.531 196.633 275.568 198.973 282.606 198.973V195.765ZM266.814 189.633C262.576 185.505 260.446 180.321 260.446 173.96H257.238C257.238 181.128 259.677 187.159 264.576 191.931L266.814 189.633ZM260.446 173.96C260.446 167.523 262.529 162.341 266.644 158.28L264.39 155.997C259.605 160.718 257.238 166.751 257.238 173.96H260.446ZM266.644 158.28C270.84 154.139 275.978 152.067 282.161 152.067V148.859C275.172 148.859 269.213 151.237 264.39 155.997L266.644 158.28ZM282.161 152.067C287.633 152.067 291.97 153.472 295.306 156.162L297.32 153.665C293.298 150.421 288.201 148.859 282.161 148.859V152.067ZM295.306 156.162C298.729 158.923 300.897 162.275 301.876 166.245L304.991 165.477C303.834 160.784 301.255 156.838 297.32 153.665L295.306 156.162ZM302.97 164.325L290.866 167.974L291.792 171.046L303.896 167.397L302.97 164.325ZM292.873 169.076C292.253 166.873 291.069 165.022 289.334 163.565L287.271 166.021C288.503 167.056 289.336 168.35 289.784 169.944L292.873 169.076ZM289.334 163.565C287.494 162.019 285.139 161.32 282.428 161.32V164.528C284.583 164.528 286.144 165.075 287.271 166.021L289.334 163.565ZM328.136 138.892H329.74V137.288H328.136V138.892ZM328.136 151.798H326.532V153.402H328.136V151.798ZM336.77 151.798H338.374V150.194H336.77V151.798ZM336.77 163.636V165.24H338.374V163.636H336.77ZM328.136 163.636V162.032H326.532V163.636H328.136ZM336.592 184.374H338.196V182.364L336.236 182.81L336.592 184.374ZM336.592 195.589L337.309 197.023L338.196 196.58V195.589H336.592ZM318.702 193.007L317.581 194.155L317.587 194.161L317.594 194.167L318.702 193.007ZM314.786 163.636H316.39V162.032H314.786V163.636ZM306.953 163.636H305.349V165.24H306.953V163.636ZM306.953 151.798V150.194H305.349V151.798H306.953ZM314.252 149.84L313.041 148.787L313.037 148.792L314.252 149.84ZM316.032 138.892V137.288H314.427V138.892H316.032ZM326.532 138.892V151.798H329.74V138.892H326.532ZM328.136 153.402H336.77V150.194H328.136V153.402ZM335.166 151.798V163.636H338.374V151.798H335.166ZM336.77 162.032H328.136V165.24H336.77V162.032ZM326.532 163.636V180.191H329.74V163.636H326.532ZM326.532 180.191C326.532 182.004 327.016 183.653 328.258 184.828C329.483 185.986 331.174 186.423 333.032 186.423V183.215C331.625 183.215 330.869 182.881 330.462 182.496C330.072 182.128 329.74 181.463 329.74 180.191H326.532ZM333.032 186.423C334.245 186.423 335.553 186.255 336.947 185.938L336.236 182.81C335.02 183.086 333.954 183.215 333.032 183.215V186.423ZM334.988 184.374V195.589H338.196V184.374H334.988ZM335.874 194.154C334.533 194.824 332.476 195.231 329.56 195.231V198.439C332.697 198.439 335.327 198.014 337.309 197.023L335.874 194.154ZM329.56 195.231C325.301 195.231 322.115 194.05 319.81 191.848L317.594 194.167C320.629 197.068 324.682 198.439 329.56 198.439V195.231ZM319.823 191.86C317.582 189.67 316.39 186.647 316.39 182.594H313.181C313.181 187.323 314.6 191.241 317.581 194.155L319.823 191.86ZM316.39 182.594V163.636H313.181V182.594H316.39ZM314.786 162.032H306.953V165.24H314.786V162.032ZM308.557 163.636V151.798H305.349V163.636H308.557ZM306.953 153.402H309.178V150.194H306.953V153.402ZM309.178 153.402C311.747 153.402 313.946 152.648 315.466 150.889L313.037 148.792C312.302 149.643 311.119 150.194 309.178 150.194V153.402ZM315.462 150.893C316.947 149.185 317.636 147.038 317.636 144.589H314.427C314.427 146.412 313.929 147.766 313.041 148.787L315.462 150.893ZM317.636 144.589V138.892H314.427V144.589H317.636ZM316.032 140.497H328.136V137.288H316.032V140.497ZM381.355 196.034V197.638H382.959V196.034H381.355ZM367.826 196.034H366.222V197.638H367.826V196.034ZM367.826 151.798V150.194H366.222V151.798H367.826ZM380.732 151.798H382.336V150.194H380.732V151.798ZM380.732 156.871H379.128V162.995L382.13 157.658L380.732 156.871ZM385.983 152.243L385.294 150.795L385.287 150.798L385.28 150.801L385.983 152.243ZM406.544 157.405L405.116 158.137L406.338 160.52L407.862 158.319L406.544 157.405ZM431.91 154.735L430.833 155.924L430.839 155.93L430.846 155.935L431.91 154.735ZM436.627 196.034V197.638H438.231V196.034H436.627ZM423.543 196.034H421.939V197.638H423.543V196.034ZM421.763 165.06L420.531 166.087L420.542 166.1L420.553 166.112L421.763 165.06ZM411.083 165.149L412.287 166.209V166.209L411.083 165.149ZM409.125 196.034V197.638H410.729V196.034H409.125ZM395.774 196.034H394.17V197.638H395.774V196.034ZM393.905 165.06L392.672 166.087L392.696 166.115L392.72 166.142L393.905 165.06ZM383.313 165.149L384.517 166.209L384.517 166.209L383.313 165.149ZM381.355 194.429H367.826V197.638H381.355V194.429ZM369.43 196.034V151.798H366.222V196.034H369.43ZM367.826 153.402H380.732V150.194H367.826V153.402ZM379.128 151.798V156.871H382.336V151.798H379.128ZM382.13 157.658C383.004 156.105 384.475 154.764 386.687 153.685L385.28 150.801C382.626 152.096 380.597 153.84 379.334 156.085L382.13 157.658ZM386.673 153.691C388.973 152.596 391.231 152.067 393.46 152.067V148.859C390.704 148.859 387.978 149.517 385.294 150.795L386.673 153.691ZM393.46 152.067C399.367 152.067 403.083 154.173 405.116 158.137L407.971 156.673C405.257 151.381 400.251 148.859 393.46 148.859V152.067ZM407.862 158.319C410.748 154.15 414.809 152.067 420.25 152.067V148.859C413.824 148.859 408.747 151.404 405.225 156.492L407.862 158.319ZM420.25 152.067C424.52 152.067 428.011 153.369 430.833 155.924L432.987 153.546C429.519 150.406 425.237 148.859 420.25 148.859V152.067ZM430.846 155.935C433.541 158.326 435.023 162.031 435.023 167.374H438.231C438.231 161.443 436.569 156.723 432.974 153.535L430.846 155.935ZM435.023 167.374V196.034H438.231V167.374H435.023ZM436.627 194.429H423.543V197.638H436.627V194.429ZM425.148 196.034V170.4H421.939V196.034H425.148ZM425.148 170.4C425.148 167.904 424.466 165.723 422.974 164.007L420.553 166.112C421.434 167.126 421.939 168.505 421.939 170.4H425.148ZM422.996 164.033C421.43 162.155 419.173 161.32 416.512 161.32V164.528C418.479 164.528 419.723 165.117 420.531 166.087L422.996 164.033ZM416.512 161.32C413.824 161.32 411.542 162.199 409.879 164.089L412.287 166.209C413.235 165.132 414.572 164.528 416.512 164.528V161.32ZM409.879 164.089C408.301 165.881 407.521 168.044 407.521 170.489H410.729C410.729 168.781 411.253 167.383 412.287 166.209L409.879 164.089ZM407.521 170.489V196.034H410.729V170.489H407.521ZM409.125 194.429L395.774 194.429V197.638L409.125 197.638V194.429ZM397.378 196.034V170.4L394.17 170.4V196.034H397.378ZM397.378 170.4C397.378 167.884 396.655 165.693 395.089 163.978L392.72 166.142C393.647 167.157 394.17 168.525 394.17 170.4L397.378 170.4ZM395.137 164.033C393.572 162.155 391.315 161.32 388.654 161.32V164.528C390.62 164.528 391.864 165.117 392.672 166.087L395.137 164.033ZM388.654 161.32C386.01 161.32 383.764 162.209 382.109 164.089L384.517 166.209C385.474 165.122 386.788 164.528 388.654 164.528V161.32ZM382.109 164.089C380.524 165.89 379.751 168.086 379.751 170.578H382.959C382.959 168.798 383.492 167.374 384.517 166.209L382.109 164.089ZM379.751 170.578V196.034H382.959V170.578H379.751ZM458.288 168.62L456.691 168.47L456.527 170.224H458.288V168.62ZM476 168.62V170.224H477.701L477.601 168.526L476 168.62ZM473.597 163.369L472.44 164.48L472.451 164.492L472.463 164.503L473.597 163.369ZM460.869 163.458L459.735 162.323L460.869 163.458ZM476.979 180.102L477.417 178.558L475.969 178.148L475.467 179.567L476.979 180.102ZM488.283 183.306L489.829 183.732L490.252 182.197L488.72 181.763L488.283 183.306ZM481.251 193.452L482.2 194.746L482.207 194.741L482.214 194.736L481.251 193.452ZM451.524 190.96L450.413 192.118L450.42 192.125L451.524 190.96ZM451.346 156.96L450.219 155.818L450.211 155.826L451.346 156.96ZM483.12 156.515L481.969 157.633L481.978 157.641L481.986 157.65L483.12 156.515ZM488.817 177.343V178.947H489.973L490.339 177.85L488.817 177.343ZM458.021 177.343V175.738H456.337L456.419 177.421L458.021 177.343ZM461.136 183.484L460.098 184.707L460.109 184.716L460.12 184.725L461.136 183.484ZM458.288 170.224H476V167.016H458.288V170.224ZM477.601 168.526C477.459 166.1 476.481 163.984 474.731 162.234L472.463 164.503C473.68 165.72 474.304 167.105 474.399 168.714L477.601 168.526ZM474.754 162.258C472.92 160.348 470.26 159.54 467.1 159.54V162.748C469.754 162.748 471.425 163.423 472.44 164.48L474.754 162.258ZM467.1 159.54C464.153 159.54 461.636 160.422 459.735 162.323L462.004 164.592C463.188 163.408 464.825 162.748 467.1 162.748V159.54ZM459.735 162.323C457.968 164.09 456.909 166.147 456.691 168.47L459.885 168.77C460.023 167.296 460.685 165.911 462.004 164.592L459.735 162.323ZM476.542 181.645L487.845 184.849L488.72 181.763L477.417 178.558L476.542 181.645ZM486.736 182.88C485.708 186.614 483.579 189.701 480.289 192.169L482.214 194.736C486.044 191.863 488.603 188.186 489.829 183.732L486.736 182.88ZM480.303 192.159C477.071 194.529 472.973 195.765 467.901 195.765V198.973C473.509 198.973 478.311 197.598 482.2 194.746L480.303 192.159ZM467.901 195.765C461.888 195.765 456.828 193.776 452.627 189.796L450.42 192.125C455.238 196.689 461.096 198.973 467.901 198.973V195.765ZM452.635 189.803C448.552 185.883 446.452 180.603 446.452 173.782H443.244C443.244 181.321 445.595 187.493 450.413 192.118L452.635 189.803ZM446.452 173.782C446.452 167.267 448.488 162.087 452.48 158.095L450.211 155.826C445.541 160.497 443.244 166.531 443.244 173.782H446.452ZM452.472 158.102C456.573 154.057 461.364 152.067 466.922 152.067V148.859C460.493 148.859 454.9 151.2 450.219 155.818L452.472 158.102ZM466.922 152.067C473.475 152.067 478.421 153.976 481.969 157.633L484.272 155.398C479.988 150.985 474.135 148.859 466.922 148.859V152.067ZM481.986 157.65C485.586 161.249 487.48 166.345 487.48 173.159H490.688C490.688 165.733 488.606 159.732 484.255 155.381L481.986 157.65ZM487.48 173.159C487.48 174.271 487.458 175.145 487.416 175.794C487.395 176.119 487.371 176.372 487.345 176.561C487.317 176.764 487.294 176.839 487.295 176.835L490.339 177.85C490.501 177.363 490.574 176.69 490.618 175.998C490.666 175.253 490.688 174.303 490.688 173.159H487.48ZM488.817 175.738H458.021V178.947H488.817V175.738ZM456.419 177.421C456.56 180.323 457.823 182.776 460.098 184.707L462.174 182.261C460.534 180.869 459.719 179.228 459.623 177.264L456.419 177.421ZM460.12 184.725C462.382 186.576 465.06 187.491 468.079 187.491V184.283C465.757 184.283 463.807 183.596 462.152 182.242L460.12 184.725ZM468.079 187.491C470.584 187.491 472.795 186.962 474.605 185.786C476.429 184.6 477.71 182.844 478.491 180.637L475.467 179.567C474.883 181.216 473.999 182.353 472.856 183.096C471.699 183.848 470.142 184.283 468.079 184.283V187.491Z" fill="white"/>
<path d="M12.8318 122.024L11.7168 123.171L11.7224 123.177L12.8318 122.024ZM12.9208 74.6733L14.036 75.8206L14.0415 75.8153L12.9208 74.6733ZM48.1668 67.3749L47.6023 68.872L47.617 68.8775L47.6318 68.8828L48.1668 67.3749ZM57.0673 72.6262L58.1835 71.4798L58.1835 71.4798L57.0673 72.6262ZM62.4966 79.3905L63.8748 78.5778V78.5778L62.4966 79.3905ZM65.3448 86.6L65.8261 88.1258L67.2143 87.688L66.9093 86.2647L65.3448 86.6ZM52.083 90.7832L50.5265 91.1538L50.9248 92.8263L52.5644 92.3091L52.083 90.7832ZM50.659 87.134L49.2416 87.8764L49.2492 87.8908L49.257 87.9051L50.659 87.134ZM47.8998 83.3958L46.7159 84.472L46.7284 84.4858L46.7412 84.4992L47.8998 83.3958ZM43.0045 80.2806L42.4103 81.7662L42.4288 81.7735L42.4474 81.7805L43.0045 80.2806ZM23.4234 84.1078L24.5055 85.2865L24.5158 85.2769L23.4234 84.1078ZM23.3344 111.966L24.4364 110.806H24.4364L23.3344 111.966ZM47.4548 113.39L46.3772 112.208L47.4548 113.39ZM52.7061 105.202L53.1443 103.663L51.5907 103.221L51.1631 104.778L52.7061 105.202ZM66.1458 109.029L67.7003 109.408L68.0652 107.912L66.584 107.49L66.1458 109.029ZM63.2087 116.239L61.8216 115.441L61.814 115.454L61.8067 115.468L63.2087 116.239ZM57.7794 123.27L56.648 122.139L56.6406 122.146L56.6334 122.153L57.7794 123.27ZM48.7008 128.966L49.2705 130.462L49.283 130.457L48.7008 128.966ZM36.1511 129.502C27.2807 129.502 19.9135 126.618 13.9412 120.871L11.7224 123.177C18.3295 129.535 26.5085 132.702 36.1511 132.702V129.502ZM13.9468 120.876C8.00067 115.099 4.99728 107.637 4.99728 98.3486H1.79728C1.79728 108.404 5.08358 116.726 11.7168 123.171L13.9468 120.876ZM4.99728 98.3486C4.99728 89.1273 8.02515 81.6629 14.036 75.8206L11.8056 73.5259C5.11844 80.0257 1.79728 88.3449 1.79728 98.3486H4.99728ZM14.0415 75.8153C20.0867 69.883 27.3665 66.9278 35.9731 66.9278V63.7278C26.5414 63.7278 18.453 67.0028 11.8002 73.5313L14.0415 75.8153ZM35.9731 66.9278C40.3213 66.9278 44.1904 67.5855 47.6023 68.872L48.7313 65.8778C44.9041 64.4347 40.6441 63.7278 35.9731 63.7278V66.9278ZM47.6318 68.8828C51.144 70.129 53.8965 71.7719 55.9511 73.7725L58.1835 71.4798C55.7286 69.0895 52.5473 67.2315 48.7019 65.867L47.6318 68.8828ZM55.9511 73.7725C58.1211 75.8854 59.8369 78.0303 61.1184 80.2033L63.8748 78.5778C62.4268 76.1225 60.5231 73.7579 58.1835 71.4798L55.9511 73.7725ZM61.1184 80.2033C62.4006 82.3774 63.2842 84.6201 63.7803 86.9352L66.9093 86.2647C66.3373 83.5955 65.3222 81.032 63.8748 78.5778L61.1184 80.2033ZM64.8635 85.0741L51.6017 89.2573L52.5644 92.3091L65.8261 88.1258L64.8635 85.0741ZM53.6395 90.4126C53.3077 89.0189 52.7789 87.6684 52.0609 86.3629L49.257 87.9051C49.8444 88.9731 50.265 90.0553 50.5265 91.1538L53.6395 90.4126ZM52.0763 86.3916C51.3412 84.9882 50.3258 83.6231 49.0584 82.2923L46.7412 84.4992C47.8473 85.6606 48.6713 86.7876 49.2416 87.8764L52.0763 86.3916ZM49.0837 82.3195C47.6865 80.7826 45.8182 79.6189 43.5616 78.7807L42.4474 81.7805C44.3444 82.4851 45.7396 83.3982 46.7159 84.472L49.0837 82.3195ZM43.5987 78.795C41.3042 77.8772 38.754 77.4345 35.9731 77.4345V80.6345C38.4139 80.6345 40.5513 81.0226 42.4103 81.7662L43.5987 78.795ZM35.9731 77.4345C30.8015 77.4345 26.2327 79.293 22.331 82.9388L24.5158 85.2769C27.8532 82.1583 31.6509 80.6345 35.9731 80.6345V77.4345ZM22.3414 82.9292C18.3111 86.6291 16.3941 91.8521 16.3941 98.3486H19.5941C19.5941 92.5031 21.2966 88.2323 24.5054 85.2865L22.3414 82.9292ZM16.3941 98.3486C16.3941 104.407 18.3027 109.393 22.2324 113.126L24.4364 110.806C21.2457 107.775 19.5941 103.683 19.5941 98.3486H16.3941ZM22.2324 113.126C26.0949 116.796 30.7636 118.64 36.1511 118.64V115.44C31.5702 115.44 27.6943 113.901 24.4364 110.806L22.2324 113.126ZM36.1511 118.64C41.275 118.64 45.478 117.356 48.5324 114.573L46.3772 112.208C44.0912 114.291 40.7585 115.44 36.1511 115.44V118.64ZM48.5324 114.573C51.3918 111.968 53.3266 108.986 54.249 105.626L51.1631 104.778C50.4241 107.471 48.8581 109.947 46.3772 112.208L48.5324 114.573ZM52.2679 106.741L65.7076 110.568L66.584 107.49L53.1443 103.663L52.2679 106.741ZM64.5914 108.65C64.037 110.923 63.1181 113.186 61.8216 115.441L64.5957 117.036C66.0287 114.544 67.068 112.001 67.7003 109.408L64.5914 108.65ZM61.8067 115.468C60.5873 117.685 58.8768 119.91 56.648 122.139L58.9107 124.401C61.3102 122.002 63.2192 119.54 64.6106 117.01L61.8067 115.468ZM56.6334 122.153C54.5737 124.267 51.7576 126.055 48.1187 127.476L49.283 130.457C53.2391 128.911 56.4755 126.901 58.9253 124.387L56.6334 122.153ZM48.1312 127.471C44.6011 128.816 40.6148 129.502 36.1511 129.502V132.702C40.9439 132.702 45.3242 131.965 49.2704 130.462L48.1312 127.471ZM100.843 115.794L99.7294 114.645L99.7205 114.654L99.7118 114.662L100.843 115.794ZM100.843 99.5057L99.7118 100.637L99.7295 100.655L99.7477 100.672L100.843 99.5057ZM86.7804 99.5057L87.8942 100.654V100.654L86.7804 99.5057ZM86.7804 115.794L85.649 116.925L85.6577 116.934L85.6666 116.942L86.7804 115.794ZM110.545 90.7832L109.421 91.9222L109.429 91.9295L110.545 90.7832ZM110.545 124.516L111.668 125.655L111.669 125.655L110.545 124.516ZM77.0788 124.427L78.2027 123.288L77.0788 124.427ZM77.0788 90.8722L78.1951 92.0186L78.2027 92.011L77.0788 90.8722ZM93.8118 120.242C97.0067 120.242 99.7631 119.136 101.975 116.925L99.7118 114.662C98.1258 116.248 96.1945 117.042 93.8118 117.042V120.242ZM101.957 116.942C104.313 114.658 105.38 111.46 105.38 107.605H102.18C102.18 110.871 101.29 113.132 99.7294 114.645L101.957 116.942ZM105.38 107.605C105.38 103.753 104.314 100.571 101.939 98.3395L99.7477 100.672C101.289 102.119 102.18 104.336 102.18 107.605H105.38ZM101.975 98.3743C99.7631 96.1628 97.0067 95.0575 93.8118 95.0575V98.2575C96.1945 98.2575 98.1258 99.051 99.7118 100.637L101.975 98.3743ZM93.8118 95.0575C90.6668 95.0575 87.9234 96.1686 85.6666 98.357L87.8942 100.654C89.5536 99.0453 91.4978 98.2575 93.8118 98.2575V95.0575ZM85.6666 98.357C83.3158 100.637 82.2432 103.801 82.2432 107.605H85.4432C85.4432 104.408 86.3287 102.172 87.8942 100.654L85.6666 98.357ZM82.2432 107.605C82.2432 111.412 83.3166 114.593 85.649 116.925L87.9118 114.662C86.3279 113.078 85.4432 110.8 85.4432 107.605H82.2432ZM85.6666 116.942C87.9234 119.131 90.6668 120.242 93.8118 120.242V117.042C91.4978 117.042 89.5536 116.254 87.8942 114.645L85.6666 116.942ZM93.8118 85.7968C100.13 85.7968 105.293 87.8495 109.421 91.9221L111.668 89.6443C106.896 84.9351 100.904 82.5968 93.8118 82.5968V85.7968ZM109.429 91.9295C113.601 95.9923 115.709 101.173 115.709 107.605H118.909C118.909 100.39 116.508 94.3559 111.661 89.6368L109.429 91.9295ZM115.709 107.605C115.709 114.037 113.601 119.252 109.421 123.377L111.669 125.655C116.508 120.879 118.909 114.82 118.909 107.605H115.709ZM109.421 123.377C105.293 127.45 100.13 129.502 93.8118 129.502V132.702C100.904 132.702 106.896 130.364 111.668 125.655L109.421 123.377ZM93.8118 129.502C87.5639 129.502 82.397 127.427 78.2027 123.288L75.955 125.566C80.7799 130.327 86.7683 132.702 93.8118 132.702V129.502ZM78.2027 123.288C74.0199 119.161 71.9145 113.974 71.9145 107.605H68.7145C68.7145 114.765 71.1186 120.793 75.955 125.566L78.2027 123.288ZM71.9145 107.605C71.9145 101.237 74.0195 96.0842 78.195 92.0186L75.9627 89.7258C71.119 94.4421 68.7145 100.445 68.7145 107.605H71.9145ZM78.2027 92.011C82.397 87.872 87.5639 85.7968 93.8118 85.7968V82.5968C86.7683 82.5968 80.7799 84.9719 75.955 89.7334L78.2027 92.011ZM139.546 129.767V131.367H141.146V129.767H139.546ZM126.018 129.767H124.418V131.367H126.018V129.767ZM126.018 85.5319V83.9319H124.418V85.5319H126.018ZM139.101 85.5319H140.701V83.9319H139.101V85.5319ZM139.101 90.6052H137.501V96.5908L140.488 91.4035L139.101 90.6052ZM144.264 86.0659L144.934 87.5187L144.942 87.515L144.95 87.5112L144.264 86.0659ZM163.489 89.3591L162.252 90.3747L162.257 90.3802L162.262 90.3856L163.489 89.3591ZM167.583 129.767V131.367H169.183V129.767H167.583ZM154.054 129.767H152.454V131.367H154.054V129.767ZM152.185 98.7936L150.956 99.8179L150.979 99.8457L151.004 99.8725L152.185 98.7936ZM141.505 98.8827L140.327 97.7994L140.325 97.8015L141.505 98.8827ZM137.946 104.401V129.767H141.146V104.401H137.946ZM139.546 128.167H126.018V131.367H139.546V128.167ZM127.618 129.767V85.5319H124.418V129.767H127.618ZM126.018 87.1319H139.101V83.9319H126.018V87.1319ZM137.501 85.5319V90.6052H140.701V85.5319H137.501ZM140.488 91.4035C141.429 89.7684 142.881 88.4664 144.934 87.5187L143.593 84.6132C141.019 85.8015 139.028 87.5257 137.715 89.8068L140.488 91.4035ZM144.95 87.5112C147.127 86.4774 149.296 85.9748 151.473 85.9748V82.7748C148.784 82.7748 146.148 83.3997 143.577 84.6207L144.95 87.5112ZM151.473 85.9748C156.395 85.9748 159.896 87.5054 162.252 90.3747L164.725 88.3435C161.623 84.5671 157.113 82.7748 151.473 82.7748V85.9748ZM162.262 90.3856C164.702 93.3033 165.983 97.1276 165.983 101.998H169.183C169.183 96.5435 167.735 91.942 164.716 88.3326L162.262 90.3856ZM165.983 101.998V129.767H169.183V101.998H165.983ZM167.583 128.167L154.054 128.167V131.367L167.583 131.367V128.167ZM155.654 129.767V104.312H152.454V129.767H155.654ZM155.654 104.312C155.654 101.703 154.945 99.4436 153.367 97.7148L151.004 99.8725C151.917 100.873 152.454 102.292 152.454 104.312H155.654ZM153.414 97.7693C151.842 95.8828 149.549 95.0575 146.845 95.0575V98.2575C148.887 98.2575 150.155 98.8563 150.956 99.8179L153.414 97.7693ZM146.845 95.0575C144.247 95.0575 142.024 95.9552 140.327 97.7994L142.682 99.9659C143.715 98.8433 145.052 98.2575 146.845 98.2575V95.0575ZM140.325 97.8015C138.705 99.5693 137.946 101.817 137.946 104.401H141.146C141.146 102.475 141.694 101.044 142.684 99.9638L140.325 97.8015ZM195.15 72.6262H196.75V71.0262H195.15V72.6262ZM195.15 85.5319H193.55V87.1319H195.15V85.5319ZM203.784 85.5319H205.384V83.9319H203.784V85.5319ZM203.784 97.3696V98.9696H205.384V97.3696H203.784ZM195.15 97.3696V95.7696H193.55V97.3696H195.15ZM203.606 118.108H205.206V116.103L203.251 116.548L203.606 118.108ZM203.606 129.322L204.321 130.753L205.206 130.311V129.322H203.606ZM185.716 126.741L184.597 127.886L184.604 127.892L184.61 127.898L185.716 126.741ZM181.8 97.3696H183.4V95.7696H181.8V97.3696ZM173.967 97.3696H172.367V98.9696H173.967V97.3696ZM173.967 85.5319V83.9319H172.367V85.5319H173.967ZM181.265 83.5738L180.058 82.5239L180.055 82.528L181.265 83.5738ZM183.046 72.6262V71.0262H181.446V72.6262H183.046ZM193.55 72.6262V85.5319H196.75V72.6262H193.55ZM195.15 87.1319H203.784V83.9319H195.15V87.1319ZM202.184 85.5319V97.3696H205.384V85.5319H202.184ZM203.784 95.7696H195.15V98.9696H203.784V95.7696ZM193.55 97.3696V113.924H196.75V97.3696H193.55ZM193.55 113.924C193.55 115.738 194.034 117.385 195.275 118.558C196.499 119.716 198.189 120.153 200.046 120.153V116.953C198.639 116.953 197.881 116.619 197.473 116.233C197.082 115.863 196.75 115.197 196.75 113.924H193.55ZM200.046 120.153C201.258 120.153 202.566 119.985 203.96 119.668L203.251 116.548C202.034 116.824 200.969 116.953 200.046 116.953V120.153ZM202.006 118.108V129.322H205.206V118.108H202.006ZM202.89 127.891C201.548 128.562 199.491 128.968 196.574 128.968V132.168C199.711 132.168 202.34 131.744 204.321 130.753L202.89 127.891ZM196.574 128.968C192.314 128.968 189.127 127.788 186.821 125.584L184.61 127.898C187.645 130.798 191.696 132.168 196.574 132.168V128.968ZM186.834 125.597C184.592 123.406 183.4 120.382 183.4 116.328H180.2C180.2 121.056 181.617 124.973 184.597 127.886L186.834 125.597ZM183.4 116.328V97.3696H180.2V116.328H183.4ZM181.8 95.7696H173.967V98.9696H181.8V95.7696ZM175.567 97.3696V85.5319H172.367V97.3696H175.567ZM173.967 87.1319H176.192V83.9319H173.967V87.1319ZM176.192 87.1319C178.76 87.1319 180.958 86.3777 182.476 84.6196L180.055 82.528C179.318 83.3806 178.134 83.9319 176.192 83.9319V87.1319ZM182.473 84.6237C183.957 82.9166 184.646 80.7708 184.646 78.3225L181.446 78.3225C181.446 80.1464 180.947 81.5015 180.058 82.5239L182.473 84.6237ZM184.646 78.3225V72.6262L181.446 72.6262V78.3225L184.646 78.3225ZM183.046 74.2262L195.15 74.2262V71.0262H183.046V74.2262ZM214.698 108.584L215.786 109.758L215.793 109.751L215.801 109.743L214.698 108.584ZM224.133 104.223L224.376 105.804L224.133 104.223ZM234.546 102.621L234.326 101.036L234.314 101.038L234.303 101.039L234.546 102.621ZM235.97 96.2125L234.94 97.4364L234.974 97.4654L235.01 97.4925L235.97 96.2125ZM225.824 96.7465L226.928 97.9039L226.93 97.9028L225.824 96.7465ZM223.688 101.286L223.367 102.853L225.162 103.221L225.284 101.392L223.688 101.286ZM211.939 98.8827L210.344 98.754L210.23 100.166L211.618 100.45L211.939 98.8827ZM217.368 88.8251L218.445 90.008L218.446 90.0071L217.368 88.8251ZM246.117 89.0031L244.975 90.1238L244.98 90.1292L244.985 90.1345L246.117 89.0031ZM251.457 129.767V131.367H253.409L253.026 129.454L251.457 129.767ZM239.263 129.767L237.711 130.155L238.014 131.367H239.263V129.767ZM238.818 124.783H240.418V119.122L237.455 123.946L238.818 124.783ZM215.143 127.097L214.024 128.241L214.037 128.253L214.05 128.265L215.143 127.097ZM237.75 110.453H239.35V108.578L237.498 108.873L237.75 110.453ZM229.384 111.788L229.132 110.208L229.13 110.209L229.384 111.788ZM225.646 119.888L224.476 120.98L224.495 121L224.514 121.019L225.646 119.888ZM212.649 117.574C212.649 114.218 213.723 111.67 215.786 109.758L213.61 107.411C210.808 110.008 209.449 113.453 209.449 117.574H212.649ZM215.801 109.743C217.96 107.689 220.788 106.356 224.376 105.804L223.889 102.642C219.763 103.276 216.301 104.851 213.595 107.425L215.801 109.743ZM224.376 105.804L234.789 104.202L234.303 101.039L223.889 102.642L224.376 105.804ZM234.766 104.206C236.017 104.032 237.183 103.622 238.048 102.805C238.957 101.946 239.35 100.813 239.35 99.5947H236.15C236.15 100.097 236.01 100.329 235.851 100.479C235.648 100.67 235.211 100.913 234.326 101.036L234.766 104.206ZM239.35 99.5947C239.35 97.6777 238.479 96.0943 236.93 94.9325L235.01 97.4925C235.835 98.1108 236.15 98.7822 236.15 99.5947H239.35ZM237.001 94.9886C235.494 93.7198 233.509 93.1884 231.253 93.1884V96.3884C233.032 96.3884 234.192 96.8064 234.94 97.4364L237.001 94.9886ZM231.253 93.1884C228.671 93.1884 226.436 93.9463 224.718 95.5903L226.93 97.9028C227.94 96.936 229.325 96.3884 231.253 96.3884V93.1884ZM224.719 95.5892C223.128 97.1081 222.237 98.9947 222.091 101.179L225.284 101.392C225.376 100.017 225.909 98.8771 226.928 97.9039L224.719 95.5892ZM224.008 99.7182L212.259 97.3151L211.618 100.45L223.367 102.853L224.008 99.7182ZM213.534 99.0113C213.791 95.8209 215.354 92.8238 218.445 90.008L216.291 87.6421C212.737 90.8787 210.68 94.5867 210.344 98.754L213.534 99.0113ZM218.446 90.0071C221.455 87.2625 225.686 85.7968 231.342 85.7968V82.5968C225.131 82.5968 220.046 84.2166 216.29 87.6431L218.446 90.0071ZM231.342 85.7968C237.828 85.7968 242.252 87.3494 244.975 90.1238L247.259 87.8823C243.692 84.2484 238.266 82.5968 231.342 82.5968V85.7968ZM244.985 90.1345C247.858 93.0072 249.323 96.6793 249.323 101.286H252.523C252.523 95.9238 250.784 91.4074 247.248 87.8717L244.985 90.1345ZM249.323 101.286V122.914H252.523V101.286H249.323ZM249.323 122.914C249.323 125.759 249.504 128.158 249.888 130.081L253.026 129.454C252.699 127.816 252.523 125.647 252.523 122.914H249.323ZM251.457 128.167H239.263V131.367H251.457V128.167ZM240.816 129.379C240.566 128.38 240.418 126.87 240.418 124.783H237.218C237.218 126.968 237.368 128.782 237.711 130.155L240.816 129.379ZM237.455 123.946C235.251 127.533 231.675 129.413 226.358 129.413V132.613C232.552 132.613 237.282 130.34 240.182 125.621L237.455 123.946ZM226.358 129.413C221.979 129.413 218.665 128.203 216.236 125.929L214.05 128.265C217.199 131.214 221.361 132.613 226.358 132.613V129.413ZM216.262 125.954C213.827 123.572 212.649 120.804 212.649 117.574H209.449C209.449 121.701 211 125.283 214.024 128.241L216.262 125.954ZM229.651 122.823C232.304 122.823 234.624 122.03 236.496 120.374L234.376 117.977C233.162 119.051 231.626 119.623 229.651 119.623V122.823ZM236.496 120.374C238.529 118.576 239.35 115.773 239.35 112.411H236.15C236.15 115.339 235.429 117.046 234.376 117.977L236.496 120.374ZM239.35 112.411V110.453H236.15V112.411H239.35ZM237.498 108.873L229.132 110.208L229.636 113.368L238.002 112.033L237.498 108.873ZM229.13 110.209C227.281 110.506 225.676 111.14 224.524 112.271C223.335 113.44 222.8 114.969 222.8 116.684H226C226 115.668 226.295 115.018 226.767 114.554C227.277 114.053 228.164 113.605 229.638 113.368L229.13 110.209ZM222.8 116.684C222.8 118.324 223.362 119.786 224.476 120.98L226.815 118.796C226.268 118.21 226 117.535 226 116.684H222.8ZM224.514 121.019C225.81 122.315 227.624 122.823 229.651 122.823V119.623C228.117 119.623 227.261 119.241 226.777 118.756L224.514 121.019ZM275.13 99.5947L273.998 98.4633L273.99 98.472L273.981 98.4809L275.13 99.5947ZM275.219 115.705L274.087 116.836L274.096 116.844L274.104 116.853L275.219 115.705ZM288.569 116.773L289.575 118.017L289.58 118.013L288.569 116.773ZM291.774 112.055L292.242 110.525L290.69 110.051L290.237 111.609L291.774 112.055ZM303.7 115.705L305.251 116.098L305.626 114.621L304.168 114.175L303.7 115.705ZM296.491 126.563L295.484 125.32L295.474 125.328L296.491 126.563ZM265.695 124.516L264.579 125.662L264.586 125.67L264.594 125.677L265.695 124.516ZM265.517 90.8722L266.641 92.0111L266.641 92.011L265.517 90.8722ZM296.313 88.6471L295.308 89.8925L296.313 88.6471ZM303.433 99.5947L303.895 101.127L305.351 100.688L304.987 99.2116L303.433 99.5947ZM291.329 103.244L289.788 103.677L290.23 105.246L291.79 104.776L291.329 103.244ZM282.428 95.0575C279.12 95.0575 276.273 96.1889 273.998 98.4633L276.261 100.726C277.903 99.0843 279.921 98.2575 282.428 98.2575V95.0575ZM273.981 98.4809C271.722 100.81 270.681 103.951 270.681 107.694H273.882C273.882 104.554 274.74 102.295 276.278 100.709L273.981 98.4809ZM270.681 107.694C270.681 111.401 271.765 114.514 274.087 116.836L276.35 114.573C274.756 112.979 273.882 110.752 273.882 107.694H270.681ZM274.104 116.853C276.431 119.111 279.298 120.242 282.606 120.242V117.042C280.099 117.042 278.041 116.214 276.333 114.556L274.104 116.853ZM282.606 120.242C285.319 120.242 287.687 119.542 289.575 118.017L287.564 115.528C286.366 116.496 284.759 117.042 282.606 117.042V120.242ZM289.58 118.013C291.413 116.519 292.678 114.678 293.31 112.501L290.237 111.609C289.801 113.112 288.93 114.415 287.559 115.532L289.58 118.013ZM291.305 113.585L303.232 117.235L304.168 114.175L292.242 110.525L291.305 113.585ZM302.149 115.311C301.175 119.154 298.984 122.486 295.484 125.32L297.498 127.807C301.474 124.588 304.089 120.681 305.251 116.098L302.149 115.311ZM295.474 125.328C292.129 128.079 287.879 129.502 282.606 129.502V132.702C288.488 132.702 293.495 131.1 297.507 127.799L295.474 125.328ZM282.606 129.502C276.351 129.502 271.114 127.451 266.796 123.355L264.594 125.677C269.533 130.363 275.569 132.702 282.606 132.702V129.502ZM266.812 123.37C262.572 119.241 260.442 114.056 260.442 107.694H257.242C257.242 114.861 259.68 120.891 264.579 125.662L266.812 123.37ZM260.442 107.694C260.442 101.255 262.525 96.0723 266.641 92.0111L264.393 89.7333C259.609 94.4539 257.242 100.486 257.242 107.694H260.442ZM266.641 92.011C270.838 87.869 275.977 85.7968 282.161 85.7968V82.5968C275.173 82.5968 269.215 84.9749 264.393 89.7334L266.641 92.011ZM282.161 85.7968C287.633 85.7968 291.972 87.2019 295.308 89.8925L297.317 87.4016C293.296 84.1586 288.2 82.5968 282.161 82.5968V85.7968ZM295.308 89.8925C298.732 92.6536 300.901 96.0069 301.88 99.9777L304.987 99.2116C303.83 94.5193 301.251 90.5742 297.317 87.4016L295.308 89.8925ZM302.971 98.0628L290.867 101.712L291.79 104.776L303.895 101.127L302.971 98.0628ZM292.869 102.811C292.249 100.609 291.066 98.7582 289.332 97.3015L287.273 99.7518C288.506 100.787 289.34 102.082 289.788 103.677L292.869 102.811ZM289.332 97.3015C287.492 95.7565 285.138 95.0575 282.428 95.0575V98.2575C284.583 98.2575 286.146 98.8047 287.273 99.7518L289.332 97.3015ZM328.136 72.6262H329.736V71.0262H328.136V72.6262ZM328.136 85.5319H326.536V87.1319H328.136V85.5319ZM336.77 85.5319H338.37V83.9319H336.77V85.5319ZM336.77 97.3696V98.9696H338.37V97.3696H336.77ZM328.136 97.3696V95.7696L326.536 95.7696V97.3696L328.136 97.3696ZM336.592 118.108H338.192V116.103L336.237 116.548L336.592 118.108ZM336.592 129.322L337.307 130.753L338.192 130.311V129.322H336.592ZM318.702 126.741L317.583 127.886L317.59 127.892L317.596 127.898L318.702 126.741ZM314.786 97.3696H316.386V95.7696H314.786V97.3696ZM306.953 97.3696H305.353V98.9696H306.953V97.3696ZM306.953 85.5319V83.9319H305.353V85.5319H306.953ZM314.252 83.5738L313.044 82.5239L313.041 82.528L314.252 83.5738ZM316.032 72.6262V71.0262H314.432V72.6262H316.032ZM326.536 72.6262V85.5319H329.736V72.6262L326.536 72.6262ZM328.136 87.1319H336.77V83.9319H328.136V87.1319ZM335.17 85.5319V97.3696H338.37V85.5319H335.17ZM336.77 95.7696H328.136V98.9696H336.77V95.7696ZM326.536 97.3696V113.924H329.736V97.3696L326.536 97.3696ZM326.536 113.924C326.536 115.738 327.02 117.385 328.261 118.558C329.485 119.716 331.175 120.153 333.032 120.153V116.953C331.625 116.953 330.867 116.619 330.459 116.233C330.068 115.863 329.736 115.197 329.736 113.924H326.536ZM333.032 120.153C334.245 120.153 335.553 119.985 336.946 119.668L336.237 116.548C335.02 116.824 333.955 116.953 333.032 116.953V120.153ZM334.992 118.108V129.322H338.192V118.108L334.992 118.108ZM335.876 127.891C334.534 128.562 332.477 128.968 329.56 128.968V132.168C332.697 132.168 335.326 131.744 337.307 130.753L335.876 127.891ZM329.56 128.968C325.3 128.968 322.113 127.788 319.807 125.584L317.596 127.898C320.631 130.798 324.682 132.168 329.56 132.168V128.968ZM319.82 125.597C317.578 123.406 316.386 120.382 316.386 116.328H313.186C313.186 121.056 314.603 124.973 317.583 127.886L319.82 125.597ZM316.386 116.328V97.3696H313.186V116.328H316.386ZM314.786 95.7696H306.953V98.9696H314.786V95.7696ZM308.553 97.3696V85.5319H305.353V97.3696H308.553ZM306.953 87.1319H309.178V83.9319H306.953V87.1319ZM309.178 87.1319C311.746 87.1319 313.944 86.3777 315.462 84.6196L313.041 82.528C312.304 83.3806 311.12 83.9319 309.178 83.9319V87.1319ZM315.459 84.6237C316.943 82.9166 317.632 80.7708 317.632 78.3225H314.432C314.432 80.1464 313.933 81.5015 313.044 82.5239L315.459 84.6237ZM317.632 78.3225V72.6262H314.432V78.3225H317.632ZM316.032 74.2262L328.136 74.2262V71.0262H316.032V74.2262ZM381.355 129.767V131.367H382.955V129.767H381.355ZM367.826 129.767H366.226V131.367H367.826V129.767ZM367.826 85.5319V83.9319H366.226V85.5319H367.826ZM380.732 85.5319H382.332V83.9319H380.732V85.5319ZM380.732 90.6052H379.132V96.7132L382.127 91.3896L380.732 90.6052ZM385.983 85.9769L385.295 84.5323L385.289 84.5356L385.282 84.5389L385.983 85.9769ZM406.544 91.1392L405.12 91.8693L406.339 94.246L407.859 92.0499L406.544 91.1392ZM431.91 88.4691L430.836 89.655L430.842 89.6606L430.848 89.6662L431.91 88.4691ZM436.627 129.767V131.367H438.227V129.767H436.627ZM423.543 129.767H421.943V131.367H423.543V129.767ZM421.763 98.7936L420.534 99.8179L420.545 99.8308L420.556 99.8435L421.763 98.7936ZM411.083 98.8827L412.284 99.9397L411.083 98.8827ZM409.125 129.767V131.367H410.725V129.767H409.125ZM395.774 129.767H394.174V131.367H395.774V129.767ZM393.905 98.7936L392.676 99.8179L392.699 99.8457L392.723 99.8725L393.905 98.7936ZM383.313 98.8827L384.514 99.9397V99.9397L383.313 98.8827ZM381.355 128.167H367.826V131.367H381.355V128.167ZM369.426 129.767V85.5319H366.226V129.767H369.426ZM367.826 87.1319H380.732V83.9319H367.826V87.1319ZM379.132 85.5319V90.6052H382.332V85.5319H379.132ZM382.127 91.3896C383 89.8361 384.473 88.494 386.685 87.415L385.282 84.5389C382.628 85.8333 380.6 87.5767 379.338 89.8208L382.127 91.3896ZM386.671 87.4215C388.972 86.326 391.23 85.7968 393.46 85.7968V82.5968C390.705 82.5968 387.979 83.2544 385.295 84.5323L386.671 87.4215ZM393.46 85.7968C399.368 85.7968 403.086 87.9032 405.12 91.8693L407.967 90.4091C405.254 85.1187 400.25 82.5968 393.46 82.5968V85.7968ZM407.859 92.0499C410.746 87.8803 414.808 85.7968 420.25 85.7968V82.5968C413.825 82.5968 408.75 85.1416 405.228 90.2285L407.859 92.0499ZM420.25 85.7968C424.521 85.7968 428.013 87.0985 430.836 89.655L432.984 87.2831C429.517 84.1433 425.236 82.5968 420.25 82.5968V85.7968ZM430.848 89.6662C433.545 92.0572 435.027 95.7644 435.027 101.108H438.227C438.227 95.1772 436.565 90.4585 432.972 87.272L430.848 89.6662ZM435.027 101.108V129.767H438.227V101.108H435.027ZM436.627 128.167H423.543V131.367H436.627V128.167ZM425.143 129.767V104.134H421.943V129.767H425.143ZM425.143 104.134C425.143 101.639 424.462 99.4587 422.971 97.7438L420.556 99.8435C421.438 100.858 421.943 102.238 421.943 104.134H425.143ZM422.993 97.7693C421.428 95.8921 419.173 95.0575 416.512 95.0575V98.2575C418.48 98.2575 419.725 98.847 420.534 99.8179L422.993 97.7693ZM416.512 95.0575C413.825 95.0575 411.544 95.9369 409.882 97.8256L412.284 99.9397C413.233 98.8615 414.571 98.2575 416.512 98.2575V95.0575ZM409.882 97.8256C408.305 99.617 407.525 101.779 407.525 104.223H410.725C410.725 102.514 411.25 101.115 412.284 99.9397L409.882 97.8256ZM407.525 104.223V129.767H410.725V104.223H407.525ZM409.125 128.167H395.774V131.367H409.125V128.167ZM397.374 129.767V104.134H394.174V129.767H397.374ZM397.374 104.134C397.374 101.619 396.651 99.4282 395.086 97.7148L392.723 99.8725C393.651 100.889 394.174 102.258 394.174 104.134H397.374ZM395.134 97.7693C393.57 95.8921 391.314 95.0575 388.654 95.0575V98.2575C390.621 98.2575 391.867 98.847 392.676 99.8179L395.134 97.7693ZM388.654 95.0575C386.011 95.0575 383.766 95.9464 382.112 97.8256L384.514 99.9397C385.471 98.852 386.786 98.2575 388.654 98.2575V95.0575ZM382.112 97.8256C380.528 99.6258 379.755 101.821 379.755 104.312H382.955C382.955 102.531 383.488 101.106 384.514 99.9397L382.112 97.8256ZM379.755 104.312V129.767H382.955V104.312H379.755ZM458.288 102.354L456.695 102.204L456.531 103.954H458.288V102.354ZM476 102.354V103.954H477.697L477.597 102.26L476 102.354ZM473.597 97.1025L472.443 98.2106L472.454 98.2224L472.466 98.2339L473.597 97.1025ZM460.869 97.1916L459.738 96.0602L460.869 97.1916ZM476.979 113.835L477.415 112.296L475.971 111.887L475.471 113.302L476.979 113.835ZM488.283 117.04L489.825 117.464L490.247 115.933L488.719 115.5L488.283 117.04ZM481.251 127.186L482.198 128.476L482.204 128.471L482.211 128.466L481.251 127.186ZM451.524 124.694L450.416 125.848L450.423 125.856L451.524 124.694ZM451.346 90.6942L450.222 89.5551L450.214 89.5628L451.346 90.6942ZM483.12 90.2492L481.972 91.3635L481.981 91.3721L481.989 91.3805L483.12 90.2492ZM488.817 111.076V112.676H489.97L490.335 111.582L488.817 111.076ZM458.021 111.076V109.476H456.341L456.423 111.154L458.021 111.076ZM461.136 117.218L460.101 118.438L460.112 118.447L460.123 118.456L461.136 117.218ZM458.288 103.954H476V100.754H458.288V103.954ZM477.597 102.26C477.455 99.8352 476.477 97.7201 474.728 95.9712L472.466 98.2339C473.683 99.4518 474.308 100.838 474.403 102.448L477.597 102.26ZM474.751 95.9945C472.918 94.0853 470.259 93.2774 467.1 93.2774V96.4774C469.755 96.4774 471.427 97.153 472.443 98.2106L474.751 95.9945ZM467.1 93.2774C464.154 93.2774 461.638 94.1596 459.738 96.0602L462.001 98.3229C463.186 97.138 464.824 96.4774 467.1 96.4774V93.2774ZM459.738 96.0602C457.972 97.8264 456.913 99.8818 456.695 102.204L459.881 102.503C460.019 101.028 460.681 99.6422 462.001 98.3229L459.738 96.0602ZM476.543 115.375L487.846 118.579L488.719 115.5L477.415 112.296L476.543 115.375ZM486.74 116.615C485.712 120.35 483.583 123.438 480.291 125.906L482.211 128.466C486.041 125.594 488.599 121.918 489.825 117.464L486.74 116.615ZM480.305 125.896C477.073 128.266 472.974 129.502 467.901 129.502V132.702C473.508 132.702 478.309 131.328 482.198 128.476L480.305 125.896ZM467.901 129.502C461.887 129.502 456.826 127.514 452.624 123.533L450.423 125.856C455.24 130.419 461.097 132.702 467.901 132.702V129.502ZM452.632 123.54C448.548 119.619 446.448 114.338 446.448 107.516H443.248C443.248 115.054 445.599 121.225 450.416 125.848L452.632 123.54ZM446.448 107.516C446.448 101 448.484 95.8189 452.477 91.8256L450.214 89.5628C445.544 94.2327 443.248 100.266 443.248 107.516H446.448ZM452.469 91.8332C456.571 87.7874 461.363 85.7968 466.922 85.7968V82.5968C460.494 82.5968 454.903 84.9378 450.222 89.5551L452.469 91.8332ZM466.922 85.7968C473.476 85.7968 478.423 87.7063 481.972 91.3635L484.269 89.1348C479.986 84.7222 474.134 82.5968 466.922 82.5968V85.7968ZM481.989 91.3805C485.59 94.9813 487.484 100.078 487.484 106.893H490.684C490.684 99.4673 488.602 93.4682 484.252 89.1178L481.989 91.3805ZM487.484 106.893C487.484 108.004 487.462 108.879 487.42 109.528C487.4 109.853 487.375 110.106 487.349 110.295C487.321 110.498 487.298 110.574 487.299 110.57L490.335 111.582C490.497 111.096 490.57 110.423 490.614 109.732C490.661 108.987 490.684 108.037 490.684 106.893H487.484ZM488.817 109.476H458.021V112.676H488.817V109.476ZM456.423 111.154C456.564 114.056 457.826 116.507 460.101 118.438L462.171 115.998C460.53 114.605 459.715 112.963 459.619 110.998L456.423 111.154ZM460.123 118.456C462.384 120.306 465.061 121.221 468.079 121.221V118.021C465.756 118.021 463.805 117.334 462.149 115.979L460.123 118.456ZM468.079 121.221C470.584 121.221 472.794 120.692 474.602 119.516C476.426 118.331 477.707 116.576 478.487 114.369L475.471 113.302C474.887 114.952 474.002 116.09 472.858 116.833C471.7 117.586 470.143 118.021 468.079 118.021V121.221Z" fill="white"/>
<path d="M36.1511 66.3351C26.8946 66.3351 19.1215 63.3089 12.8318 57.2566C6.54213 51.1449 3.39728 43.2531 3.39728 33.5812C3.39728 23.9687 6.57179 16.0769 12.9208 9.90589C19.2698 3.67553 26.9539 0.560357 35.9731 0.560357C40.4827 0.560357 44.5473 1.24273 48.1668 2.60747C51.8457 3.91288 54.8125 5.66331 57.0673 7.85877C59.3221 10.0542 61.1319 12.309 62.4966 14.6232C63.8614 16.9373 64.8108 19.3404 65.3448 21.8326L52.083 26.0158C51.7863 24.7697 51.3117 23.5533 50.659 22.3666C50.0063 21.1205 49.0865 19.8745 47.8998 18.6284C46.7131 17.323 45.0813 16.2846 43.0045 15.5132C40.9277 14.6825 38.5839 14.2671 35.9731 14.2671C31.2262 14.2671 27.043 15.9582 23.4234 19.3404C19.8039 22.6633 17.9941 27.4102 17.9941 33.5812C17.9941 39.2775 19.7742 43.8168 23.3344 47.199C26.8946 50.5812 31.1669 52.2723 36.1511 52.2723C41.0167 52.2723 44.7846 51.0559 47.4548 48.6231C50.1249 46.1903 51.8754 43.4608 52.7061 40.4346L66.1458 44.2618C65.5525 46.6946 64.5734 49.0978 63.2087 51.4712C61.9033 53.8447 60.0935 56.1885 57.7794 58.5026C55.5246 60.8168 52.4984 62.7155 48.7008 64.199C44.9626 65.623 40.7794 66.3351 36.1511 66.3351ZM93.8118 53.8744C96.6006 53.8744 98.9444 52.925 100.843 51.0262C102.801 49.1274 103.78 46.3979 103.78 42.8377C103.78 39.2775 102.801 36.5777 100.843 34.7383C98.9444 32.8395 96.6006 31.8901 93.8118 31.8901C91.0823 31.8901 88.7385 32.8395 86.7804 34.7383C84.8223 36.6371 83.8432 39.3369 83.8432 42.8377C83.8432 46.3386 84.8223 49.0681 86.7804 51.0262C88.7385 52.925 91.0823 53.8744 93.8118 53.8744ZM93.8118 19.4294C100.517 19.4294 106.094 21.6249 110.545 26.0158C115.054 30.4067 117.309 36.014 117.309 42.8377C117.309 49.6615 115.054 55.2985 110.545 59.7487C106.094 64.1396 100.517 66.3351 93.8118 66.3351C87.1661 66.3351 81.5884 64.1099 77.0788 59.6597C72.5693 55.2094 70.3145 49.6021 70.3145 42.8377C70.3145 36.0734 72.5693 30.4957 77.0788 26.1048C81.5884 21.6545 87.1661 19.4294 93.8118 19.4294ZM139.546 39.6336V65H126.018V20.7645H139.101V25.8378C140.229 23.8797 141.95 22.3666 144.264 21.2985C146.637 20.1711 149.04 19.6074 151.473 19.6074C156.754 19.6074 160.759 21.2689 163.489 24.5917C166.218 27.8552 167.583 32.0681 167.583 37.2304V65L154.054 65V39.5446C154.054 37.2304 153.431 35.391 152.185 34.0262C150.998 32.6022 149.218 31.8901 146.845 31.8901C144.649 31.8901 142.869 32.6318 141.505 34.1153C140.199 35.5393 139.546 37.3788 139.546 39.6336ZM195.15 7.85877V20.7645H203.784V32.6022H195.15V49.1571C195.15 52.2426 196.782 53.7854 200.046 53.7854C201.114 53.7854 202.3 53.637 203.606 53.3403V64.555C201.944 65.3857 199.601 65.801 196.574 65.801C192.005 65.801 188.386 64.5253 185.716 61.9738C183.105 59.4224 181.8 55.9512 181.8 51.5602V32.6022H173.967V20.7645L176.192 20.7645C178.447 20.7645 180.138 20.1118 181.265 18.8064C182.452 17.4416 183.046 15.6912 183.046 13.5551V7.85877L195.15 7.85877ZM211.049 52.8063C211.049 49.0681 212.265 46.0716 214.698 43.8168C217.131 41.5027 220.276 40.0489 224.133 39.4556L234.546 37.8535C236.682 37.5568 237.75 36.5481 237.75 34.8273C237.75 33.4626 237.157 32.3352 235.97 31.4451C234.843 30.4957 233.27 30.021 231.253 30.021C228.998 30.021 227.188 30.6737 225.824 31.9791C224.518 33.2252 223.806 34.7383 223.688 36.5184L211.939 34.1153C212.236 30.4364 214.045 27.0839 217.368 24.0577C220.75 20.9722 225.408 19.4294 231.342 19.4294C238.047 19.4294 242.972 21.0315 246.117 24.2357C249.321 27.4399 250.923 31.5341 250.923 36.5184V58.1466C250.923 60.9354 251.101 63.2199 251.457 65H239.263C238.967 63.8133 238.818 62.1518 238.818 60.0157C236.267 64.1693 232.113 66.2461 226.358 66.2461C221.67 66.2461 217.932 64.9407 215.143 62.3298C212.414 59.6597 211.049 56.4852 211.049 52.8063ZM229.651 56.4555C231.965 56.4555 233.893 55.7731 235.436 54.4084C236.979 53.0437 237.75 50.7889 237.75 47.644V45.6859L229.384 47.021C226.061 47.555 224.4 49.1868 224.4 51.9163C224.4 53.1623 224.815 54.2304 225.646 55.1204C226.536 56.0105 227.871 56.4555 229.651 56.4555ZM282.428 31.8901C279.521 31.8901 277.088 32.8692 275.13 34.8273C273.231 36.7854 272.281 39.4852 272.281 42.9268C272.281 46.3089 273.261 48.9791 275.219 50.9372C277.236 52.8953 279.699 53.8744 282.606 53.8744C285.039 53.8744 287.027 53.2513 288.569 52.0053C290.172 50.6999 291.24 49.1274 291.774 47.288L303.7 50.9372C302.632 55.1501 300.229 58.7696 296.491 61.7958C292.812 64.822 288.184 66.3351 282.606 66.3351C275.96 66.3351 270.323 64.1396 265.695 59.7487C261.126 55.2985 258.842 49.6911 258.842 42.9268C258.842 36.103 261.067 30.4957 265.517 26.1048C270.027 21.6545 275.575 19.4294 282.161 19.4294C287.917 19.4294 292.634 20.9128 296.313 23.8797C299.992 26.8465 302.365 30.4957 303.433 34.8273L291.329 38.4765C290.795 36.5777 289.786 35.0053 288.302 33.7592C286.819 32.5132 284.861 31.8901 282.428 31.8901ZM328.136 7.85877V20.7645H336.77V32.6022H328.136V49.1571C328.136 52.2426 329.768 53.7854 333.032 53.7854C334.1 53.7854 335.286 53.637 336.592 53.3403V64.555C334.93 65.3857 332.587 65.801 329.56 65.801C324.991 65.801 321.372 64.5253 318.702 61.9738C316.091 59.4224 314.786 55.9512 314.786 51.5602V32.6022H306.953V20.7645H309.178C311.433 20.7645 313.124 20.1118 314.252 18.8064C315.438 17.4416 316.032 15.6912 316.032 13.5551V7.85877L328.136 7.85877ZM381.355 65H367.826V20.7645H380.732V25.8378C381.8 23.939 383.551 22.3963 385.983 21.2095C388.475 20.0228 390.968 19.4294 393.46 19.4294C399.809 19.4294 404.17 21.7436 406.544 26.3718C409.748 21.7436 414.317 19.4294 420.25 19.4294C424.879 19.4294 428.765 20.8535 431.91 23.7017C435.055 26.4905 436.627 30.7034 436.627 36.3404V65H423.543V39.3666C423.543 37.1711 422.95 35.391 421.763 34.0262C420.577 32.6022 418.826 31.8901 416.512 31.8901C414.198 31.8901 412.388 32.6318 411.083 34.1153C409.777 35.5987 409.125 37.3788 409.125 39.4556V65H395.774V39.3666C395.774 37.1711 395.151 35.391 393.905 34.0262C392.718 32.6022 390.968 31.8901 388.653 31.8901C386.399 31.8901 384.619 32.6318 383.313 34.1153C382.008 35.5987 381.355 37.4084 381.355 39.5446V65ZM458.288 37.5864L476 37.5864C475.881 35.569 475.08 33.8186 473.597 32.3352C472.173 30.8517 470.007 30.11 467.1 30.11C464.489 30.11 462.412 30.8814 460.869 32.4242C459.326 33.9669 458.466 35.6877 458.288 37.5864ZM476.979 49.0681L488.283 52.2723C487.155 56.3665 484.812 59.7487 481.251 62.4189C477.691 65.0297 473.241 66.3351 467.901 66.3351C461.492 66.3351 456.033 64.199 451.524 59.9267C447.073 55.6545 444.848 49.9285 444.848 42.7487C444.848 35.8657 447.014 30.2584 451.346 25.9268C455.737 21.5952 460.929 19.4294 466.922 19.4294C473.805 19.4294 479.204 21.4469 483.12 25.4818C487.096 29.4573 489.084 35.0053 489.084 42.1257C489.084 44.3805 488.995 45.7749 488.817 46.3089L458.021 46.3089C458.14 48.7417 459.178 50.7889 461.136 52.4503C463.094 54.0524 465.408 54.8534 468.079 54.8534C472.648 54.8534 475.614 52.925 476.979 49.0681Z" fill="white"/>
</svg>
