<svg width="621" height="254" viewBox="0 0 621 254" fill="none" xmlns="http://www.w3.org/2000/svg">
<path d="M56.916 233V234.511H58.4272V233H56.916ZM8.316 233H6.80476V234.511H8.316V233ZM8.316 156.428V154.917H6.80476V156.428H8.316ZM56.808 156.428H58.3192V154.917H56.808V156.428ZM56.808 172.52V174.031H58.3192V172.52H56.808ZM25.38 172.52V171.009H23.8688V172.52H25.38ZM25.38 187.1H23.8688V188.611H25.38V187.1ZM53.892 187.1H55.4032V185.589H53.892V187.1ZM53.892 202.112V203.623H55.4032V202.112H53.892ZM25.38 202.112V200.601H23.8688V202.112H25.38ZM25.38 216.8H23.8688V218.311H25.38V216.8ZM56.916 216.8H58.4272V215.289H56.916V216.8ZM56.916 231.489H8.316V234.511H56.916V231.489ZM9.82724 233V156.428H6.80476V233H9.82724ZM8.316 157.939H56.808V154.917H8.316V157.939ZM55.2968 156.428V172.52H58.3192V156.428H55.2968ZM56.808 171.009H25.38V174.031H56.808V171.009ZM23.8688 172.52V187.1H26.8912V172.52H23.8688ZM25.38 188.611H53.892V185.589H25.38V188.611ZM52.3808 187.1V202.112H55.4032V187.1H52.3808ZM53.892 200.601H25.38V203.623H53.892V200.601ZM23.8688 202.112V216.8H26.8912V202.112H23.8688ZM25.38 218.311H56.916V215.289H25.38V218.311ZM55.4048 216.8V233H58.4272V216.8H55.4048ZM64.4768 233L63.2327 232.142L61.5991 234.511H64.4768V233ZM82.9448 206.216L84.189 207.074L84.7845 206.21L84.1836 205.35L82.9448 206.216ZM64.1528 179.324V177.813H61.2531L62.9141 180.19L64.1528 179.324ZM83.4848 179.324L84.7494 178.496L84.3019 177.813H83.4848V179.324ZM93.0968 194.012L91.8323 194.84L93.1113 196.794L94.3699 194.826L93.0968 194.012ZM102.493 179.324V177.813H101.666L101.22 178.51L102.493 179.324ZM120.853 179.324L122.086 180.197L123.774 177.813H120.853V179.324ZM102.277 205.568L101.043 204.695L100.428 205.564L101.04 206.436L102.277 205.568ZM121.501 233V234.511H124.374L122.746 232.144L121.501 233ZM102.277 233L101.014 233.83L101.462 234.511H102.277V233ZM92.3408 217.88L93.6038 217.05L92.336 215.121L91.075 217.054L92.3408 217.88ZM87.1568 225.872L88.4256 226.693L87.1568 225.872ZM82.5128 233V234.511H83.3216L83.7703 233.838L82.5128 233ZM65.721 233.858L84.189 207.074L81.7007 205.358L63.2327 232.142L65.721 233.858ZM84.1836 205.35L65.3916 178.458L62.9141 180.19L81.7061 207.082L84.1836 205.35ZM64.1528 180.835H83.4848V177.813H64.1528V180.835ZM82.2203 180.152L91.8323 194.84L94.3614 193.184L84.7494 178.496L82.2203 180.152ZM94.3699 194.826L103.766 180.138L101.22 178.51L91.8238 193.198L94.3699 194.826ZM102.493 180.835H120.853V177.813H102.493V180.835ZM119.619 178.451L101.043 204.695L103.51 206.441L122.086 180.197L119.619 178.451ZM101.04 206.436C113.068 223.578 119.469 232.712 120.256 233.856L122.746 232.144C121.949 230.984 115.534 221.83 103.514 204.7L101.04 206.436ZM121.501 231.489H102.277V234.511H121.501V231.489ZM103.54 232.17L93.6038 217.05L91.0779 218.71L101.014 233.83L103.54 232.17ZM91.075 217.054C89.9934 218.713 88.2642 221.379 85.888 225.051L88.4256 226.693C90.8015 223.021 92.5283 220.359 93.6067 218.706L91.075 217.054ZM85.888 225.051C83.5106 228.725 81.9686 231.092 81.2554 232.162L83.7703 233.838C84.4971 232.748 86.0511 230.363 88.4256 226.693L85.888 225.051ZM82.5128 231.489H64.4768V234.511H82.5128V231.489ZM146.207 253.52V255.031H147.718V253.52H146.207ZM129.791 253.52H128.279V255.031H129.791V253.52ZM129.791 179.324V177.813H128.279V179.324H129.791ZM145.667 179.324H147.178V177.813H145.667V179.324ZM145.667 184.832H144.155V189.905L146.932 185.659L145.667 184.832ZM151.715 180.08L152.348 181.452L152.356 181.449L152.363 181.445L151.715 180.08ZM179.579 185.912L178.427 186.89L178.434 186.899L178.441 186.907L179.579 185.912ZM179.147 226.304L178.026 225.29L178.026 225.29L179.147 226.304ZM146.207 228.788L147.375 227.83L144.695 224.562V228.788H146.207ZM166.727 216.044L165.658 214.975L166.727 216.044ZM166.727 196.28L165.658 197.349L165.666 197.357L165.675 197.365L166.727 196.28ZM149.447 196.28L148.395 195.195L148.386 195.203L148.378 195.211L149.447 196.28ZM149.447 216.044L148.362 217.096L148.378 217.113L148.395 217.129L149.447 216.044ZM146.207 252.009H129.791V255.031H146.207V252.009ZM131.302 253.52V179.324H128.279V253.52H131.302ZM129.791 180.835H145.667V177.813H129.791V180.835ZM144.155 179.324V184.832H147.178V179.324H144.155ZM146.932 185.659C147.952 184.099 149.703 182.673 152.348 181.452L151.081 178.708C148.111 180.079 145.83 181.821 144.402 184.005L146.932 185.659ZM152.363 181.445C155.016 180.185 158.03 179.539 161.435 179.539V176.517C157.639 176.517 154.174 177.239 151.066 178.715L152.363 181.445ZM161.435 179.539C168.676 179.539 174.283 182.011 178.427 186.89L180.731 184.934C175.947 179.301 169.457 176.517 161.435 176.517V179.539ZM178.441 186.907C182.692 191.765 184.871 198.084 184.871 206H187.894C187.894 197.5 185.538 190.427 180.716 184.917L178.441 186.907ZM184.871 206C184.871 213.89 182.563 220.279 178.026 225.29L180.267 227.318C185.378 221.673 187.894 214.526 187.894 206H184.871ZM178.026 225.29C173.578 230.21 167.875 232.677 160.787 232.677V235.699C168.675 235.699 175.211 232.91 180.268 227.318L178.026 225.29ZM160.787 232.677C154.259 232.677 149.928 230.943 147.375 227.83L145.038 229.746C148.389 233.833 153.778 235.699 160.787 235.699V232.677ZM144.695 228.788V253.52H147.718V228.788H144.695ZM167.795 217.113C170.525 214.383 171.802 210.645 171.802 206.108H168.779C168.779 210.067 167.681 212.953 165.658 214.975L167.795 217.113ZM171.802 206.108C171.802 201.573 170.526 197.859 167.779 195.195L165.675 197.365C167.68 199.309 168.779 202.147 168.779 206.108H171.802ZM167.795 195.211C165.189 192.605 161.917 191.313 158.087 191.313V194.335C161.169 194.335 163.656 195.347 165.658 197.349L167.795 195.211ZM158.087 191.313C154.32 191.313 151.06 192.611 148.395 195.195L150.499 197.365C152.586 195.341 155.086 194.335 158.087 194.335V191.313ZM148.378 195.211C145.712 197.877 144.479 201.586 144.479 206.108H147.502C147.502 202.134 148.573 199.291 150.515 197.349L148.378 195.211ZM144.479 206.108C144.479 210.633 145.713 214.365 148.362 217.096L150.532 214.992C148.572 212.971 147.502 210.079 147.502 206.108H144.479ZM148.395 217.129C151.06 219.713 154.32 221.011 158.087 221.011V217.989C155.086 217.989 152.586 216.983 150.499 214.959L148.395 217.129ZM158.087 221.011C161.917 221.011 165.189 219.719 167.795 217.113L165.658 214.975C163.656 216.977 161.169 217.989 158.087 217.989V221.011ZM209.394 199.736L207.89 199.595L207.735 201.247H209.394V199.736ZM230.886 199.736V201.247H232.489L232.395 199.647L230.886 199.736ZM227.97 193.364L226.88 194.411L226.891 194.422L226.902 194.433L227.97 193.364ZM212.526 193.472L211.458 192.403L212.526 193.472ZM232.074 213.668L232.486 212.214L231.122 211.827L230.65 213.164L232.074 213.668ZM245.79 217.556L247.247 217.957L247.646 216.511L246.202 216.102L245.79 217.556ZM237.258 229.868L238.152 231.087L238.159 231.082L238.165 231.077L237.258 229.868ZM201.186 226.844L200.14 227.934L200.147 227.941L201.186 226.844ZM200.97 185.588L199.909 184.512L199.902 184.519L200.97 185.588ZM239.526 185.048L238.442 186.101L238.45 186.109L238.458 186.117L239.526 185.048ZM246.438 210.32V211.831H247.528L247.872 210.798L246.438 210.32ZM209.07 210.32V208.809H207.484L207.561 210.394L209.07 210.32ZM212.85 217.772L211.873 218.924L211.883 218.933L211.893 218.942L212.85 217.772ZM209.394 201.247H230.886V198.225H209.394V201.247ZM232.395 199.647C232.228 196.815 231.09 194.346 229.039 192.295L226.902 194.433C228.451 195.982 229.256 197.761 229.378 199.825L232.395 199.647ZM229.06 192.317C226.946 190.115 223.852 189.153 220.086 189.153V192.175C223.376 192.175 225.538 193.013 226.88 194.411L229.06 192.317ZM220.086 189.153C216.602 189.153 213.668 190.193 211.458 192.403L213.595 194.541C215.129 193.007 217.235 192.175 220.086 192.175V189.153ZM211.458 192.403C209.375 194.486 208.143 196.891 207.89 199.595L210.899 199.877C211.077 197.973 211.934 196.202 213.595 194.541L211.458 192.403ZM231.662 215.122L245.378 219.01L246.202 216.102L232.486 212.214L231.662 215.122ZM244.333 217.155C243.059 221.784 240.417 225.61 236.352 228.659L238.165 231.077C242.739 227.646 245.786 223.264 247.247 217.957L244.333 217.155ZM236.365 228.649C232.354 231.59 227.286 233.109 221.058 233.109V236.131C227.791 236.131 233.522 234.482 238.152 231.087L236.365 228.649ZM221.058 233.109C213.655 233.109 207.407 230.656 202.226 225.747L200.147 227.941C205.909 233.4 212.909 236.131 221.058 236.131V233.109ZM202.233 225.754C197.179 220.902 194.598 214.374 194.598 206H191.575C191.575 215.05 194.394 222.418 200.14 227.934L202.233 225.754ZM194.598 206C194.598 197.995 197.102 191.593 202.039 186.657L199.902 184.519C194.326 190.095 191.575 197.301 191.575 206H194.598ZM202.032 186.664C207.086 181.678 213.008 179.215 219.87 179.215V176.193C212.188 176.193 205.511 178.986 199.909 184.512L202.032 186.664ZM219.87 179.215C227.912 179.215 234.036 181.561 238.442 186.101L240.611 183.995C235.512 178.743 228.533 176.193 219.87 176.193V179.215ZM238.458 186.117C242.928 190.587 245.251 196.892 245.251 205.244H248.274C248.274 196.316 245.773 189.157 240.595 183.979L238.458 186.117ZM245.251 205.244C245.251 206.597 245.224 207.668 245.173 208.469C245.119 209.32 245.044 209.725 245.005 209.842L247.872 210.798C248.049 210.267 248.136 209.502 248.189 208.661C248.246 207.77 248.274 206.627 248.274 205.244H245.251ZM246.438 208.809H209.07V211.831H246.438V208.809ZM207.561 210.394C207.726 213.788 209.197 216.654 211.873 218.924L213.828 216.62C211.751 214.858 210.702 212.756 210.58 210.246L207.561 210.394ZM211.893 218.942C214.555 221.119 217.706 222.199 221.274 222.199V219.177C218.362 219.177 215.898 218.313 213.807 216.602L211.893 218.942ZM221.274 222.199C224.255 222.199 226.849 221.57 228.956 220.2C231.077 218.821 232.578 216.775 233.499 214.172L230.65 213.164C229.914 215.241 228.788 216.705 227.309 217.666C225.816 218.636 223.838 219.177 221.274 219.177V222.199ZM291.43 179.324H292.942V178.193L291.857 177.874L291.43 179.324ZM291.43 195.524L291.08 196.994L292.942 197.437V195.524H291.43ZM277.174 198.548L276.106 197.479L276.098 197.488L276.089 197.496L277.174 198.548ZM273.718 233V234.511H275.23V233H273.718ZM257.302 233H255.791V234.511H257.302V233ZM257.302 179.324V177.813H255.791V179.324H257.302ZM273.178 179.324H274.69V177.813H273.178V179.324ZM273.178 186.56H271.667L274.544 187.207L273.178 186.56ZM279.118 180.62L279.749 181.993V181.993L279.118 180.62ZM289.919 179.324V195.524H292.942V179.324H289.919ZM291.78 194.054C290.129 193.661 288.28 193.473 286.246 193.473V196.495C288.101 196.495 289.707 196.667 291.08 196.994L291.78 194.054ZM286.246 193.473C282.215 193.473 278.793 194.792 276.106 197.479L278.243 199.617C280.308 197.552 282.934 196.495 286.246 196.495V193.473ZM276.089 197.496C273.402 200.268 272.207 204.397 272.207 209.564H275.23C275.23 204.795 276.339 201.58 278.259 199.6L276.089 197.496ZM272.207 209.564V233H275.23V209.564H272.207ZM273.718 231.489H257.302V234.511H273.718V231.489ZM258.814 233V179.324H255.791V233H258.814ZM257.302 180.835H273.178V177.813H257.302V180.835ZM271.667 179.324V186.56H274.69V179.324H271.667ZM274.544 187.207C275.694 184.78 277.419 183.064 279.749 181.993L278.487 179.247C275.49 180.624 273.255 182.868 271.813 185.913L274.544 187.207ZM279.749 181.993C282.236 180.851 284.685 180.295 287.11 180.295V177.273C284.208 177.273 281.329 177.941 278.487 179.247L279.749 181.993ZM287.11 180.295C288.663 180.295 289.953 180.465 291.004 180.774L291.857 177.874C290.46 177.463 288.87 177.273 287.11 177.273V180.295ZM317.804 233V234.511H319.316V233H317.804ZM301.388 233H299.877V234.511H301.388V233ZM301.388 179.324V177.813H299.877V179.324H301.388ZM317.804 179.324H319.316V177.813H317.804V179.324ZM302.792 169.712L303.861 168.643L302.792 169.712ZM302.792 156.104L303.861 157.173V157.173L302.792 156.104ZM316.292 156.104L315.224 157.173L315.234 157.183L315.244 157.193L316.292 156.104ZM316.292 169.712L315.244 168.623L315.234 168.633L315.224 168.643L316.292 169.712ZM317.804 231.489H301.388V234.511H317.804V231.489ZM302.9 233V179.324H299.877V233H302.9ZM301.388 180.835H317.804V177.813H301.388V180.835ZM316.293 179.324V233H319.316V179.324H316.293ZM303.861 168.643C302.274 167.057 301.496 165.174 301.496 162.908H298.473C298.473 165.97 299.566 168.623 301.724 170.781L303.861 168.643ZM301.496 162.908C301.496 160.642 302.274 158.759 303.861 157.173L301.724 155.035C299.566 157.193 298.473 159.846 298.473 162.908H301.496ZM303.861 157.173C305.456 155.577 307.307 154.807 309.488 154.807V151.785C306.486 151.785 303.872 152.887 301.724 155.035L303.861 157.173ZM309.488 154.807C311.754 154.807 313.637 155.586 315.224 157.173L317.361 155.035C315.204 152.878 312.55 151.785 309.488 151.785V154.807ZM315.244 157.193C316.897 158.784 317.697 160.661 317.697 162.908H320.72C320.72 159.827 319.576 157.168 317.341 155.015L315.244 157.193ZM317.697 162.908C317.697 165.155 316.897 167.032 315.244 168.623L317.341 170.801C319.576 168.648 320.72 165.989 320.72 162.908H317.697ZM315.224 168.643C313.637 170.23 311.754 171.009 309.488 171.009V174.031C312.55 174.031 315.204 172.938 317.361 170.781L315.224 168.643ZM309.488 171.009C307.307 171.009 305.456 170.239 303.861 168.643L301.724 170.781C303.872 172.929 306.486 174.031 309.488 174.031V171.009ZM344.605 199.736L343.101 199.595L342.946 201.247H344.605V199.736ZM366.097 199.736V201.247H367.7L367.606 199.647L366.097 199.736ZM363.181 193.364L362.091 194.411L362.102 194.422L362.113 194.433L363.181 193.364ZM347.737 193.472L346.669 192.403L347.737 193.472ZM367.285 213.668L367.697 212.214L366.333 211.827L365.861 213.164L367.285 213.668ZM381.001 217.556L382.458 217.957L382.856 216.511L381.413 216.102L381.001 217.556ZM372.469 229.868L373.363 231.087L373.369 231.082L373.376 231.077L372.469 229.868ZM336.397 226.844L335.351 227.934L335.358 227.941L336.397 226.844ZM336.181 185.588L335.12 184.512L335.113 184.519L336.181 185.588ZM374.737 185.048L373.653 186.101L373.661 186.109L373.669 186.117L374.737 185.048ZM381.649 210.32V211.831H382.738L383.083 210.798L381.649 210.32ZM344.281 210.32V208.809H342.694L342.772 210.394L344.281 210.32ZM348.061 217.772L347.083 218.924L347.094 218.933L347.104 218.942L348.061 217.772ZM344.605 201.247H366.097V198.225H344.605V201.247ZM367.606 199.647C367.439 196.815 366.301 194.346 364.25 192.295L362.113 194.433C363.662 195.982 364.467 197.761 364.589 199.825L367.606 199.647ZM364.271 192.317C362.157 190.115 359.063 189.153 355.297 189.153V192.175C358.587 192.175 360.749 193.013 362.091 194.411L364.271 192.317ZM355.297 189.153C351.813 189.153 348.879 190.193 346.669 192.403L348.806 194.541C350.34 193.007 352.446 192.175 355.297 192.175V189.153ZM346.669 192.403C344.586 194.486 343.354 196.891 343.101 199.595L346.11 199.877C346.288 197.973 347.145 196.202 348.806 194.541L346.669 192.403ZM366.873 215.122L380.589 219.01L381.413 216.102L367.697 212.214L366.873 215.122ZM379.544 217.155C378.27 221.784 375.628 225.61 371.562 228.659L373.376 231.077C377.95 227.646 380.997 223.264 382.458 217.957L379.544 217.155ZM371.576 228.649C367.565 231.59 362.497 233.109 356.269 233.109V236.131C363.002 236.131 368.733 234.482 373.363 231.087L371.576 228.649ZM356.269 233.109C348.866 233.109 342.618 230.656 337.437 225.747L335.358 227.941C341.12 233.4 348.12 236.131 356.269 236.131V233.109ZM337.444 225.754C332.39 220.902 329.808 214.374 329.808 206H326.786C326.786 215.05 329.605 222.418 335.351 227.934L337.444 225.754ZM329.808 206C329.808 197.995 332.313 191.593 337.25 186.657L335.113 184.519C329.537 190.095 326.786 197.301 326.786 206H329.808ZM337.243 186.664C342.297 181.678 348.219 179.215 355.081 179.215V176.193C347.399 176.193 340.721 178.986 335.12 184.512L337.243 186.664ZM355.081 179.215C363.122 179.215 369.247 181.561 373.653 186.101L375.822 183.995C370.723 178.743 363.744 176.193 355.081 176.193V179.215ZM373.669 186.117C378.139 190.587 380.462 196.892 380.462 205.244H383.484C383.484 196.316 380.984 189.157 375.806 183.979L373.669 186.117ZM380.462 205.244C380.462 206.597 380.435 207.668 380.384 208.469C380.33 209.32 380.254 209.725 380.216 209.842L383.083 210.798C383.26 210.267 383.347 209.502 383.4 208.661C383.457 207.77 383.484 206.627 383.484 205.244H380.462ZM381.649 208.809H344.281V211.831H381.649V208.809ZM342.772 210.394C342.937 213.788 344.408 216.654 347.083 218.924L349.039 216.62C346.962 214.858 345.913 212.756 345.791 210.246L342.772 210.394ZM347.104 218.942C349.766 221.119 352.917 222.199 356.485 222.199V219.177C353.573 219.177 351.108 218.313 349.018 216.602L347.104 218.942ZM356.485 222.199C359.465 222.199 362.06 221.57 364.167 220.2C366.288 218.821 367.789 216.775 368.71 214.172L365.861 213.164C365.125 215.241 363.999 216.705 362.52 217.666C361.027 218.636 359.049 219.177 356.485 219.177V222.199ZM408.929 233V234.511H410.441V233H408.929ZM392.513 233H391.002V234.511H392.513V233ZM392.513 179.324V177.813H391.002V179.324H392.513ZM408.389 179.324H409.901V177.813H408.389V179.324ZM408.389 185.48H406.878V191.134L409.699 186.234L408.389 185.48ZM414.653 179.972L415.287 181.344L415.294 181.341L415.302 181.337L414.653 179.972ZM437.981 183.968L436.814 184.927L436.822 184.938L437.981 183.968ZM442.949 233V234.511H444.461V233H442.949ZM426.533 233H425.022V234.511H426.533V233ZM424.265 195.416L423.104 196.383L423.126 196.41L423.149 196.435L424.265 195.416ZM411.305 195.524L410.193 194.501L410.191 194.503L411.305 195.524ZM407.418 202.22V233H410.441V202.22H407.418ZM408.929 231.489H392.513V234.511H408.929V231.489ZM394.025 233V179.324H391.002V233H394.025ZM392.513 180.835H408.389V177.813H392.513V180.835ZM406.878 179.324V185.48H409.901V179.324H406.878ZM409.699 186.234C410.891 184.163 412.725 182.527 415.287 181.344L414.02 178.6C410.966 180.009 408.623 182.045 407.08 184.726L409.699 186.234ZM415.302 181.337C417.996 180.057 420.691 179.431 423.401 179.431V176.409C420.207 176.409 417.071 177.151 414.005 178.607L415.302 181.337ZM423.401 179.431C429.47 179.431 433.854 181.324 436.814 184.927L439.149 183.009C435.485 178.548 430.148 176.409 423.401 176.409V179.431ZM436.822 184.938C439.861 188.571 441.438 193.316 441.438 199.304H444.461C444.461 192.764 442.726 187.285 439.141 182.998L436.822 184.938ZM441.438 199.304V233H444.461V199.304H441.438ZM442.949 231.489H426.533V234.511H442.949V231.489ZM428.045 233V202.112H425.022V233H428.045ZM428.045 202.112C428.045 199.026 427.207 196.397 425.381 194.397L423.149 196.435C424.347 197.747 425.022 199.582 425.022 202.112H428.045ZM425.426 194.449C423.622 192.284 420.978 191.313 417.785 191.313V194.335C420.353 194.335 422.028 195.092 423.104 196.383L425.426 194.449ZM417.785 191.313C414.741 191.313 412.163 192.36 410.193 194.501L412.418 196.547C413.76 195.088 415.502 194.335 417.785 194.335V191.313ZM410.191 194.503C408.31 196.555 407.418 199.173 407.418 202.22H410.441C410.441 199.795 411.133 197.949 412.419 196.545L410.191 194.503ZM472.62 196.388L471.551 195.319L471.543 195.328L471.535 195.336L472.62 196.388ZM472.728 215.936L471.659 217.005L471.667 217.013L471.675 217.02L472.728 215.936ZM488.928 217.232L489.877 218.408L489.882 218.404L488.928 217.232ZM492.816 211.508L493.258 210.063L491.792 209.614L491.365 211.087L492.816 211.508ZM507.288 215.936L508.753 216.307L509.106 214.912L507.73 214.491L507.288 215.936ZM498.54 229.112L497.589 227.937L497.58 227.945L498.54 229.112ZM461.172 226.628L460.117 227.711L460.124 227.718L460.132 227.724L461.172 226.628ZM460.956 185.804L462.017 186.88L462.017 186.88L460.956 185.804ZM498.324 183.104L497.375 184.28L498.324 183.104ZM506.964 196.388L507.4 197.835L508.775 197.42L508.431 196.026L506.964 196.388ZM492.276 200.816L490.821 201.225L491.238 202.707L492.712 202.263L492.276 200.816ZM481.476 191.313C477.569 191.313 474.226 192.645 471.551 195.319L473.688 197.457C475.766 195.379 478.326 194.335 481.476 194.335V191.313ZM471.535 195.336C468.891 198.063 467.653 201.755 467.653 206.216H470.675C470.675 202.325 471.741 199.465 473.705 197.44L471.535 195.336ZM467.653 206.216C467.653 210.626 468.939 214.285 471.659 217.005L473.796 214.867C471.764 212.835 470.675 210.014 470.675 206.216H467.653ZM471.675 217.02C474.416 219.68 477.786 221.011 481.692 221.011V217.989C478.542 217.989 475.936 216.944 473.78 214.852L471.675 217.02ZM481.692 221.011C484.909 221.011 487.68 220.183 489.877 218.408L487.978 216.056C486.432 217.305 484.379 217.989 481.692 217.989V221.011ZM489.882 218.404C492.045 216.642 493.527 214.48 494.267 211.929L491.365 211.087C490.809 213 489.699 214.654 487.973 216.06L489.882 218.404ZM492.374 212.953L506.846 217.381L507.73 214.491L493.258 210.063L492.374 212.953ZM505.823 215.565C504.616 220.327 501.9 224.448 497.589 227.937L499.491 230.287C504.252 226.432 507.368 221.769 508.753 216.307L505.823 215.565ZM497.58 227.945C493.431 231.358 488.172 233.109 481.692 233.109V236.131C488.747 236.131 494.721 234.21 499.5 230.279L497.58 227.945ZM481.692 233.109C473.997 233.109 467.534 230.581 462.212 225.532L460.132 227.724C466.041 233.331 473.259 236.131 481.692 236.131V233.109ZM462.226 225.545C456.993 220.449 454.367 214.044 454.367 206.216H451.345C451.345 214.804 454.262 222.007 460.117 227.711L462.226 225.545ZM454.367 206.216C454.367 198.3 456.933 191.896 462.017 186.88L459.894 184.728C454.179 190.368 451.345 197.572 451.345 206.216H454.367ZM462.017 186.88C467.194 181.771 473.54 179.215 481.152 179.215V176.193C472.78 176.193 465.661 179.037 459.894 184.728L462.017 186.88ZM481.152 179.215C487.868 179.215 493.235 180.941 497.375 184.28L499.272 181.928C494.485 178.067 488.403 176.193 481.152 176.193V179.215ZM497.375 184.28C501.598 187.686 504.285 191.835 505.497 196.75L508.431 196.026C507.051 190.429 503.977 185.722 499.272 181.928L497.375 184.28ZM506.528 194.941L491.84 199.369L492.712 202.263L507.4 197.835L506.528 194.941ZM493.731 200.407C493.002 197.816 491.613 195.646 489.576 193.935L487.632 196.249C489.195 197.562 490.254 199.208 490.821 201.225L493.731 200.407ZM489.576 193.935C487.44 192.14 484.69 191.313 481.476 191.313V194.335C484.166 194.335 486.168 195.02 487.632 196.249L489.576 193.935ZM529.176 199.736L527.671 199.595L527.516 201.247H529.176V199.736ZM550.668 199.736V201.247H552.27L552.176 199.647L550.668 199.736ZM547.752 193.364L546.661 194.411L546.672 194.422L546.683 194.433L547.752 193.364ZM532.308 193.472L531.239 192.403L532.308 193.472ZM551.856 213.668L552.268 212.214L550.904 211.827L550.431 213.164L551.856 213.668ZM565.572 217.556L567.029 217.957L567.427 216.511L565.984 216.102L565.572 217.556ZM557.04 229.868L557.933 231.087L557.94 231.082L557.946 231.077L557.04 229.868ZM520.968 226.844L519.921 227.934L519.928 227.941L520.968 226.844ZM520.752 185.588L519.69 184.512L519.683 184.519L520.752 185.588ZM559.308 185.048L558.223 186.101L558.231 186.109L558.239 186.117L559.308 185.048ZM566.22 210.32V211.831H567.309L567.653 210.798L566.22 210.32ZM528.852 210.32V208.809H527.265L527.342 210.394L528.852 210.32ZM532.632 217.772L531.654 218.924L531.664 218.933L531.675 218.942L532.632 217.772ZM529.176 201.247H550.668V198.225H529.176V201.247ZM552.176 199.647C552.01 196.815 550.871 194.346 548.82 192.295L546.683 194.433C548.232 195.982 549.038 197.761 549.159 199.825L552.176 199.647ZM548.842 192.317C546.728 190.115 543.634 189.153 539.868 189.153V192.175C543.157 192.175 545.319 193.013 546.661 194.411L548.842 192.317ZM539.868 189.153C536.383 189.153 533.449 190.193 531.239 192.403L533.376 194.541C534.91 193.007 537.016 192.175 539.868 192.175V189.153ZM531.239 192.403C529.156 194.486 527.924 196.891 527.671 199.595L530.68 199.877C530.859 197.973 531.715 196.202 533.376 194.541L531.239 192.403ZM551.443 215.122L565.159 219.01L565.984 216.102L552.268 212.214L551.443 215.122ZM564.115 217.155C562.84 221.784 560.199 225.61 556.133 228.659L557.946 231.077C562.52 227.646 565.567 223.264 567.029 217.957L564.115 217.155ZM556.146 228.649C552.136 231.59 547.067 233.109 540.84 233.109V236.131C547.572 236.131 553.303 234.482 557.933 231.087L556.146 228.649ZM540.84 233.109C533.437 233.109 527.188 230.656 522.007 225.747L519.928 227.941C525.691 233.4 532.69 236.131 540.84 236.131V233.109ZM522.014 225.754C516.96 220.902 514.379 214.374 514.379 206H511.356C511.356 215.05 514.175 222.418 519.921 227.934L522.014 225.754ZM514.379 206C514.379 197.995 516.884 191.593 521.82 186.657L519.683 184.519C514.107 190.095 511.356 197.301 511.356 206H514.379ZM521.813 186.664C526.867 181.678 532.79 179.215 539.652 179.215V176.193C531.97 176.193 525.292 178.986 519.69 184.512L521.813 186.664ZM539.652 179.215C547.693 179.215 553.817 181.561 558.223 186.101L560.392 183.995C555.294 178.743 548.314 176.193 539.652 176.193V179.215ZM558.239 186.117C562.709 190.587 565.032 196.892 565.032 205.244H568.055C568.055 196.316 565.554 189.157 560.376 183.979L558.239 186.117ZM565.032 205.244C565.032 206.597 565.005 207.668 564.954 208.469C564.9 209.32 564.825 209.725 564.786 209.842L567.653 210.798C567.83 210.267 567.917 209.502 567.971 208.661C568.028 207.77 568.055 206.627 568.055 205.244H565.032ZM566.22 208.809H528.852V211.831H566.22V208.809ZM527.342 210.394C527.508 213.788 528.978 216.654 531.654 218.924L533.609 216.62C531.533 214.858 530.483 212.756 530.361 210.246L527.342 210.394ZM531.675 218.942C534.336 221.119 537.488 222.199 541.056 222.199V219.177C538.144 219.177 535.679 218.313 533.589 216.602L531.675 218.942ZM541.056 222.199C544.036 222.199 546.63 221.57 548.737 220.2C550.858 218.821 552.359 216.775 553.28 214.172L550.431 213.164C549.696 215.241 548.569 216.705 547.09 217.666C545.597 218.636 543.619 219.177 541.056 219.177V222.199ZM572.656 217.772L572.39 216.284L571.03 216.527L571.15 217.903L572.656 217.772ZM586.588 215.288L588.095 215.18L587.975 213.505L586.322 213.8L586.588 215.288ZM588.856 220.472L587.76 221.513L587.787 221.541L587.815 221.568L588.856 220.472ZM599.656 221.228L600.6 222.408L600.623 222.39L600.645 222.37L599.656 221.228ZM595.984 213.452L595.648 214.925L595.653 214.927L595.984 213.452ZM589.828 212.048L590.164 210.575L590.151 210.572L590.139 210.569L589.828 212.048ZM577.732 206L576.596 206.997L576.602 207.004L576.608 207.011L577.732 206ZM579.676 182.888L578.682 181.749L578.672 181.758L579.676 182.888ZM610.132 182.78L609.074 183.86L609.086 183.871L609.097 183.882L610.132 182.78ZM615.964 193.688L616.235 195.175L617.594 194.927L617.469 193.551L615.964 193.688ZM602.356 196.172L600.854 196.339L601.033 197.95L602.627 197.659L602.356 196.172ZM600.088 191.42L599.019 192.489L599.034 192.504L599.05 192.519L600.088 191.42ZM590.584 190.88L589.677 189.671V189.671L590.584 190.88ZM593.068 198.224L593.36 196.741L593.347 196.739L593.335 196.737L593.068 198.224ZM600.196 199.628L600.492 198.146L600.488 198.145L600.196 199.628ZM611.104 229.328L612.14 230.428L612.146 230.423L612.151 230.417L611.104 229.328ZM584.752 232.892L584.214 234.304L584.225 234.308L584.752 232.892ZM577.732 228.464L576.578 229.44L576.598 229.464L576.62 229.487L577.732 228.464ZM574.06 222.956L572.676 223.565L572.686 223.587L572.697 223.61L574.06 222.956ZM572.921 219.26L586.853 216.776L586.322 213.8L572.39 216.284L572.921 219.26ZM585.08 215.396C585.249 217.754 586.146 219.814 587.76 221.513L589.951 219.431C588.829 218.25 588.215 216.854 588.095 215.18L585.08 215.396ZM587.815 221.568C589.62 223.283 592.096 224.035 595.012 224.035V221.013C592.6 221.013 590.971 220.397 589.897 219.376L587.815 221.568ZM595.012 224.035C597.219 224.035 599.153 223.565 600.6 222.408L598.712 220.048C597.998 220.619 596.837 221.013 595.012 221.013V224.035ZM600.645 222.37C602.018 221.18 602.787 219.662 602.787 217.88H599.764C599.764 218.69 599.453 219.404 598.666 220.086L600.645 222.37ZM602.787 217.88C602.787 216.32 602.122 214.998 600.922 213.994C599.78 213.038 598.193 212.399 596.315 211.977L595.653 214.927C597.303 215.297 598.362 215.792 598.983 216.312C599.547 216.784 599.764 217.28 599.764 217.88H602.787ZM596.32 211.979L590.164 210.575L589.492 213.521L595.648 214.925L596.32 211.979ZM590.139 210.569C584.847 209.455 581.157 207.546 578.855 204.989L576.608 207.011C579.491 210.214 583.865 212.337 589.516 213.527L590.139 210.569ZM578.867 205.003C576.524 202.335 575.355 199.2 575.355 195.524H572.332C572.332 199.912 573.755 203.761 576.596 206.997L578.867 205.003ZM575.355 195.524C575.355 191.01 577.097 187.202 580.68 184.018L578.672 181.758C574.478 185.486 572.332 190.102 572.332 195.524H575.355ZM580.669 184.027C584.32 180.841 588.885 179.215 594.472 179.215V176.193C588.25 176.193 582.952 178.023 578.682 181.749L580.669 184.027ZM594.472 179.215C601.236 179.215 606.005 180.855 609.074 183.86L611.189 181.7C607.346 177.937 601.675 176.193 594.472 176.193V179.215ZM609.097 183.882C612.417 186.998 614.139 190.309 614.459 193.825L617.469 193.551C617.068 189.147 614.902 185.186 611.166 181.678L609.097 183.882ZM615.692 192.201L602.084 194.685L602.627 197.659L616.235 195.175L615.692 192.201ZM603.858 196.005C603.606 193.742 602.708 191.816 601.125 190.321L599.05 192.519C600.06 193.472 600.673 194.714 600.854 196.339L603.858 196.005ZM601.156 190.351C599.557 188.752 597.312 188.073 594.688 188.073V191.095C596.816 191.095 598.171 191.64 599.019 192.489L601.156 190.351ZM594.688 188.073C592.811 188.073 591.117 188.591 589.677 189.671L591.49 192.089C592.354 191.441 593.396 191.095 594.688 191.095V188.073ZM589.677 189.671C588.168 190.803 587.344 192.356 587.344 194.228H590.367C590.367 193.364 590.696 192.685 591.49 192.089L589.677 189.671ZM587.344 194.228C587.344 195.669 587.829 196.957 588.869 197.943C589.864 198.887 591.236 199.431 592.801 199.711L593.335 196.737C592.091 196.513 591.358 196.139 590.949 195.751C590.584 195.405 590.367 194.947 590.367 194.228H587.344ZM592.776 199.707L599.904 201.111L600.488 198.145L593.36 196.741L592.776 199.707ZM599.899 201.11C605.091 202.148 608.87 204.088 611.4 206.812L613.615 204.756C610.529 201.432 606.1 199.268 600.492 198.146L599.899 201.11ZM611.4 206.812C613.95 209.559 615.208 212.756 615.208 216.476H618.231C618.231 211.988 616.681 208.057 613.615 204.756L611.4 206.812ZM615.208 216.476C615.208 221.012 613.519 224.909 610.056 228.239L612.151 230.417C616.176 226.547 618.231 221.876 618.231 216.476H615.208ZM610.067 228.228C606.683 231.417 601.843 233.109 595.336 233.109V236.131C602.364 236.131 608.036 234.295 612.14 230.428L610.067 228.228ZM595.336 233.109C591.521 233.109 588.176 232.554 585.279 231.476L584.225 234.308C587.519 235.534 591.231 236.131 595.336 236.131V233.109ZM585.29 231.48C582.417 230.385 580.298 229.022 578.844 227.441L576.62 229.487C578.477 231.506 581.039 233.095 584.214 234.304L585.29 231.48ZM578.885 227.488C577.366 225.693 576.22 223.963 575.422 222.302L572.697 223.61C573.628 225.549 574.929 227.491 576.578 229.44L578.885 227.488ZM575.443 222.347C574.706 220.672 574.289 219.105 574.161 217.641L571.15 217.903C571.311 219.751 571.83 221.64 572.676 223.565L575.443 222.347Z" fill="#11133A"/>
<path d="M56.916 157V158.511H58.4272V157H56.916ZM8.316 157H6.80476V158.511H8.316V157ZM8.316 80.428V78.9167H6.80476V80.428H8.316ZM56.808 80.428H58.3192V78.9167H56.808V80.428ZM56.808 96.52V98.0312H58.3192V96.52H56.808ZM25.38 96.52V95.0088H23.8688V96.52H25.38ZM25.38 111.1H23.8688V112.611H25.38V111.1ZM53.892 111.1H55.4032V109.589H53.892V111.1ZM53.892 126.112V127.623H55.4032V126.112H53.892ZM25.38 126.112V124.601H23.8688V126.112H25.38ZM25.38 140.8H23.8688V142.311H25.38V140.8ZM56.916 140.8H58.4272V139.289H56.916V140.8ZM56.916 155.489H8.316V158.511H56.916V155.489ZM9.82724 157V80.428H6.80476V157H9.82724ZM8.316 81.9392H56.808V78.9167H8.316V81.9392ZM55.2968 80.428V96.52H58.3192V80.428H55.2968ZM56.808 95.0088H25.38V98.0312H56.808V95.0088ZM23.8688 96.52V111.1H26.8912V96.52H23.8688ZM25.38 112.611H53.892V109.589H25.38V112.611ZM52.3808 111.1V126.112H55.4032V111.1H52.3808ZM53.892 124.601H25.38V127.623H53.892V124.601ZM23.8688 126.112V140.8H26.8912V126.112H23.8688ZM25.38 142.311H56.916V139.289H25.38V142.311ZM55.4048 140.8V157H58.4272V140.8H55.4048ZM64.4768 157L63.2327 156.142L61.5991 158.511H64.4768V157ZM82.9448 130.216L84.189 131.074L84.7845 130.21L84.1836 129.35L82.9448 130.216ZM64.1528 103.324V101.813H61.2531L62.9141 104.19L64.1528 103.324ZM83.4848 103.324L84.7494 102.496L84.3019 101.813H83.4848V103.324ZM93.0968 118.012L91.8323 118.84L93.1113 120.794L94.3699 118.826L93.0968 118.012ZM102.493 103.324V101.813H101.666L101.22 102.51L102.493 103.324ZM120.853 103.324L122.086 104.197L123.774 101.813H120.853V103.324ZM102.277 129.568L101.043 128.695L100.428 129.564L101.04 130.436L102.277 129.568ZM121.501 157V158.511H124.374L122.746 156.144L121.501 157ZM102.277 157L101.014 157.83L101.462 158.511H102.277V157ZM92.3408 141.88L93.6038 141.05L92.336 139.121L91.075 141.054L92.3408 141.88ZM87.1568 149.872L88.4256 150.693L87.1568 149.872ZM82.5128 157V158.511H83.3216L83.7703 157.838L82.5128 157ZM65.721 157.858L84.189 131.074L81.7007 129.358L63.2327 156.142L65.721 157.858ZM84.1836 129.35L65.3916 102.458L62.9141 104.19L81.7061 131.082L84.1836 129.35ZM64.1528 104.835H83.4848V101.813H64.1528V104.835ZM82.2203 104.152L91.8323 118.84L94.3614 117.184L84.7494 102.496L82.2203 104.152ZM94.3699 118.826L103.766 104.138L101.22 102.51L91.8238 117.198L94.3699 118.826ZM102.493 104.835H120.853V101.813H102.493V104.835ZM119.619 102.451L101.043 128.695L103.51 130.441L122.086 104.197L119.619 102.451ZM101.04 130.436C113.068 147.578 119.469 156.712 120.256 157.856L122.746 156.144C121.949 154.984 115.534 145.83 103.514 128.7L101.04 130.436ZM121.501 155.489H102.277V158.511H121.501V155.489ZM103.54 156.17L93.6038 141.05L91.0779 142.71L101.014 157.83L103.54 156.17ZM91.075 141.054C89.9934 142.713 88.2642 145.379 85.888 149.051L88.4256 150.693C90.8015 147.021 92.5283 144.359 93.6067 142.706L91.075 141.054ZM85.888 149.051C83.5106 152.725 81.9686 155.092 81.2554 156.162L83.7703 157.838C84.4971 156.748 86.0511 154.363 88.4256 150.693L85.888 149.051ZM82.5128 155.489H64.4768V158.511H82.5128V155.489ZM146.207 177.52V179.031H147.718V177.52H146.207ZM129.791 177.52H128.279V179.031H129.791V177.52ZM129.791 103.324V101.813H128.279V103.324H129.791ZM145.667 103.324H147.178V101.813H145.667V103.324ZM145.667 108.832H144.155V113.905L146.932 109.659L145.667 108.832ZM151.715 104.08L152.348 105.452L152.356 105.449L152.363 105.445L151.715 104.08ZM179.579 109.912L178.427 110.89L178.434 110.899L178.441 110.907L179.579 109.912ZM179.147 150.304L178.026 149.29L178.026 149.29L179.147 150.304ZM146.207 152.788L147.375 151.83L144.695 148.562V152.788H146.207ZM166.727 140.044L165.658 138.975L166.727 140.044ZM166.727 120.28L165.658 121.349L165.666 121.357L165.675 121.365L166.727 120.28ZM149.447 120.28L148.395 119.195L148.386 119.203L148.378 119.211L149.447 120.28ZM149.447 140.044L148.362 141.096L148.378 141.113L148.395 141.129L149.447 140.044ZM146.207 176.009H129.791V179.031H146.207V176.009ZM131.302 177.52V103.324H128.279V177.52H131.302ZM129.791 104.835H145.667V101.813H129.791V104.835ZM144.155 103.324V108.832H147.178V103.324H144.155ZM146.932 109.659C147.952 108.099 149.703 106.673 152.348 105.452L151.081 102.708C148.111 104.079 145.83 105.821 144.402 108.005L146.932 109.659ZM152.363 105.445C155.016 104.185 158.03 103.539 161.435 103.539V100.517C157.639 100.517 154.174 101.239 151.066 102.715L152.363 105.445ZM161.435 103.539C168.676 103.539 174.283 106.011 178.427 110.89L180.731 108.934C175.947 103.301 169.457 100.517 161.435 100.517V103.539ZM178.441 110.907C182.692 115.765 184.871 122.084 184.871 130H187.894C187.894 121.5 185.538 114.427 180.716 108.917L178.441 110.907ZM184.871 130C184.871 137.89 182.563 144.279 178.026 149.29L180.267 151.318C185.378 145.673 187.894 138.526 187.894 130H184.871ZM178.026 149.29C173.578 154.21 167.875 156.677 160.787 156.677V159.699C168.675 159.699 175.211 156.91 180.268 151.318L178.026 149.29ZM160.787 156.677C154.259 156.677 149.928 154.943 147.375 151.83L145.038 153.746C148.389 157.833 153.778 159.699 160.787 159.699V156.677ZM144.695 152.788V177.52H147.718V152.788H144.695ZM167.795 141.113C170.525 138.383 171.802 134.645 171.802 130.108H168.779C168.779 134.067 167.681 136.953 165.658 138.975L167.795 141.113ZM171.802 130.108C171.802 125.573 170.526 121.859 167.779 119.195L165.675 121.365C167.68 123.309 168.779 126.147 168.779 130.108H171.802ZM167.795 119.211C165.189 116.605 161.917 115.313 158.087 115.313V118.335C161.169 118.335 163.656 119.347 165.658 121.349L167.795 119.211ZM158.087 115.313C154.32 115.313 151.06 116.611 148.395 119.195L150.499 121.365C152.586 119.341 155.086 118.335 158.087 118.335V115.313ZM148.378 119.211C145.712 121.877 144.479 125.586 144.479 130.108H147.502C147.502 126.134 148.573 123.291 150.515 121.349L148.378 119.211ZM144.479 130.108C144.479 134.633 145.713 138.365 148.362 141.096L150.532 138.992C148.572 136.971 147.502 134.079 147.502 130.108H144.479ZM148.395 141.129C151.06 143.713 154.32 145.011 158.087 145.011V141.989C155.086 141.989 152.586 140.983 150.499 138.959L148.395 141.129ZM158.087 145.011C161.917 145.011 165.189 143.719 167.795 141.113L165.658 138.975C163.656 140.977 161.169 141.989 158.087 141.989V145.011ZM209.394 123.736L207.89 123.595L207.735 125.247H209.394V123.736ZM230.886 123.736V125.247H232.489L232.395 123.647L230.886 123.736ZM227.97 117.364L226.88 118.411L226.891 118.422L226.902 118.433L227.97 117.364ZM212.526 117.472L211.458 116.403L212.526 117.472ZM232.074 137.668L232.486 136.214L231.122 135.827L230.65 137.164L232.074 137.668ZM245.79 141.556L247.247 141.957L247.646 140.511L246.202 140.102L245.79 141.556ZM237.258 153.868L238.152 155.087L238.159 155.082L238.165 155.077L237.258 153.868ZM201.186 150.844L200.14 151.934L200.147 151.941L201.186 150.844ZM200.97 109.588L199.909 108.512L199.902 108.519L200.97 109.588ZM239.526 109.048L238.442 110.101L238.45 110.109L238.458 110.117L239.526 109.048ZM246.438 134.32V135.831H247.528L247.872 134.798L246.438 134.32ZM209.07 134.32V132.809H207.484L207.561 134.394L209.07 134.32ZM212.85 141.772L211.873 142.924L211.883 142.933L211.893 142.942L212.85 141.772ZM209.394 125.247H230.886V122.225H209.394V125.247ZM232.395 123.647C232.228 120.815 231.09 118.346 229.039 116.295L226.902 118.433C228.451 119.982 229.256 121.761 229.378 123.825L232.395 123.647ZM229.06 116.317C226.946 114.115 223.852 113.153 220.086 113.153V116.175C223.376 116.175 225.538 117.013 226.88 118.411L229.06 116.317ZM220.086 113.153C216.602 113.153 213.668 114.193 211.458 116.403L213.595 118.541C215.129 117.007 217.235 116.175 220.086 116.175V113.153ZM211.458 116.403C209.375 118.486 208.143 120.891 207.89 123.595L210.899 123.877C211.077 121.973 211.934 120.202 213.595 118.541L211.458 116.403ZM231.662 139.122L245.378 143.01L246.202 140.102L232.486 136.214L231.662 139.122ZM244.333 141.155C243.059 145.784 240.417 149.61 236.352 152.659L238.165 155.077C242.739 151.646 245.786 147.264 247.247 141.957L244.333 141.155ZM236.365 152.649C232.354 155.59 227.286 157.109 221.058 157.109V160.131C227.791 160.131 233.522 158.482 238.152 155.087L236.365 152.649ZM221.058 157.109C213.655 157.109 207.407 154.656 202.226 149.747L200.147 151.941C205.909 157.4 212.909 160.131 221.058 160.131V157.109ZM202.233 149.754C197.179 144.902 194.598 138.374 194.598 130H191.575C191.575 139.05 194.394 146.418 200.14 151.934L202.233 149.754ZM194.598 130C194.598 121.995 197.102 115.593 202.039 110.657L199.902 108.519C194.326 114.095 191.575 121.301 191.575 130H194.598ZM202.032 110.664C207.086 105.678 213.008 103.215 219.87 103.215V100.193C212.188 100.193 205.511 102.986 199.909 108.512L202.032 110.664ZM219.87 103.215C227.912 103.215 234.036 105.561 238.442 110.101L240.611 107.995C235.512 102.743 228.533 100.193 219.87 100.193V103.215ZM238.458 110.117C242.928 114.587 245.251 120.892 245.251 129.244H248.274C248.274 120.316 245.773 113.157 240.595 107.979L238.458 110.117ZM245.251 129.244C245.251 130.597 245.224 131.668 245.173 132.469C245.119 133.32 245.044 133.725 245.005 133.842L247.872 134.798C248.049 134.267 248.136 133.502 248.189 132.661C248.246 131.77 248.274 130.627 248.274 129.244H245.251ZM246.438 132.809H209.07V135.831H246.438V132.809ZM207.561 134.394C207.726 137.788 209.197 140.654 211.873 142.924L213.828 140.62C211.751 138.858 210.702 136.756 210.58 134.246L207.561 134.394ZM211.893 142.942C214.555 145.119 217.706 146.199 221.274 146.199V143.177C218.362 143.177 215.898 142.313 213.807 140.602L211.893 142.942ZM221.274 146.199C224.255 146.199 226.849 145.57 228.956 144.2C231.077 142.821 232.578 140.775 233.499 138.172L230.65 137.164C229.914 139.241 228.788 140.705 227.309 141.666C225.816 142.636 223.838 143.177 221.274 143.177V146.199ZM291.43 103.324H292.942V102.193L291.857 101.874L291.43 103.324ZM291.43 119.524L291.08 120.994L292.942 121.437V119.524H291.43ZM277.174 122.548L276.106 121.479L276.098 121.488L276.089 121.496L277.174 122.548ZM273.718 157V158.511H275.23V157H273.718ZM257.302 157H255.791V158.511H257.302V157ZM257.302 103.324V101.813H255.791V103.324H257.302ZM273.178 103.324H274.69V101.813H273.178V103.324ZM273.178 110.56H271.667L274.544 111.207L273.178 110.56ZM279.118 104.62L279.749 105.993V105.993L279.118 104.62ZM289.919 103.324V119.524H292.942V103.324H289.919ZM291.78 118.054C290.129 117.661 288.28 117.473 286.246 117.473V120.495C288.101 120.495 289.707 120.667 291.08 120.994L291.78 118.054ZM286.246 117.473C282.215 117.473 278.793 118.792 276.106 121.479L278.243 123.617C280.308 121.552 282.934 120.495 286.246 120.495V117.473ZM276.089 121.496C273.402 124.268 272.207 128.397 272.207 133.564H275.23C275.23 128.795 276.339 125.58 278.259 123.6L276.089 121.496ZM272.207 133.564V157H275.23V133.564H272.207ZM273.718 155.489H257.302V158.511H273.718V155.489ZM258.814 157V103.324H255.791V157H258.814ZM257.302 104.835H273.178V101.813H257.302V104.835ZM271.667 103.324V110.56H274.69V103.324H271.667ZM274.544 111.207C275.694 108.78 277.419 107.064 279.749 105.993L278.487 103.247C275.49 104.624 273.255 106.868 271.813 109.913L274.544 111.207ZM279.749 105.993C282.236 104.851 284.685 104.295 287.11 104.295V101.273C284.208 101.273 281.329 101.941 278.487 103.247L279.749 105.993ZM287.11 104.295C288.663 104.295 289.953 104.465 291.004 104.774L291.857 101.874C290.46 101.463 288.87 101.273 287.11 101.273V104.295ZM317.804 157V158.511H319.316V157H317.804ZM301.388 157H299.877V158.511H301.388V157ZM301.388 103.324V101.813H299.877V103.324H301.388ZM317.804 103.324H319.316V101.813H317.804V103.324ZM302.792 93.712L303.861 92.6434L302.792 93.712ZM302.792 80.104L303.861 81.1726V81.1726L302.792 80.104ZM316.292 80.104L315.224 81.1726L315.234 81.1827L315.244 81.1926L316.292 80.104ZM316.292 93.712L315.244 92.6234L315.234 92.6333L315.224 92.6434L316.292 93.712ZM317.804 155.489H301.388V158.511H317.804V155.489ZM302.9 157V103.324H299.877V157H302.9ZM301.388 104.835H317.804V101.813H301.388V104.835ZM316.293 103.324V157H319.316V103.324H316.293ZM303.861 92.6434C302.274 91.0568 301.496 89.174 301.496 86.908H298.473C298.473 89.97 299.566 92.6232 301.724 94.7806L303.861 92.6434ZM301.496 86.908C301.496 84.642 302.274 82.7592 303.861 81.1726L301.724 79.0354C299.566 81.1928 298.473 83.846 298.473 86.908H301.496ZM303.861 81.1726C305.456 79.5772 307.307 78.8072 309.488 78.8072V75.7848C306.486 75.7848 303.872 76.8868 301.724 79.0354L303.861 81.1726ZM309.488 78.8072C311.754 78.8072 313.637 79.586 315.224 81.1726L317.361 79.0354C315.204 76.878 312.55 75.7848 309.488 75.7848V78.8072ZM315.244 81.1926C316.897 82.7839 317.697 84.6607 317.697 86.908H320.72C320.72 83.8273 319.576 81.1681 317.341 79.0154L315.244 81.1926ZM317.697 86.908C317.697 89.1553 316.897 91.0321 315.244 92.6234L317.341 94.8006C319.576 92.6479 320.72 89.9887 320.72 86.908H317.697ZM315.224 92.6434C313.637 94.23 311.754 95.0088 309.488 95.0088V98.0312C312.55 98.0312 315.204 96.938 317.361 94.7806L315.224 92.6434ZM309.488 95.0088C307.307 95.0088 305.456 94.2388 303.861 92.6434L301.724 94.7806C303.872 96.9292 306.486 98.0312 309.488 98.0312V95.0088ZM344.605 123.736L343.101 123.595L342.946 125.247H344.605V123.736ZM366.097 123.736V125.247H367.7L367.606 123.647L366.097 123.736ZM363.181 117.364L362.091 118.411L362.102 118.422L362.113 118.433L363.181 117.364ZM347.737 117.472L346.669 116.403L347.737 117.472ZM367.285 137.668L367.697 136.214L366.333 135.827L365.861 137.164L367.285 137.668ZM381.001 141.556L382.458 141.957L382.856 140.511L381.413 140.102L381.001 141.556ZM372.469 153.868L373.363 155.087L373.369 155.082L373.376 155.077L372.469 153.868ZM336.397 150.844L335.351 151.934L335.358 151.941L336.397 150.844ZM336.181 109.588L335.12 108.512L335.113 108.519L336.181 109.588ZM374.737 109.048L373.653 110.101L373.661 110.109L373.669 110.117L374.737 109.048ZM381.649 134.32V135.831H382.738L383.083 134.798L381.649 134.32ZM344.281 134.32V132.809H342.694L342.772 134.394L344.281 134.32ZM348.061 141.772L347.083 142.924L347.094 142.933L347.104 142.942L348.061 141.772ZM344.605 125.247H366.097V122.225H344.605V125.247ZM367.606 123.647C367.439 120.815 366.301 118.346 364.25 116.295L362.113 118.433C363.662 119.982 364.467 121.761 364.589 123.825L367.606 123.647ZM364.271 116.317C362.157 114.115 359.063 113.153 355.297 113.153V116.175C358.587 116.175 360.749 117.013 362.091 118.411L364.271 116.317ZM355.297 113.153C351.813 113.153 348.879 114.193 346.669 116.403L348.806 118.541C350.34 117.007 352.446 116.175 355.297 116.175V113.153ZM346.669 116.403C344.586 118.486 343.354 120.891 343.101 123.595L346.11 123.877C346.288 121.973 347.145 120.202 348.806 118.541L346.669 116.403ZM366.873 139.122L380.589 143.01L381.413 140.102L367.697 136.214L366.873 139.122ZM379.544 141.155C378.27 145.784 375.628 149.61 371.562 152.659L373.376 155.077C377.95 151.646 380.997 147.264 382.458 141.957L379.544 141.155ZM371.576 152.649C367.565 155.59 362.497 157.109 356.269 157.109V160.131C363.002 160.131 368.733 158.482 373.363 155.087L371.576 152.649ZM356.269 157.109C348.866 157.109 342.618 154.656 337.437 149.747L335.358 151.941C341.12 157.4 348.12 160.131 356.269 160.131V157.109ZM337.444 149.754C332.39 144.902 329.808 138.374 329.808 130H326.786C326.786 139.05 329.605 146.418 335.351 151.934L337.444 149.754ZM329.808 130C329.808 121.995 332.313 115.593 337.25 110.657L335.113 108.519C329.537 114.095 326.786 121.301 326.786 130H329.808ZM337.243 110.664C342.297 105.678 348.219 103.215 355.081 103.215V100.193C347.399 100.193 340.721 102.986 335.12 108.512L337.243 110.664ZM355.081 103.215C363.122 103.215 369.247 105.561 373.653 110.101L375.822 107.995C370.723 102.743 363.744 100.193 355.081 100.193V103.215ZM373.669 110.117C378.139 114.587 380.462 120.892 380.462 129.244H383.484C383.484 120.316 380.984 113.157 375.806 107.979L373.669 110.117ZM380.462 129.244C380.462 130.597 380.435 131.668 380.384 132.469C380.33 133.32 380.254 133.725 380.216 133.842L383.083 134.798C383.26 134.267 383.347 133.502 383.4 132.661C383.457 131.77 383.484 130.627 383.484 129.244H380.462ZM381.649 132.809H344.281V135.831H381.649V132.809ZM342.772 134.394C342.937 137.788 344.408 140.654 347.083 142.924L349.039 140.62C346.962 138.858 345.913 136.756 345.791 134.246L342.772 134.394ZM347.104 142.942C349.766 145.119 352.917 146.199 356.485 146.199V143.177C353.573 143.177 351.108 142.313 349.018 140.602L347.104 142.942ZM356.485 146.199C359.465 146.199 362.06 145.57 364.167 144.2C366.288 142.821 367.789 140.775 368.71 138.172L365.861 137.164C365.125 139.241 363.999 140.705 362.52 141.666C361.027 142.636 359.049 143.177 356.485 143.177V146.199ZM408.929 157V158.511H410.441V157H408.929ZM392.513 157H391.002V158.511H392.513V157ZM392.513 103.324V101.813H391.002V103.324H392.513ZM408.389 103.324H409.901V101.813H408.389V103.324ZM408.389 109.48H406.878V115.134L409.699 110.234L408.389 109.48ZM414.653 103.972L415.287 105.344L415.294 105.341L415.302 105.337L414.653 103.972ZM437.981 107.968L436.814 108.927L436.822 108.938L437.981 107.968ZM442.949 157V158.511H444.461V157H442.949ZM426.533 157H425.022V158.511H426.533V157ZM424.265 119.416L423.104 120.383L423.126 120.41L423.149 120.435L424.265 119.416ZM411.305 119.524L410.193 118.501L410.191 118.503L411.305 119.524ZM407.418 126.22V157H410.441V126.22H407.418ZM408.929 155.489H392.513V158.511H408.929V155.489ZM394.025 157V103.324H391.002V157H394.025ZM392.513 104.835H408.389V101.813H392.513V104.835ZM406.878 103.324V109.48H409.901V103.324H406.878ZM409.699 110.234C410.891 108.163 412.725 106.527 415.287 105.344L414.02 102.6C410.966 104.009 408.623 106.045 407.08 108.726L409.699 110.234ZM415.302 105.337C417.996 104.057 420.691 103.431 423.401 103.431V100.409C420.207 100.409 417.071 101.151 414.005 102.607L415.302 105.337ZM423.401 103.431C429.47 103.431 433.854 105.324 436.814 108.927L439.149 107.009C435.485 102.548 430.148 100.409 423.401 100.409V103.431ZM436.822 108.938C439.861 112.571 441.438 117.316 441.438 123.304H444.461C444.461 116.764 442.726 111.285 439.141 106.998L436.822 108.938ZM441.438 123.304V157H444.461V123.304H441.438ZM442.949 155.489H426.533V158.511H442.949V155.489ZM428.045 157V126.112H425.022V157H428.045ZM428.045 126.112C428.045 123.026 427.207 120.397 425.381 118.397L423.149 120.435C424.347 121.747 425.022 123.582 425.022 126.112H428.045ZM425.426 118.449C423.622 116.284 420.978 115.313 417.785 115.313V118.335C420.353 118.335 422.028 119.092 423.104 120.383L425.426 118.449ZM417.785 115.313C414.741 115.313 412.163 116.36 410.193 118.501L412.418 120.547C413.76 119.088 415.502 118.335 417.785 118.335V115.313ZM410.191 118.503C408.31 120.555 407.418 123.173 407.418 126.22H410.441C410.441 123.795 411.133 121.949 412.419 120.545L410.191 118.503ZM472.62 120.388L471.551 119.319L471.543 119.328L471.535 119.336L472.62 120.388ZM472.728 139.936L471.659 141.005L471.667 141.013L471.675 141.02L472.728 139.936ZM488.928 141.232L489.877 142.408L489.882 142.404L488.928 141.232ZM492.816 135.508L493.258 134.063L491.792 133.614L491.365 135.087L492.816 135.508ZM507.288 139.936L508.753 140.307L509.106 138.912L507.73 138.491L507.288 139.936ZM498.54 153.112L497.589 151.937L497.58 151.945L498.54 153.112ZM461.172 150.628L460.117 151.711L460.124 151.718L460.132 151.724L461.172 150.628ZM460.956 109.804L462.017 110.88L462.017 110.88L460.956 109.804ZM498.324 107.104L497.375 108.28L498.324 107.104ZM506.964 120.388L507.4 121.835L508.775 121.42L508.431 120.026L506.964 120.388ZM492.276 124.816L490.821 125.225L491.238 126.707L492.712 126.263L492.276 124.816ZM481.476 115.313C477.569 115.313 474.226 116.645 471.551 119.319L473.688 121.457C475.766 119.379 478.326 118.335 481.476 118.335V115.313ZM471.535 119.336C468.891 122.063 467.653 125.755 467.653 130.216H470.675C470.675 126.325 471.741 123.465 473.705 121.44L471.535 119.336ZM467.653 130.216C467.653 134.626 468.939 138.285 471.659 141.005L473.796 138.867C471.764 136.835 470.675 134.014 470.675 130.216H467.653ZM471.675 141.02C474.416 143.68 477.786 145.011 481.692 145.011V141.989C478.542 141.989 475.936 140.944 473.78 138.852L471.675 141.02ZM481.692 145.011C484.909 145.011 487.68 144.183 489.877 142.408L487.978 140.056C486.432 141.305 484.379 141.989 481.692 141.989V145.011ZM489.882 142.404C492.045 140.642 493.527 138.48 494.267 135.929L491.365 135.087C490.809 137 489.699 138.654 487.973 140.06L489.882 142.404ZM492.374 136.953L506.846 141.381L507.73 138.491L493.258 134.063L492.374 136.953ZM505.823 139.565C504.616 144.327 501.9 148.448 497.589 151.937L499.491 154.287C504.252 150.432 507.368 145.769 508.753 140.307L505.823 139.565ZM497.58 151.945C493.431 155.358 488.172 157.109 481.692 157.109V160.131C488.747 160.131 494.721 158.21 499.5 154.279L497.58 151.945ZM481.692 157.109C473.997 157.109 467.534 154.581 462.212 149.532L460.132 151.724C466.041 157.331 473.259 160.131 481.692 160.131V157.109ZM462.226 149.545C456.993 144.449 454.367 138.044 454.367 130.216H451.345C451.345 138.804 454.262 146.007 460.117 151.711L462.226 149.545ZM454.367 130.216C454.367 122.3 456.933 115.896 462.017 110.88L459.894 108.728C454.179 114.368 451.345 121.572 451.345 130.216H454.367ZM462.017 110.88C467.194 105.771 473.54 103.215 481.152 103.215V100.193C472.78 100.193 465.661 103.037 459.894 108.728L462.017 110.88ZM481.152 103.215C487.868 103.215 493.235 104.941 497.375 108.28L499.272 105.928C494.485 102.067 488.403 100.193 481.152 100.193V103.215ZM497.375 108.28C501.598 111.686 504.285 115.835 505.497 120.75L508.431 120.026C507.051 114.429 503.977 109.722 499.272 105.928L497.375 108.28ZM506.528 118.941L491.84 123.369L492.712 126.263L507.4 121.835L506.528 118.941ZM493.731 124.407C493.002 121.816 491.613 119.646 489.576 117.935L487.632 120.249C489.195 121.562 490.254 123.208 490.821 125.225L493.731 124.407ZM489.576 117.935C487.44 116.14 484.69 115.313 481.476 115.313V118.335C484.166 118.335 486.168 119.02 487.632 120.249L489.576 117.935ZM529.176 123.736L527.671 123.595L527.516 125.247H529.176V123.736ZM550.668 123.736V125.247H552.27L552.176 123.647L550.668 123.736ZM547.752 117.364L546.661 118.411L546.672 118.422L546.683 118.433L547.752 117.364ZM532.308 117.472L531.239 116.403L532.308 117.472ZM551.856 137.668L552.268 136.214L550.904 135.827L550.431 137.164L551.856 137.668ZM565.572 141.556L567.029 141.957L567.427 140.511L565.984 140.102L565.572 141.556ZM557.04 153.868L557.933 155.087L557.94 155.082L557.946 155.077L557.04 153.868ZM520.968 150.844L519.921 151.934L519.928 151.941L520.968 150.844ZM520.752 109.588L519.69 108.512L519.683 108.519L520.752 109.588ZM559.308 109.048L558.223 110.101L558.231 110.109L558.239 110.117L559.308 109.048ZM566.22 134.32V135.831H567.309L567.653 134.798L566.22 134.32ZM528.852 134.32V132.809H527.265L527.342 134.394L528.852 134.32ZM532.632 141.772L531.654 142.924L531.664 142.933L531.675 142.942L532.632 141.772ZM529.176 125.247H550.668V122.225H529.176V125.247ZM552.176 123.647C552.01 120.815 550.871 118.346 548.82 116.295L546.683 118.433C548.232 119.982 549.038 121.761 549.159 123.825L552.176 123.647ZM548.842 116.317C546.728 114.115 543.634 113.153 539.868 113.153V116.175C543.157 116.175 545.319 117.013 546.661 118.411L548.842 116.317ZM539.868 113.153C536.383 113.153 533.449 114.193 531.239 116.403L533.376 118.541C534.91 117.007 537.016 116.175 539.868 116.175V113.153ZM531.239 116.403C529.156 118.486 527.924 120.891 527.671 123.595L530.68 123.877C530.859 121.973 531.715 120.202 533.376 118.541L531.239 116.403ZM551.443 139.122L565.159 143.01L565.984 140.102L552.268 136.214L551.443 139.122ZM564.115 141.155C562.84 145.784 560.199 149.61 556.133 152.659L557.946 155.077C562.52 151.646 565.567 147.264 567.029 141.957L564.115 141.155ZM556.146 152.649C552.136 155.59 547.067 157.109 540.84 157.109V160.131C547.572 160.131 553.303 158.482 557.933 155.087L556.146 152.649ZM540.84 157.109C533.437 157.109 527.188 154.656 522.007 149.747L519.928 151.941C525.691 157.4 532.69 160.131 540.84 160.131V157.109ZM522.014 149.754C516.96 144.902 514.379 138.374 514.379 130H511.356C511.356 139.05 514.175 146.418 519.921 151.934L522.014 149.754ZM514.379 130C514.379 121.995 516.884 115.593 521.82 110.657L519.683 108.519C514.107 114.095 511.356 121.301 511.356 130H514.379ZM521.813 110.664C526.867 105.678 532.79 103.215 539.652 103.215V100.193C531.97 100.193 525.292 102.986 519.69 108.512L521.813 110.664ZM539.652 103.215C547.693 103.215 553.817 105.561 558.223 110.101L560.392 107.995C555.294 102.743 548.314 100.193 539.652 100.193V103.215ZM558.239 110.117C562.709 114.587 565.032 120.892 565.032 129.244H568.055C568.055 120.316 565.554 113.157 560.376 107.979L558.239 110.117ZM565.032 129.244C565.032 130.597 565.005 131.668 564.954 132.469C564.9 133.32 564.825 133.725 564.786 133.842L567.653 134.798C567.83 134.267 567.917 133.502 567.971 132.661C568.028 131.77 568.055 130.627 568.055 129.244H565.032ZM566.22 132.809H528.852V135.831H566.22V132.809ZM527.342 134.394C527.508 137.788 528.978 140.654 531.654 142.924L533.609 140.62C531.533 138.858 530.483 136.756 530.361 134.246L527.342 134.394ZM531.675 142.942C534.336 145.119 537.488 146.199 541.056 146.199V143.177C538.144 143.177 535.679 142.313 533.589 140.602L531.675 142.942ZM541.056 146.199C544.036 146.199 546.63 145.57 548.737 144.2C550.858 142.821 552.359 140.775 553.28 138.172L550.431 137.164C549.696 139.241 548.569 140.705 547.09 141.666C545.597 142.636 543.619 143.177 541.056 143.177V146.199ZM572.656 141.772L572.39 140.284L571.03 140.527L571.15 141.903L572.656 141.772ZM586.588 139.288L588.095 139.18L587.975 137.505L586.322 137.8L586.588 139.288ZM588.856 144.472L587.76 145.513L587.787 145.541L587.815 145.568L588.856 144.472ZM599.656 145.228L600.6 146.408L600.623 146.39L600.645 146.37L599.656 145.228ZM595.984 137.452L595.648 138.925L595.653 138.927L595.984 137.452ZM589.828 136.048L590.164 134.575L590.151 134.572L590.139 134.569L589.828 136.048ZM577.732 130L576.596 130.997L576.602 131.004L576.608 131.011L577.732 130ZM579.676 106.888L578.682 105.749L578.672 105.758L579.676 106.888ZM610.132 106.78L609.074 107.86L609.086 107.871L609.097 107.882L610.132 106.78ZM615.964 117.688L616.235 119.175L617.594 118.927L617.469 117.551L615.964 117.688ZM602.356 120.172L600.854 120.339L601.033 121.95L602.627 121.659L602.356 120.172ZM600.088 115.42L599.019 116.489L599.034 116.504L599.05 116.519L600.088 115.42ZM590.584 114.88L589.677 113.671V113.671L590.584 114.88ZM593.068 122.224L593.36 120.741L593.347 120.739L593.335 120.737L593.068 122.224ZM600.196 123.628L600.492 122.146L600.488 122.145L600.196 123.628ZM611.104 153.328L612.14 154.428L612.146 154.423L612.151 154.417L611.104 153.328ZM584.752 156.892L584.214 158.304L584.225 158.308L584.752 156.892ZM577.732 152.464L576.578 153.44L576.598 153.464L576.62 153.487L577.732 152.464ZM574.06 146.956L572.676 147.565L572.686 147.587L572.697 147.61L574.06 146.956ZM572.921 143.26L586.853 140.776L586.322 137.8L572.39 140.284L572.921 143.26ZM585.08 139.396C585.249 141.754 586.146 143.814 587.76 145.513L589.951 143.431C588.829 142.25 588.215 140.854 588.095 139.18L585.08 139.396ZM587.815 145.568C589.62 147.283 592.096 148.035 595.012 148.035V145.013C592.6 145.013 590.971 144.397 589.897 143.376L587.815 145.568ZM595.012 148.035C597.219 148.035 599.153 147.565 600.6 146.408L598.712 144.048C597.998 144.619 596.837 145.013 595.012 145.013V148.035ZM600.645 146.37C602.018 145.18 602.787 143.662 602.787 141.88H599.764C599.764 142.69 599.453 143.404 598.666 144.086L600.645 146.37ZM602.787 141.88C602.787 140.32 602.122 138.998 600.922 137.994C599.78 137.038 598.193 136.399 596.315 135.977L595.653 138.927C597.303 139.297 598.362 139.792 598.983 140.312C599.547 140.784 599.764 141.28 599.764 141.88H602.787ZM596.32 135.979L590.164 134.575L589.492 137.521L595.648 138.925L596.32 135.979ZM590.139 134.569C584.847 133.455 581.157 131.546 578.855 128.989L576.608 131.011C579.491 134.214 583.865 136.337 589.516 137.527L590.139 134.569ZM578.867 129.003C576.524 126.335 575.355 123.2 575.355 119.524H572.332C572.332 123.912 573.755 127.761 576.596 130.997L578.867 129.003ZM575.355 119.524C575.355 115.01 577.097 111.202 580.68 108.018L578.672 105.758C574.478 109.486 572.332 114.102 572.332 119.524H575.355ZM580.669 108.027C584.32 104.841 588.885 103.215 594.472 103.215V100.193C588.25 100.193 582.952 102.023 578.682 105.749L580.669 108.027ZM594.472 103.215C601.236 103.215 606.005 104.855 609.074 107.86L611.189 105.7C607.346 101.937 601.675 100.193 594.472 100.193V103.215ZM609.097 107.882C612.417 110.998 614.139 114.309 614.459 117.825L617.469 117.551C617.068 113.147 614.902 109.186 611.166 105.678L609.097 107.882ZM615.692 116.201L602.084 118.685L602.627 121.659L616.235 119.175L615.692 116.201ZM603.858 120.005C603.606 117.742 602.708 115.816 601.125 114.321L599.05 116.519C600.06 117.472 600.673 118.714 600.854 120.339L603.858 120.005ZM601.156 114.351C599.557 112.752 597.312 112.073 594.688 112.073V115.095C596.816 115.095 598.171 115.64 599.019 116.489L601.156 114.351ZM594.688 112.073C592.811 112.073 591.117 112.591 589.677 113.671L591.49 116.089C592.354 115.441 593.396 115.095 594.688 115.095V112.073ZM589.677 113.671C588.168 114.803 587.344 116.356 587.344 118.228H590.367C590.367 117.364 590.696 116.685 591.49 116.089L589.677 113.671ZM587.344 118.228C587.344 119.669 587.829 120.957 588.869 121.943C589.864 122.887 591.236 123.431 592.801 123.711L593.335 120.737C592.091 120.513 591.358 120.139 590.949 119.751C590.584 119.405 590.367 118.947 590.367 118.228H587.344ZM592.776 123.707L599.904 125.111L600.488 122.145L593.36 120.741L592.776 123.707ZM599.899 125.11C605.091 126.148 608.87 128.088 611.4 130.812L613.615 128.756C610.529 125.432 606.1 123.268 600.492 122.146L599.899 125.11ZM611.4 130.812C613.95 133.559 615.208 136.756 615.208 140.476H618.231C618.231 135.988 616.681 132.057 613.615 128.756L611.4 130.812ZM615.208 140.476C615.208 145.012 613.519 148.909 610.056 152.239L612.151 154.417C616.176 150.547 618.231 145.876 618.231 140.476H615.208ZM610.067 152.228C606.683 155.417 601.843 157.109 595.336 157.109V160.131C602.364 160.131 608.036 158.295 612.14 154.428L610.067 152.228ZM595.336 157.109C591.521 157.109 588.176 156.554 585.279 155.476L584.225 158.308C587.519 159.534 591.231 160.131 595.336 160.131V157.109ZM585.29 155.48C582.417 154.385 580.298 153.022 578.844 151.441L576.62 153.487C578.477 155.506 581.039 157.095 584.214 158.304L585.29 155.48ZM578.885 151.488C577.366 149.693 576.22 147.963 575.422 146.302L572.697 147.61C573.628 149.549 574.929 151.491 576.578 153.44L578.885 151.488ZM575.443 146.347C574.706 144.672 574.289 143.105 574.161 141.641L571.15 141.903C571.311 143.751 571.83 145.64 572.676 147.565L575.443 146.347Z" fill="#11133A"/>
<path d="M56.916 80H8.316V3.42799H56.808V19.52H25.38V34.1H53.892V49.112H25.38V63.8H56.916V80ZM64.4768 80L82.9448 53.216L64.1528 26.324H83.4848L93.0968 41.012L102.493 26.324H120.853L102.277 52.568C114.301 69.704 120.709 78.848 121.501 80H102.277L92.3408 64.88C91.2608 66.536 89.5328 69.2 87.1568 72.872C84.7808 76.544 83.2328 78.92 82.5128 80H64.4768ZM146.207 100.52H129.791V26.324H145.667V31.832C146.891 29.96 148.907 28.376 151.715 27.08C154.595 25.712 157.835 25.028 161.435 25.028C169.067 25.028 175.115 27.656 179.579 32.912C184.115 38.096 186.383 44.792 186.383 53C186.383 61.208 183.971 67.976 179.147 73.304C174.395 78.56 168.275 81.188 160.787 81.188C154.019 81.188 149.159 79.388 146.207 75.788V100.52ZM166.727 63.044C169.103 60.668 170.291 57.356 170.291 53.108C170.291 48.86 169.103 45.584 166.727 43.28C164.423 40.976 161.543 39.824 158.087 39.824C154.703 39.824 151.823 40.976 149.447 43.28C147.143 45.584 145.991 48.86 145.991 53.108C145.991 57.356 147.143 60.668 149.447 63.044C151.823 65.348 154.703 66.5 158.087 66.5C161.543 66.5 164.423 65.348 166.727 63.044ZM209.394 46.736H230.886C230.742 44.288 229.77 42.164 227.97 40.364C226.242 38.564 223.614 37.664 220.086 37.664C216.918 37.664 214.398 38.6 212.526 40.472C210.654 42.344 209.61 44.432 209.394 46.736ZM232.074 60.668L245.79 64.556C244.422 69.524 241.578 73.628 237.258 76.868C232.938 80.036 227.538 81.62 221.058 81.62C213.282 81.62 206.658 79.028 201.186 73.844C195.786 68.66 193.086 61.712 193.086 53C193.086 44.648 195.714 37.844 200.97 32.588C206.298 27.332 212.598 24.704 219.87 24.704C228.222 24.704 234.774 27.152 239.526 32.048C244.35 36.872 246.762 43.604 246.762 52.244C246.762 54.98 246.654 56.672 246.438 57.32H209.07C209.214 60.272 210.474 62.756 212.85 64.772C215.226 66.716 218.034 67.688 221.274 67.688C226.818 67.688 230.418 65.348 232.074 60.668ZM291.43 26.324V42.524C289.918 42.164 288.19 41.984 286.246 41.984C282.574 41.984 279.55 43.172 277.174 45.548C274.87 47.924 273.718 51.596 273.718 56.564V80H257.302V26.324H273.178V33.56C274.474 30.824 276.454 28.844 279.118 27.62C281.782 26.396 284.446 25.784 287.11 25.784C288.766 25.784 290.206 25.964 291.43 26.324ZM317.804 80H301.388V26.324H317.804V80ZM302.792 16.712C300.92 14.84 299.984 12.572 299.984 9.90799C299.984 7.24399 300.92 4.976 302.792 3.104C304.664 1.232 306.896 0.295996 309.488 0.295996C312.152 0.295996 314.42 1.232 316.292 3.104C318.236 4.976 319.208 7.24399 319.208 9.90799C319.208 12.572 318.236 14.84 316.292 16.712C314.42 18.584 312.152 19.52 309.488 19.52C306.896 19.52 304.664 18.584 302.792 16.712ZM344.605 46.736H366.097C365.953 44.288 364.981 42.164 363.181 40.364C361.453 38.564 358.825 37.664 355.297 37.664C352.129 37.664 349.609 38.6 347.737 40.472C345.865 42.344 344.821 44.432 344.605 46.736ZM367.285 60.668L381.001 64.556C379.633 69.524 376.789 73.628 372.469 76.868C368.149 80.036 362.749 81.62 356.269 81.62C348.493 81.62 341.869 79.028 336.397 73.844C330.997 68.66 328.297 61.712 328.297 53C328.297 44.648 330.925 37.844 336.181 32.588C341.509 27.332 347.809 24.704 355.081 24.704C363.433 24.704 369.985 27.152 374.737 32.048C379.561 36.872 381.973 43.604 381.973 52.244C381.973 54.98 381.865 56.672 381.649 57.32H344.281C344.425 60.272 345.685 62.756 348.061 64.772C350.437 66.716 353.245 67.688 356.485 67.688C362.029 67.688 365.629 65.348 367.285 60.668ZM408.929 49.22V80H392.513V26.324H408.389V32.48C409.757 30.104 411.845 28.268 414.653 26.972C417.533 25.604 420.449 24.92 423.401 24.92C429.809 24.92 434.669 26.936 437.981 30.968C441.293 34.928 442.949 40.04 442.949 46.304V80H426.533V49.112C426.533 46.304 425.777 44.072 424.265 42.416C422.825 40.688 420.665 39.824 417.785 39.824C415.121 39.824 412.961 40.724 411.305 42.524C409.721 44.252 408.929 46.484 408.929 49.22ZM481.476 39.824C477.948 39.824 474.996 41.012 472.62 43.388C470.316 45.764 469.164 49.04 469.164 53.216C469.164 57.32 470.352 60.56 472.728 62.936C475.176 65.312 478.164 66.5 481.692 66.5C484.644 66.5 487.056 65.744 488.928 64.232C490.872 62.648 492.168 60.74 492.816 58.508L507.288 62.936C505.992 68.048 503.076 72.44 498.54 76.112C494.076 79.784 488.46 81.62 481.692 81.62C473.628 81.62 466.788 78.956 461.172 73.628C455.628 68.228 452.856 61.424 452.856 53.216C452.856 44.936 455.556 38.132 460.956 32.804C466.428 27.404 473.16 24.704 481.152 24.704C488.136 24.704 493.86 26.504 498.324 30.104C502.788 33.704 505.668 38.132 506.964 43.388L492.276 47.816C491.628 45.512 490.404 43.604 488.604 42.092C486.804 40.58 484.428 39.824 481.476 39.824ZM529.176 46.736H550.668C550.524 44.288 549.552 42.164 547.752 40.364C546.024 38.564 543.396 37.664 539.868 37.664C536.7 37.664 534.18 38.6 532.308 40.472C530.436 42.344 529.392 44.432 529.176 46.736ZM551.856 60.668L565.572 64.556C564.204 69.524 561.36 73.628 557.04 76.868C552.72 80.036 547.32 81.62 540.84 81.62C533.064 81.62 526.44 79.028 520.968 73.844C515.568 68.66 512.868 61.712 512.868 53C512.868 44.648 515.496 37.844 520.752 32.588C526.08 27.332 532.38 24.704 539.652 24.704C548.004 24.704 554.556 27.152 559.308 32.048C564.132 36.872 566.544 43.604 566.544 52.244C566.544 54.98 566.436 56.672 566.22 57.32H528.852C528.996 60.272 530.256 62.756 532.632 64.772C535.008 66.716 537.816 67.688 541.056 67.688C546.6 67.688 550.2 65.348 551.856 60.668ZM572.656 64.772L586.588 62.288C586.732 64.304 587.488 66.032 588.856 67.472C590.296 68.84 592.348 69.524 595.012 69.524C597.028 69.524 598.576 69.092 599.656 68.228C600.736 67.292 601.276 66.176 601.276 64.88C601.276 62.72 599.512 61.244 595.984 60.452L589.828 59.048C584.356 57.896 580.324 55.88 577.732 53C575.14 50.048 573.844 46.556 573.844 42.524C573.844 37.556 575.788 33.344 579.676 29.888C583.636 26.432 588.568 24.704 594.472 24.704C601.456 24.704 606.676 26.396 610.132 29.78C613.66 33.092 615.604 36.728 615.964 40.688L602.356 43.172C602.14 41.228 601.384 39.644 600.088 38.42C598.864 37.196 597.064 36.584 594.688 36.584C593.104 36.584 591.736 37.016 590.584 37.88C589.432 38.744 588.856 39.86 588.856 41.228C588.856 43.388 590.26 44.72 593.068 45.224L600.196 46.628C605.596 47.708 609.7 49.76 612.508 52.784C615.316 55.808 616.72 59.372 616.72 63.476C616.72 68.444 614.848 72.728 611.104 76.328C607.36 79.856 602.104 81.62 595.336 81.62C591.376 81.62 587.848 81.044 584.752 79.892C581.728 78.74 579.388 77.264 577.732 75.464C576.148 73.592 574.924 71.756 574.06 69.956C573.268 68.156 572.8 66.428 572.656 64.772Z" fill="#11133A"/>
</svg>
